{
    "_id": "VQkyrePnLph9yvD8",
    "data": {
        "attributes": {
            "ac": {
                "value": 21
            },
            "hardness": 0,
            "hasHealth": true,
            "hp": {
                "details": "",
                "max": 0,
                "temp": 0,
                "value": 0
            },
            "stealth": {
                "details": "(trained)",
                "value": 12
            }
        },
        "creatureType": "",
        "customModifiers": {},
        "details": {
            "description": "The flammable oil catches flame and explodes, burning up in a ball of fire.",
            "disable": "<p>@Check[type:survival|dc:25|name:Neutralize the oil|traits:hazard,environmental,fire] (trained) or @Check[type:crafting|dc:23|name:Neutralize the oil|traits:hazard,environmental,fire] to neutralize the oil without setting it alight</p>",
            "isComplex": false,
            "level": {
                "value": 4
            },
            "reset": "",
            "routine": ""
        },
        "flavourText": "",
        "nethysUrl": "",
        "recallKnowledgeText": "",
        "saves": {
            "fortitude": {
                "saveDetail": "",
                "value": 14
            },
            "reflex": {
                "saveDetail": "",
                "value": 14
            },
            "will": {
                "saveDetail": "",
                "value": 0
            }
        },
        "sidebarText": "",
        "source": {
            "value": "Pathfinder #176: Lost Mammoth Valley"
        },
        "statusEffects": [],
        "traits": {
            "ci": [],
            "di": {
                "custom": "",
                "selected": {},
                "value": [
                    "critical-hits",
                    "object-immunities",
                    "precision"
                ]
            },
            "dr": [],
            "dv": [],
            "rarity": "common",
            "size": {
                "value": "med"
            },
            "traits": {
                "custom": "",
                "value": [
                    "environmental",
                    "fire"
                ]
            }
        }
    },
    "effects": [],
    "flags": {},
    "img": "systems/pf2e/icons/default-icons/hazard.svg",
    "items": [
        {
            "_id": "k1rkunc4fzb4j6ey",
            "data": {
                "actionCategory": {
                    "value": "offensive"
                },
                "actionType": {
                    "value": "reaction"
                },
                "actions": {
                    "value": null
                },
                "description": {
                    "value": "<div data-visibility=\"gm\"><strong>Trigger</strong> An open flame is brought into area <strong>A4</strong></div>\n<hr />\n<p><strong>Effect</strong> The oil on the walls explodes, dealing [[/r {4d8+10}[fire]]]{4d8+10 fire damage} to all creatures and objects in areas <strong>A4</strong> and <strong>A3</strong>(@Check[type:reflex|dc:21|traits:hazard,environmental,fire|basic:true]).</p>"
                },
                "requirements": {
                    "value": ""
                },
                "rules": [],
                "slug": null,
                "source": {
                    "value": ""
                },
                "traits": {
                    "custom": "",
                    "rarity": "common",
                    "value": []
                },
                "trigger": {
                    "value": ""
                }
            },
            "effects": [],
            "flags": {},
            "img": "systems/pf2e/icons/actions/Reaction.webp",
            "name": "Explode",
            "sort": 0,
            "type": "action"
        }
    ],
    "name": "Oil Explosion",
    "token": {
        "disposition": 0,
        "height": 1,
        "img": "systems/pf2e/icons/default-icons/npc.svg",
        "name": "Oil Explosion",
        "width": 1
    },
    "type": "hazard"
}
