{
    "_id": "ZG9ZJ5BZrZ9MS3h3",
    "data": {
        "attributes": {
            "ac": {
                "value": 24
            },
            "hardness": 0,
            "hasHealth": true,
            "hp": {
                "details": "",
                "max": 60,
                "temp": 0,
                "tempmax": 0,
                "value": 60
            },
            "stealth": {
                "details": "<p>(expert)</p>",
                "value": 14
            }
        },
        "creatureType": "",
        "details": {
            "description": "<p>The restless spirits of clergy who once inhabited this now-defiled temple of Aroden remain within the sanctuary and pulpit.</p>",
            "disable": "<p>@Check[type:occultism|dc:26|name:Exorcise the spirits|traits:haunt,hazard] (expert) to exorcise the spirits, or @Check[type:deception|dc:28|name:Imitate the Arodenite faith|traits:haunt,hazard] or @Check[type:religion|dc:28] (trained) to imitate the Arodenite faith and render the haunt harmless until it resets</p>",
            "isComplex": false,
            "level": {
                "value": 6
            },
            "reset": "<p>The spirits return in [[/br 1d8 #Hours]]{1d8 hours} as long as any xulgaths remain in Moonstone Hall.</p>",
            "routine": ""
        },
        "saves": {
            "fortitude": {
                "saveDetail": "",
                "value": 13
            },
            "reflex": {
                "saveDetail": "",
                "value": 0
            },
            "will": {
                "saveDetail": "",
                "value": 15
            }
        },
        "source": {
            "value": "Pathfinder #152: Legacy of the Lost God"
        },
        "statusEffects": [],
        "traits": {
            "ci": [],
            "di": {
                "custom": "",
                "selected": {},
                "value": [
                    "critical-hits",
                    "physical"
                ]
            },
            "dr": [],
            "dv": [
                {
                    "type": "positive",
                    "value": 10
                }
            ],
            "rarity": "common",
            "size": {
                "value": "med"
            },
            "traits": {
                "custom": "",
                "value": [
                    "haunt"
                ]
            }
        }
    },
    "effects": [],
    "flags": {},
    "img": "systems/pf2e/icons/default-icons/hazard.svg",
    "items": [
        {
            "_id": "lp862sClvRojxe2C",
            "data": {
                "actionCategory": {
                    "value": ""
                },
                "actionType": {
                    "value": "reaction"
                },
                "actions": {
                    "value": null
                },
                "description": {
                    "value": "<p data-visibility=\"gm\"><strong>Trigger</strong> A non-Arodenite creature approaches within 5 feet of the lectern</p>\n<p><strong>Effect</strong> A spectral minister appears before the pulpit, resembling an ever-shifting amalgamation of several past priests. The spectral minister delivers fervent exhortations about faithlessness. Each creature on the dais must succeed at a @Check[type:will|dc:24] save or become @Compendium[pf2e.conditionitems.Drained]{Drained 2}. On a critical failure, the creature is @Compendium[pf2e.conditionitems.Drained]{Drained 4}.</p>"
                },
                "requirements": {
                    "value": ""
                },
                "rules": [],
                "slug": null,
                "source": {
                    "value": ""
                },
                "traits": {
                    "custom": "",
                    "rarity": "common",
                    "value": [
                        "divine",
                        "necromancy"
                    ]
                },
                "trigger": {
                    "value": ""
                },
                "weapon": {
                    "value": ""
                }
            },
            "effects": [],
            "flags": {},
            "img": "systems/pf2e/icons/actions/Reaction.webp",
            "name": "Phantom Sermon",
            "sort": 100000,
            "type": "action"
        }
    ],
    "name": "Echoes of Faith",
    "token": {
        "disposition": 0,
        "height": 1,
        "img": "systems/pf2e/icons/default-icons/hazard.svg",
        "name": "Echoes of Faith",
        "width": 1
    },
    "type": "hazard"
}
