{
    "_id": "2cyhXgGkmoFe3Phw",
    "content": "<p>A mentor or patron took an interest in your development and volunteered to train or sponsor you.</p>\n<p>Add the @Compendium[pf2e.feats-srd.Experienced Professional]{Experienced Professional} skill feat to your background options.</p>",
    "flags": {},
    "name": "Trained by a Mentor",
    "permission": {
        "default": 0
    }
}
