{
    "_id": "fyKPDYFeIrgzADJB",
    "data": {
        "boosts": {
            "0": {
                "value": [
                    "con",
                    "dex"
                ]
            },
            "1": {
                "value": [
                    "cha",
                    "con",
                    "dex",
                    "int",
                    "str",
                    "wis"
                ]
            }
        },
        "description": {
            "value": "<p>You're an outlaw whose first crime was stealing the guns from Alkenstar's Gunworks which allowed you to commence a crime spree of epic proportions. You don't know where your road ends, but it's probably going to be a bloody affair. The life of an adventurer might even be a relief compared to a life forever on the run from Alkenstar authorities and their allies.</p>\n<p>Choose two ability boosts. One boost must be to <strong>Dexterity</strong> or <strong>Constitution</strong>, and one is a free ability boost.</p>\n<p>You're trained in Thievery and Underworld Lore. You gain the @Compendium[pf2e.feats-srd.Subtle Theft]{Subtle Theft} skill feat.</p>"
        },
        "items": {
            "lkc9f": {
                "id": "hVZbnsDuXihggylt",
                "img": "systems/pf2e/icons/features/feats/feats.webp",
                "level": 1,
                "name": "Subtle Theft",
                "pack": "pf2e.feats-srd"
            }
        },
        "rules": [],
        "source": {
            "value": "Pathfinder Guns & Gears"
        },
        "trainedLore": "Underworld",
        "trainedSkills": {
            "custom": "",
            "value": [
                "thi"
            ]
        },
        "traits": {
            "custom": "",
            "rarity": "uncommon",
            "value": []
        }
    },
    "effects": [],
    "flags": {},
    "img": "systems/pf2e/icons/default-icons/background.svg",
    "name": "Alkenstar Outlaw",
    "type": "background"
}
