{
    "_id": "z4cCsOT36MB7xldR",
    "data": {
        "boosts": {
            "0": {
                "value": [
                    "cha",
                    "con"
                ]
            },
            "1": {
                "value": [
                    "cha",
                    "con",
                    "dex",
                    "int",
                    "str",
                    "wis"
                ]
            }
        },
        "description": {
            "value": "<p>You're skilled at shouting to catch and keep the attention of passersby. A few well-timed and forcefully spoken words not only get people to notice you but also engage them to respond to you. You may have previously worked as a crier or in a more formal barker capacity with Mistress Dusklight's Celestial Menagerie. Either way, your ability to bully a crowd is impressive.</p>\n<p>Choose two ability boosts. One must be to <strong>Constitution</strong> or <strong>Charisma</strong>, and one is a free ability boost.</p>\n<p>You're trained in the Intimidation skill, and the Crowd Lore skill. You gain the @Compendium[pf2e.feats-srd.Group Coercion]{Group Coercion} skill feat.</p>"
        },
        "items": {
            "raubi": {
                "id": "gUqvezs2zzoTXFAI",
                "img": "systems/pf2e/icons/features/feats/feats.webp",
                "level": "1",
                "name": "Group Coercion",
                "pack": "pf2e.feats-srd"
            }
        },
        "rules": [],
        "source": {
            "value": "Pathfinder: Extinction Curse Player's Guide"
        },
        "trainedLore": "Crowd Lore",
        "trainedSkills": {
            "value": [
                "itm"
            ]
        },
        "traits": {
            "custom": "",
            "rarity": "common",
            "value": []
        }
    },
    "effects": [],
    "flags": {},
    "img": "systems/pf2e/icons/default-icons/background.svg",
    "name": "Barker",
    "type": "background"
}
