{
    "_id": "M8EfhY6Knb2iQm6S",
    "data": {
        "boosts": {
            "0": {
                "value": [
                    "con",
                    "str"
                ]
            },
            "1": {
                "value": [
                    "cha",
                    "con",
                    "dex",
                    "int",
                    "str",
                    "wis"
                ]
            }
        },
        "description": {
            "value": "<p>Was it five shots or six? It doesn't really matter in the end, because after those nice folks bought all your drinks, you woke up on the lowest rung of the ladder. Whether a crewmate on a ship, a conscript in an army, or something worse, you've nowhere to go but up. This background generally requires buy-in with the entire group to tell a story allowing you to play a character starting their adventuring due to circumstances outside their own control. However, you can also play a character who was once press-ganged and has since escaped that life. If you do, press-ganged doesn't have the uncommon trait, and it has the same mechanical effects either way.</p>\n<p>Choose two ability boosts. One must be to <strong>Strength</strong> or <strong>Constitution</strong>, and one is a free ability boost.</p>\n<p>You're trained in the Athletics skill and the Labor Lore skill. You gain the @Compendium[pf2e.feats-srd.Armor Assist]{Armor Assist} skill feat.</p>"
        },
        "items": {
            "7kapn": {
                "id": "Lc4dJZivRwU3QEmT",
                "img": "systems/pf2e/icons/features/feats/feats.webp",
                "level": 1,
                "name": "Armor Assist",
                "pack": "pf2e.feats-srd"
            }
        },
        "rules": [],
        "source": {
            "value": "Pathfinder Guns & Gears"
        },
        "trainedLore": "Labor Lore",
        "trainedSkills": {
            "custom": "",
            "value": [
                "ath"
            ]
        },
        "traits": {
            "custom": "",
            "rarity": "uncommon",
            "value": []
        }
    },
    "effects": [],
    "flags": {},
    "img": "systems/pf2e/icons/default-icons/background.svg",
    "name": "Press-Ganged (G&G)",
    "type": "background"
}
