{
    "_id": "oRQFgqcl8L5ix8h1",
    "data": {
        "baseItem": null,
        "brokenThreshold": {
            "value": 0
        },
        "containerId": "null",
        "description": {
            "value": "<p>This thin, multicolored scarf shifts between hues in almost dizzying patterns.</p>\n<hr />\n<p><strong>Activate</strong> <span class=\"pf2-icon\">d</span> Interact (emotion, enchantment, mental, visual)</p>\n<p><strong>Frequency</strong> once per day</p>\n<p><strong>Effect</strong> You Stride. All creatures within 30 feet of you when you started the Stride must attempt a @Check[type:will|dc:35|traits:emotion,mental,visual] save. On a failure, a creature becomes @Compendium[pf2e.conditionitems.Fascinated]{Fascinated} and must spend at least one of its actions on its next turn to move toward you. A fascinated creature can attempt another Will save if you move more than 30 feet away from them, and as normal, acting hostile to a creature or its allies breaks fascination automatically. Creatures that critically failed their save don't receive further saves if you move more than 30 feet away, and acting hostile to such a creature's allies allows them to attempt another save, rather than automatically ending the fascination. You can Sustain the Activation for up to 1 minute.</p>"
        },
        "equippedBulk": {
            "value": ""
        },
        "hardness": 0,
        "hp": {
            "brokenThreshold": 0,
            "max": 0,
            "value": 0
        },
        "identification": {
            "misidentified": {},
            "status": "identified",
            "unidentified": {
                "data": {
                    "description": {
                        "value": ""
                    }
                },
                "img": "",
                "name": ""
            }
        },
        "level": {
            "value": 16
        },
        "negateBulk": {
            "value": "0"
        },
        "preciousMaterial": {
            "value": null
        },
        "preciousMaterialGrade": {
            "value": null
        },
        "price": {
            "value": "8000 gp"
        },
        "quantity": 1,
        "rules": [],
        "size": "med",
        "source": {
            "value": "Pathfinder Lost Omens: The Grand Bazaar"
        },
        "stackGroup": null,
        "traits": {
            "custom": "",
            "rarity": "uncommon",
            "value": [
                "enchantment",
                "magical"
            ]
        },
        "usage": {
            "value": "held-in-one-hand"
        },
        "weight": {
            "value": "-"
        }
    },
    "effects": [],
    "flags": {},
    "img": "systems/pf2e/icons/default-icons/equipment.svg",
    "name": "Alluring Scarf (Major)",
    "type": "equipment"
}
