{
    "_id": "h2UebueRKfVLwKOa",
    "data": {
        "MAP": {
            "value": ""
        },
        "baseItem": "club",
        "bonus": {
            "value": 0
        },
        "bonusDamage": {
            "value": 0
        },
        "brokenThreshold": {
            "value": 0
        },
        "category": "simple",
        "containerId": "null",
        "damage": {
            "damageType": "slashing",
            "dice": 1,
            "die": "d6",
            "value": ""
        },
        "description": {
            "value": "<p>A large crystal of warpglass floats above the head of this silvery purple +3 anarchic greater striking club. If you successfully Strike a creature, the cane also affects the target with a @Compendium[pf2e.rollable-tables.Warpwaves]{Warpwave}.</p>\n<p>While you carry the cane, you hear a constant, distracting chorus of laughing, incoherent Protean whispers and sing-song voices in your mind. Blatant acts of self-indulgence or narcissism quell these whispers, from a few minutes up to a full day depending on the scope of the act, but they immediately return when you use the artifact's powers. The gradually rising chorus eventually drives away rational thought and renders the cane's owner insane, even if staved off from time to time with self-centered acts.</p>\n<p>As the artifact's abilities pull material from the Maelstrom, it doesn't function in areas where planar connections are severed.</p>\n<hr />\n<p><strong>Activate</strong><span class=\"pf2-icon\">r</span> envision</p>\n<p><strong>Trigger</strong> You are targeted by a ranged attack from an opponent you can see</p>\n<p><strong>Effect</strong> You draw a temporary shield of chaotic turbulence with a cerulean flash. You gain a +3 circumstance bonus to AC against the triggering attack.</p>\n<hr />\n<p><strong>Activate</strong> 10 minutes (command, envision, Interact)</p>\n<p><strong>Effect</strong> The Cane of the Maelstrom casts a 5th-level <em>@Compendium[pf2e.spells-srd.Hallucinatory Terrain]{Hallucinatory Terrain}</em> spell and infuses the illusion with quasi-real substance drawn from the primal chaos of the Maelstrom. Creatures that don't disbelieve the illusion treat structures and terrain created through the spell as though they were real, ascending illusory stairs, becoming trapped by illusory quicksand, and so on. If no creature disbelieves the illusion during its duration, the changes become wholly real and permanent when its duration expires.</p>\n<hr />\n<p><strong>Activate</strong> 1 minute (Interact)</p>\n<p><strong>Effect</strong> The Cane of the Maelstrom casts a 5th-level <em>@Compendium[pf2e.spells-srd.Creation]{Creation}</em> spell, except the duration is unlimited and you can create delicate or complex objects by succeeding at an applicable Crafting skill check when you activate this ability.</p>"
        },
        "equippedBulk": {
            "value": ""
        },
        "group": "club",
        "hardness": 0,
        "hp": {
            "brokenThreshold": 0,
            "max": 0,
            "value": 0
        },
        "identification": {
            "misidentified": {},
            "status": "identified",
            "unidentified": {
                "data": {
                    "description": {
                        "value": ""
                    }
                },
                "img": "",
                "name": ""
            }
        },
        "level": {
            "value": 22
        },
        "negateBulk": {
            "value": "0"
        },
        "potencyRune": {
            "value": 3
        },
        "preciousMaterial": {
            "value": null
        },
        "preciousMaterialGrade": {
            "value": null
        },
        "price": {
            "value": "0 gp"
        },
        "property1": {
            "critDamage": "",
            "critDamageType": "",
            "critDice": 0,
            "critDie": "",
            "criticalConditionType": "",
            "criticalConditionValue": null,
            "damageType": "",
            "dice": 0,
            "die": "",
            "strikeConditionType": "",
            "strikeConditionValue": null,
            "value": ""
        },
        "propertyRune1": {
            "value": "anarchic"
        },
        "propertyRune2": {
            "value": null
        },
        "propertyRune3": {
            "value": null
        },
        "propertyRune4": {
            "value": null
        },
        "quantity": 1,
        "range": null,
        "reload": {
            "value": ""
        },
        "rules": [
            {
                "key": "Note",
                "outcome": [
                    "Success"
                ],
                "selector": "{item|_id}-damage",
                "text": "<p class='compact-text'><strong>Warpwave</strong> A creature hit by the Cane of the Maelstrom is subjected to a @Compendium[pf2e.rollable-tables.Warpwaves]{Warpwave}.</p>"
            }
        ],
        "size": "med",
        "source": {
            "value": "Pathfinder #162: Ruins of the Radiant Siege"
        },
        "specific": {
            "material": null,
            "runes": {
                "potency": 3,
                "striking": "greaterStriking"
            },
            "value": true
        },
        "splashDamage": {
            "value": 0
        },
        "stackGroup": null,
        "strikingRune": {
            "value": "greaterStriking"
        },
        "traits": {
            "custom": "",
            "rarity": "unique",
            "value": [
                "artifact",
                "conjuration",
                "cursed",
                "divine"
            ]
        },
        "usage": {
            "value": "held-in-one-hand"
        },
        "weight": {
            "value": "L"
        }
    },
    "effects": [],
    "flags": {},
    "img": "systems/pf2e/icons/equipment/staves/cane-of-the-maelstrom.webp",
    "name": "Cane of the Maelstrom",
    "type": "weapon"
}
