{
    "_id": "Do4rJuA1nhr2TTiF",
    "data": {
        "MAP": {
            "value": ""
        },
        "baseItem": "alchemical-bomb",
        "bonus": {
            "value": 0
        },
        "bonusDamage": {
            "value": null
        },
        "brokenThreshold": {
            "value": 0
        },
        "category": "martial",
        "containerId": null,
        "damage": {
            "damageType": "fire",
            "dice": 2,
            "die": "d6",
            "value": ""
        },
        "description": {
            "value": "<p>A dwarven daisy is a string of dozens of firecrackers that create tiny, loud explosions. The string ends with a short, wrapped fuse. Pulling off the wrapping in a quick motion lights the fuse and is done as part of the action to Strike. A dwarven daisy deals the listed fire damage and splash damage. A dwarven daisy also has a chance to dazzle its target. A creature struck by a dwarven daisy must succeed at a @Check[type:fortitude|dc:18|name:Moderate Dwarven Daisy|showDC:all] save or become @Compendium[pf2e.conditionitems.Dazzled]{Dazzled} for 1 round.</p>\n<p><strong>Activate</strong> <span class=\"pf2-icon\">A</span> Strike</p>\n<p>The firework deals 2d6 fire damage and 2 fire splash damage. The DC is 18.</p>"
        },
        "equippedBulk": {
            "value": ""
        },
        "group": "bomb",
        "hardness": 0,
        "hp": {
            "brokenThreshold": 0,
            "max": 0,
            "value": 0
        },
        "identification": {
            "misidentified": {},
            "status": "identified",
            "unidentified": {
                "data": {
                    "description": {
                        "value": ""
                    }
                },
                "img": "",
                "name": ""
            }
        },
        "level": {
            "value": 3
        },
        "negateBulk": {
            "value": "0"
        },
        "potencyRune": {
            "value": null
        },
        "preciousMaterial": {
            "value": ""
        },
        "preciousMaterialGrade": {
            "value": ""
        },
        "price": {
            "value": "18 gp"
        },
        "property1": {
            "critDamage": "",
            "critDamageType": "",
            "critDice": null,
            "critDie": "",
            "criticalConditionType": "",
            "criticalConditionValue": null,
            "damageType": "",
            "dice": null,
            "die": "",
            "strikeConditionType": "",
            "strikeConditionValue": null,
            "value": ""
        },
        "propertyRune1": {
            "value": ""
        },
        "propertyRune2": {
            "value": ""
        },
        "propertyRune3": {
            "value": ""
        },
        "propertyRune4": {
            "value": ""
        },
        "quantity": 1,
        "range": 20,
        "reload": {
            "value": "1"
        },
        "rules": [
            {
                "key": "Note",
                "selector": "{item|_id}-damage",
                "text": "<p class='compact-text'>@Localize[PF2E.BombNotes.DwarvenDaisy.Moderate.success]</p>"
            }
        ],
        "size": "med",
        "source": {
            "value": "Pathfinder Society Quest #5: The Dragon Who Stole Evoking Day"
        },
        "splashDamage": {
            "value": 2
        },
        "stackGroup": null,
        "strikingRune": {
            "value": ""
        },
        "traits": {
            "custom": "",
            "rarity": "uncommon",
            "value": [
                "alchemical",
                "bomb",
                "consumable",
                "fire",
                "splash"
            ]
        },
        "usage": {
            "value": "held-in-one-hand"
        },
        "weight": {
            "value": "L"
        }
    },
    "effects": [],
    "flags": {},
    "img": "systems/pf2e/icons/equipment/consumables/ammunition/dwarven-daisy.webp",
    "name": "Dwarven Daisy (Moderate)",
    "type": "weapon"
}
