{
    "_id": "kZKK4Va3e7n3p3tv",
    "data": {
        "baseItem": null,
        "brokenThreshold": {
            "value": 0
        },
        "containerId": null,
        "description": {
            "value": "<p>This fine wooden box is inlaid with Dwarven runes, with hinges and a clasp of forged iron. The box contains a few handfuls of fine sand.</p>\n<p><strong>Activate</strong> 1 minute (envision, Interact)</p>\n<p><strong>Frequency</strong> once per day</p>\n<p><strong>Effect</strong> You hold the box closed and, while envisioning the earth around you, turn the box clockwise three times and then give it three slow shakes. When you open the box, the sand has arranged itself to replicate, in miniature, the stone terrain surrounding you, to a range of 60 feet. This shows details of paths; hills; embankments; boulders; and even artificial structures like walls, ditches, and tunnels, as long as they're made of stone and earth. If you're underground, it reveals tunnels and voids in the earth within 60 feet at your current depth. The sand maintains its shape until you close the box.</p>"
        },
        "equippedBulk": {
            "value": ""
        },
        "hardness": 0,
        "hp": {
            "brokenThreshold": 0,
            "max": 0,
            "value": 0
        },
        "identification": {
            "misidentified": {},
            "status": "identified",
            "unidentified": {
                "data": {
                    "description": {
                        "value": ""
                    }
                },
                "img": "",
                "name": ""
            }
        },
        "level": {
            "value": 9
        },
        "negateBulk": {
            "value": "0"
        },
        "preciousMaterial": {
            "value": ""
        },
        "preciousMaterialGrade": {
            "value": ""
        },
        "price": {
            "value": "575 gp"
        },
        "quantity": 1,
        "rules": [],
        "size": "med",
        "source": {
            "value": "Pathfinder Advanced Player's Guide"
        },
        "stackGroup": null,
        "traits": {
            "custom": "",
            "rarity": "uncommon",
            "value": [
                "divination",
                "magical",
                "scrying"
            ]
        },
        "usage": {
            "value": "held-in-one-hand"
        },
        "weight": {
            "value": "L"
        }
    },
    "effects": [],
    "flags": {},
    "img": "systems/pf2e/icons/equipment/held-items/earthsight-box.webp",
    "name": "Earthsight Box",
    "type": "equipment"
}
