{
    "_id": "PuqdH7DmNsN79HyE",
    "data": {
        "armor": {
            "value": 2
        },
        "baseItem": null,
        "brokenThreshold": {
            "value": null
        },
        "category": "light",
        "check": {
            "value": 0
        },
        "containerId": null,
        "description": {
            "value": "<p>Elven chain is a chain shirt made of mithral that glitters in even the faintest light. It grants a +2 item bonus to AC and has no check penalty.</p>\n<p>Created by elven artisans employing ancient crafting techniques, elven chain is exceptionally quiet. Unlike other chain shirts-even other mithral chain shirts-elven chain does not have the noisy trait. This suit of armor can be etched with runes like any other mithral chain shirt.</p>\n<p><strong>Craft Requirements</strong> The initial raw materials must include mithral worth at least 26,000 gp</p>"
        },
        "dex": {
            "value": 3
        },
        "equippedBulk": {
            "value": "0"
        },
        "group": "chain",
        "hardness": 0,
        "hp": {
            "brokenThreshold": 0,
            "max": 0,
            "value": 0
        },
        "identification": {
            "misidentified": {},
            "status": "identified",
            "unidentified": {
                "data": {
                    "description": {
                        "value": ""
                    }
                },
                "img": "",
                "name": ""
            }
        },
        "level": {
            "value": 20
        },
        "negateBulk": {
            "value": "0"
        },
        "potency": {},
        "potencyRune": {
            "value": 0
        },
        "preciousMaterial": {
            "value": "mithral"
        },
        "preciousMaterialGrade": {
            "value": "high"
        },
        "price": {
            "value": "52,000 gp"
        },
        "propertyRune1": {
            "value": ""
        },
        "propertyRune2": {
            "value": ""
        },
        "propertyRune3": {
            "value": ""
        },
        "propertyRune4": {
            "value": ""
        },
        "quantity": 1,
        "resiliencyRune": {
            "value": ""
        },
        "rules": [],
        "size": "med",
        "source": {
            "value": "Pathfinder Core Rulebook"
        },
        "speed": {
            "value": 0
        },
        "stackGroup": null,
        "strength": {
            "value": 12
        },
        "traits": {
            "custom": "",
            "rarity": "uncommon",
            "value": [
                "flexible"
            ]
        },
        "usage": {
            "value": "wornarmor"
        },
        "weight": {
            "value": "1"
        }
    },
    "effects": [],
    "flags": {},
    "img": "systems/pf2e/icons/equipment/armor/precious-metal-armor/elven-chain.webp",
    "name": "Elven Chain (High-Grade)",
    "type": "armor"
}
