{
    "_id": "IS1P6er2hLyKXAss",
    "data": {
        "baseItem": null,
        "brokenThreshold": {
            "value": 0
        },
        "containerId": null,
        "description": {
            "value": "<p>This concave green lens is pitted and flawed; its jagged edges can cut those who don't handle it with care. While you have the Emerald Fulcrum Lens invested, your flesh appears waxen and pallid. You gain negative healing and harm spells gain a +4 status bonus to the Hit Points they restore to you. You can also activate the lens in the following ways.</p>\n<hr />\n<p><strong>Activate</strong> <span class=\"pf2-icon\">2</span> Interact (healing)</p>\n<p><strong>Frequency</strong> once per day</p>\n<p><strong>Effect</strong> You grasp the Emerald Fulcrum Lens in one hand, regain 30 Hit Points, and gain a +2 item bonus to saving throws against magic for 1 round.</p>\n<p>@Compendium[pf2e.equipment-effects.Effect: Emerald Fulcrum Lens (Saving Throw)]{Effect: Emerald Fulcrum Lens (Saving Throw)}</p>\n<hr />\n<p><strong>Activate</strong> <span class=\"pf2-icon\">2</span> Interact (attack, possession)</p>\n<p>While grasping the lens, make a melee spell attack roll with a modifier of +20. On a hit, you force the splinter of Nhimbaloth's essence from the lens to possess the target. You're no longer invested in the lens, and the target gains the benefits as though it had invested the lens but can't activate the lens's other abilities. This effect is permanent, but it can be ended by any effect that removes a possession effect. The lens doesn't have any magical abilities until the possession effect ends; when it does, the essence returns to the lens.</p>"
        },
        "equippedBulk": {
            "value": ""
        },
        "hardness": 0,
        "hp": {
            "brokenThreshold": 0,
            "max": 0,
            "value": 0
        },
        "identification": {
            "misidentified": {},
            "status": "identified",
            "unidentified": {
                "data": {
                    "description": {
                        "value": ""
                    }
                },
                "img": "",
                "name": ""
            }
        },
        "level": {
            "value": 10
        },
        "negateBulk": {
            "value": "0"
        },
        "preciousMaterial": {
            "value": ""
        },
        "preciousMaterialGrade": {
            "value": ""
        },
        "price": {
            "value": "1,000 gp"
        },
        "quantity": 1,
        "rules": [],
        "size": "med",
        "source": {
            "value": "Pathfinder #165: Eyes of Empty Death"
        },
        "stackGroup": null,
        "traits": {
            "custom": "",
            "rarity": "unique",
            "value": [
                "invested",
                "necromancy",
                "negative",
                "occult"
            ]
        },
        "usage": {
            "value": "held-in-one-hand"
        },
        "weight": {
            "value": "3"
        }
    },
    "effects": [],
    "flags": {},
    "img": "systems/pf2e/icons/equipment/other/emerald-fulcrum-lenses.webp",
    "name": "Emerald Fulcrum Lens",
    "type": "equipment"
}
