{
    "_id": "9Ptn7yy2QeM8taU8",
    "data": {
        "baseItem": null,
        "brokenThreshold": {
            "value": 0
        },
        "containerId": null,
        "description": {
            "value": "<p>Each of the legendary <em>Orbs of Dragonkind</em> contains the essence and personality of a powerful dragon. The <em>Orb of Gold Dragonkind</em> was the most powerful of them all, until it was shattered by Mengkare's draconic breath. Reconstructed at great expense by enslaved spellcasters toiling under the Scarlet Triad's watch, the <em>Flawed Orb of Gold Dragonkind</em> is a shadow of its prior self, yet it remains a potent weapon against dragons of all types.</p>\n<p>While carried, the <em>Flawed Orb of Gold Dragonkind</em> grants its owner resistance 30 to the Breath Weapons of gold dragons. The owner also can sense if there are any dragons within 10f gold dragons. The owner also can sense if there are any dragons within 10 miles, or any gold dragons within 100 miles. When within 1 mile of a dragon, they can determine the direction to the dragon and the dragon's age category (such as young, ancient, or wyrm).</p>\n<p><strong>Activate</strong> <span class=\"pf2-icon\">D</span> envision, Interact</p>\n<p><strong>Frequency</strong> Three times per day</p>\n<p><strong>Effect</strong> You attempt to overwhelm a dragon's mind-while you cannot control the dragon, you can render it immobile for a short time. Choose a dragon within 60 feet; the dragon can attempt to resist the orb with a @Check[type:will|dc:30] saving throw (or higher with <em>orb shards</em>). Gold dragons take a -4 circumstance penalty to this saving throw. Any stun from this activation ends if the dragon is attacked or otherwise subject to a hostile act other than that of the orb.</p>\n<hr />\n<p><strong>Critical Success</strong> The dragon is unaffected.</p>\n<p><strong>Success</strong> The dragon is stunned 3.</p>\n<p><strong>Failure</strong> The dragon is stunned for as long as the orb's wielder Sustains the Activation.</p>\n<p><strong>Critical Failure</strong> As failure, but hostile actions don't end the dragon's stun.</p>\n<p><strong>Destruction</strong> The <em>Flawed Orb of Gold Dragonkind</em> is resilient, but its imperfect nature leaves it vulnerable. It can be damaged or even destroyed by mundane attacks (Hardness 40, HP 200, BT 100). It has weakness 30 to the Breath Weapons and Strikes of gold dragons.</p>"
        },
        "equippedBulk": {
            "value": ""
        },
        "hardness": 0,
        "hp": {
            "brokenThreshold": 0,
            "max": 0,
            "value": 0
        },
        "identification": {
            "misidentified": {},
            "status": "identified",
            "unidentified": {
                "data": {
                    "description": {
                        "value": ""
                    }
                },
                "img": "",
                "name": ""
            }
        },
        "level": {
            "value": 25
        },
        "negateBulk": {
            "value": ""
        },
        "preciousMaterial": {
            "value": ""
        },
        "preciousMaterialGrade": {
            "value": ""
        },
        "price": {
            "value": "0 gp"
        },
        "quantity": 1,
        "rules": [],
        "size": "med",
        "source": {
            "value": "Pathfinder #150: Broken Promises"
        },
        "stackGroup": null,
        "traits": {
            "custom": "",
            "rarity": "unique",
            "value": [
                "artifact",
                "enchantment",
                "magical"
            ]
        },
        "usage": {
            "value": "held-in-one-hand"
        },
        "weight": {
            "value": "1"
        }
    },
    "effects": [],
    "flags": {},
    "img": "systems/pf2e/icons/equipment/artifacts/flawed-orb-of-gold-dragonkind.webp",
    "name": "Flawed Orb of Gold Dragonkind",
    "type": "equipment"
}
