{
    "_id": "iTxqImupNnm8gvoe",
    "data": {
        "baseItem": null,
        "brokenThreshold": {
            "value": 0
        },
        "containerId": null,
        "description": {
            "value": "<p>This armor can be disguised with a mere thought.</p>\n<p><strong>Activate</strong> <span class=\"pf2-icon\">A</span> envision</p>\n<p><strong>Effect</strong> You change the shape and appearance of this armor to appear as ordinary or fine clothes of your imagining. The armor's statistics do not change. Only a creature that is benefiting from true seeing or a similar effect can attempt to disbelieve this illusion, with a DC of 25.</p>"
        },
        "equippedBulk": {
            "value": ""
        },
        "hardness": 0,
        "hp": {
            "brokenThreshold": 0,
            "max": 0,
            "value": 0
        },
        "identification": {
            "misidentified": {},
            "status": "identified",
            "unidentified": {
                "data": {
                    "description": {
                        "value": ""
                    }
                },
                "img": "",
                "name": ""
            }
        },
        "level": {
            "value": 5
        },
        "negateBulk": {
            "value": "0"
        },
        "preciousMaterial": {
            "value": ""
        },
        "preciousMaterialGrade": {
            "value": ""
        },
        "price": {
            "value": "140 gp"
        },
        "quantity": 1,
        "rules": [],
        "size": "med",
        "source": {
            "value": "Pathfinder Core Rulebook"
        },
        "stackGroup": null,
        "traits": {
            "custom": "",
            "rarity": "common",
            "value": [
                "illusion",
                "magical"
            ]
        },
        "usage": {
            "value": "etched-onto-armor"
        },
        "weight": {
            "value": "-"
        }
    },
    "effects": [],
    "flags": {},
    "img": "systems/pf2e/icons/equipment/runes/armor-property-runes/armor-property-runes.webp",
    "name": "Glamered",
    "type": "equipment"
}
