{
    "_id": "RapaDb10oJZOjujo",
    "data": {
        "MAP": {
            "value": ""
        },
        "baseItem": "shortbow",
        "bonus": {
            "value": 0
        },
        "bonusDamage": {
            "value": 0
        },
        "brokenThreshold": {
            "value": 0
        },
        "category": "martial",
        "containerId": null,
        "damage": {
            "damageType": "piercing",
            "dice": 1,
            "die": "d6",
            "value": ""
        },
        "description": {
            "value": "<p>Stealthy hunters and rogues can use this +1 magic shortbow to attack from hiding. If you use this bow to Strike a target that can't see you and you get a critical hit, the target takes an extra [[/r {1d6}[piercing]]]{1d6 piercing damage} (this is in addition to sneak attack damage if you're a rogue).</p>"
        },
        "equippedBulk": {
            "value": ""
        },
        "group": "bow",
        "hardness": 0,
        "hp": {
            "brokenThreshold": 0,
            "max": 0,
            "value": 0
        },
        "identification": {
            "misidentified": {},
            "status": "identified",
            "unidentified": {
                "data": {
                    "description": {
                        "value": ""
                    }
                },
                "img": "",
                "name": ""
            }
        },
        "level": {
            "value": 3
        },
        "negateBulk": {
            "value": "0"
        },
        "potencyRune": {
            "value": 1
        },
        "preciousMaterial": {
            "value": null
        },
        "preciousMaterialGrade": {
            "value": null
        },
        "price": {
            "value": "60 gp"
        },
        "property1": {
            "critDamage": "",
            "critDamageType": "",
            "critDice": 0,
            "critDie": "",
            "criticalConditionType": "",
            "criticalConditionValue": null,
            "damageType": "",
            "dice": 0,
            "die": "",
            "strikeConditionType": "",
            "strikeConditionValue": null,
            "value": ""
        },
        "propertyRune1": {
            "value": null
        },
        "propertyRune2": {
            "value": null
        },
        "propertyRune3": {
            "value": null
        },
        "propertyRune4": {
            "value": null
        },
        "quantity": 1,
        "range": 60,
        "reload": {
            "value": "0"
        },
        "rules": [
            {
                "domain": "damage-roll",
                "key": "RollOption",
                "label": "Attacker is hidden, undetected, or unnoticed",
                "option": "self:hidden",
                "toggleable": true
            },
            {
                "critical": true,
                "damageType": "piercing",
                "diceNumber": 1,
                "dieSize": "d6",
                "key": "DamageDice",
                "predicate": {
                    "any": [
                        "self:hidden",
                        "self:undetected",
                        "self:unnoticed",
                        "target:blinded"
                    ]
                },
                "selector": "{item|_id}-damage"
            }
        ],
        "size": "med",
        "source": {
            "value": "Pathfinder Beginners Box"
        },
        "specific": {
            "material": null,
            "runes": {
                "potency": 1,
                "striking": ""
            },
            "value": true
        },
        "splashDamage": {
            "value": 0
        },
        "stackGroup": null,
        "strikingRune": {
            "value": ""
        },
        "traits": {
            "custom": "",
            "rarity": "common",
            "value": [
                "deadly-d10",
                "evocation",
                "magical"
            ]
        },
        "usage": {
            "value": "held-in-one-plus-hands"
        },
        "weight": {
            "value": "1"
        }
    },
    "effects": [],
    "flags": {},
    "img": "systems/pf2e/icons/equipment/weapons/specific-magic-weapons/hunters-bow.webp",
    "name": "Hunter's Bow",
    "type": "weapon"
}
