{
    "_id": "ri9QkRCD6cAbQ6t3",
    "data": {
        "baseItem": null,
        "brokenThreshold": {
            "value": 0
        },
        "containerId": "null",
        "description": {
            "value": "<p>This rune thrums with pure magical energy. Weapons with the rune deal an additional 1d6 force damage on a successful Strike. On a critical hit, you can choose to force the target to succeed at a @Check[type:fortitude|dc:37|name:Resist Force Push|showDC:all] save or be pushed 10 feet away from you.</p>"
        },
        "equippedBulk": {
            "value": ""
        },
        "hardness": 0,
        "hp": {
            "brokenThreshold": 0,
            "max": 0,
            "value": 0
        },
        "identification": {
            "misidentified": {},
            "status": "identified",
            "unidentified": {
                "data": {
                    "description": {
                        "value": ""
                    }
                },
                "img": "",
                "name": ""
            }
        },
        "level": {
            "value": 17
        },
        "negateBulk": {
            "value": "0"
        },
        "preciousMaterial": {
            "value": null
        },
        "preciousMaterialGrade": {
            "value": null
        },
        "price": {
            "value": "15000 gp"
        },
        "quantity": 1,
        "rules": [],
        "size": "med",
        "source": {
            "value": "Pathfinder Secrets of Magic"
        },
        "stackGroup": "",
        "traits": {
            "custom": "",
            "rarity": "common",
            "value": [
                "evocation",
                "force",
                "magical"
            ]
        },
        "usage": {
            "value": "etched-onto-a-weapon"
        },
        "weight": {
            "value": "-"
        }
    },
    "effects": [],
    "flags": {},
    "img": "systems/pf2e/icons/equipment/runes/weapon-property-runes/weapon-property-runes.webp",
    "name": "Impactful (Greater)",
    "type": "equipment"
}
