{
    "_id": "QJNyQlmPNzIrnuLf",
    "data": {
        "armor": {
            "value": 2
        },
        "baseItem": null,
        "brokenThreshold": {
            "value": 24
        },
        "category": "shield",
        "check": {
            "value": 0
        },
        "containerId": null,
        "description": {
            "value": "<p>This heavy bone shield is composed of a massive plate of dinosaur bone with jagged, tooth-like ridges ringing its edge. It has Hardness 12, HP 48, and BT 24. The ridges are unremovable +1 striking shield spikes that deal slashing damage instead of piercing damage.</p>\n<p>While holding the jawbreaker shield, you gain a +3 item bonus to your Reflex DC to resist Swallow Whole attacks.</p>\n<hr />\n<p><strong>Activate</strong> <span class=\"pf2-icon\">R</span> Interact</p>\n<p><strong>Trigger</strong> A creature attacks you with a jaws or fangs Strike or similar Strike using its mouth</p>\n<p><strong>Effect</strong> You make a shield bash Strike as a reaction against the attacker. If the shield bash hits, the target takes damage and must attempt a DC 31 Fortitude saving throw. The effects of the saving throw are determined after the effects of the triggering Strike are resolved.</p>\n<p><strong>Success</strong> The target is unaffected.</p>\n<p><strong>Failure</strong> You wound the target's mouth. It takes [[/r {1d6}[persistent,bleed]]] @Compendium[pf2e.conditionitems.Persistent Damage]{Persistent Bleed Damage} and takes a -2 status penalty to attack and damage rolls with jaws, fangs, or similar Strikes for 24 hours.</p>\n<p><strong>Critical Failure</strong> You break the target's jaw. As failure, and the creature can't make Strikes using its mouth for 1 minute. At the end of its turn, it can attempt a Fortitude save to regain the ability to make Strikes using its mouth.</p>"
        },
        "dex": {
            "value": 0
        },
        "equippedBulk": {
            "value": ""
        },
        "group": null,
        "hardness": 12,
        "hp": {
            "brokenThreshold": 24,
            "max": 48,
            "value": 48
        },
        "identification": {
            "misidentified": {},
            "status": "identified",
            "unidentified": {
                "data": {
                    "description": {
                        "value": ""
                    }
                },
                "img": "",
                "name": ""
            }
        },
        "level": {
            "value": 12
        },
        "negateBulk": {
            "value": "0"
        },
        "potencyRune": {
            "value": 0
        },
        "preciousMaterial": {
            "value": ""
        },
        "preciousMaterialGrade": {
            "value": ""
        },
        "price": {
            "value": "1,650 gp"
        },
        "propertyRune1": {
            "value": ""
        },
        "propertyRune2": {
            "value": ""
        },
        "propertyRune3": {
            "value": ""
        },
        "propertyRune4": {
            "value": ""
        },
        "quantity": 1,
        "resiliencyRune": {
            "value": ""
        },
        "rules": [],
        "size": "med",
        "source": {
            "value": "Pathfinder #154: Siege of the Dinosaurs"
        },
        "speed": {
            "value": 0
        },
        "stackGroup": null,
        "strength": {
            "value": 0
        },
        "traits": {
            "custom": "",
            "rarity": "uncommon",
            "value": [
                "abjuration",
                "magical"
            ]
        },
        "usage": {
            "value": "held-in-one-hand"
        },
        "weight": {
            "value": "1"
        }
    },
    "effects": [],
    "flags": {},
    "img": "systems/pf2e/icons/equipment/shields/specific-shields/jawbreaker-shield.webp",
    "name": "Jawbreaker Shield",
    "type": "armor"
}
