{
    "_id": "f6antZJS94JyijFl",
    "data": {
        "armor": {
            "value": 2
        },
        "baseItem": null,
        "brokenThreshold": {
            "value": 48
        },
        "category": "shield",
        "check": {
            "value": 0
        },
        "containerId": "null",
        "description": {
            "value": "<p>This steel shield is painted a mottled crimson, and it always glistens as if wet. Its crest is composed of eight appendages that curl around each other, resembling the swirling tentacles of a giant kraken. Two ferocious eyes sit in its center, gleaming with an inner light.</p>\n<table class=\"pf2-table\">\n<thead>\n<tr>\n<th>Hardness</th>\n<th>HP</th>\n<th>BT</th>\n</tr>\n</thead>\n<tbody>\n<tr>\n<td>16</td>\n<td>96</td>\n<td>48</td>\n</tr>\n</tbody>\n</table>\n<hr />\n<p><strong>Activate</strong> <span class=\"pf2-icon\">2</span> Raise a Shield</p>\n<p><strong>Frequency</strong> once per hour</p>\n<p><strong>Effect</strong> You unleash the kraken's wrath. You Raise the Shield. The shield's appendages briefly extend to impossible length as they wriggle and lash out at your foes, dealing [[/r {10d10}[bludgeoning]]]{10d10 bludgeoning damage} to all enemies in a @Template[type:cone|distance:30] (@Check[type:reflex|dc:41|basic:true|name:Kraken's Guard Tentacle Attack|traits:uncommon] save). The shield remains animated for 1 minute, during which you can use it to Grapple a creature within 10 feet of you without needing a free hand. When you use the shield to Grapple, you gain a +3 item bonus to your Athletics check.</p>\n<p>@Compendium[pf2e.equipment-effects.Effect: Kraken's Guard]{Effect: Kraken's Guard}</p>"
        },
        "dex": {
            "value": 0
        },
        "equippedBulk": {
            "value": ""
        },
        "group": null,
        "hardness": 16,
        "hp": {
            "brokenThreshold": 48,
            "max": 96,
            "value": 96
        },
        "identification": {
            "misidentified": {},
            "status": "identified",
            "unidentified": {
                "data": {
                    "description": {
                        "value": ""
                    }
                },
                "img": "",
                "name": ""
            }
        },
        "level": {
            "value": 19
        },
        "negateBulk": {
            "value": "0"
        },
        "potencyRune": {
            "value": 0
        },
        "preciousMaterial": {
            "value": null
        },
        "preciousMaterialGrade": {
            "value": null
        },
        "price": {
            "value": "40000 gp"
        },
        "propertyRune1": {
            "value": ""
        },
        "propertyRune2": {
            "value": ""
        },
        "propertyRune3": {
            "value": ""
        },
        "propertyRune4": {
            "value": ""
        },
        "quantity": 1,
        "resiliencyRune": {
            "value": ""
        },
        "rules": [],
        "size": "med",
        "source": {
            "value": "Pathfinder Lost Omens: The Grand Bazaar"
        },
        "speed": {
            "value": 0
        },
        "stackGroup": null,
        "strength": {
            "value": 0
        },
        "traits": {
            "custom": "",
            "rarity": "uncommon",
            "value": [
                "conjuration",
                "magical"
            ]
        },
        "usage": {
            "value": "held-in-one-hand"
        },
        "weight": {
            "value": "-"
        }
    },
    "effects": [],
    "flags": {},
    "img": "systems/pf2e/icons/equipment/shields/specific-shields/krakens-guard.webp",
    "name": "Kraken's Guard",
    "type": "armor"
}
