{
    "_id": "ZZrCiVcoKinA5wyu",
    "data": {
        "armor": {
            "value": 1
        },
        "baseItem": null,
        "brokenThreshold": {
            "value": 12
        },
        "category": "shield",
        "check": {
            "value": 0
        },
        "containerId": null,
        "description": {
            "value": "<p>Mithral shields are 1 Bulk lighter than normal (or light Bulk if their normal Bulk is 1, with no effect on a shield that normally has light Bulk). When used for a shield bash, they are treated as silver weapons.</p>\n<p>The shield has Hardness 6, HP 24, and BT 12.</p>\n<p><strong>Craft Requirements</strong> mithral worth at least 4,000 gp</p>"
        },
        "dex": {
            "value": 0
        },
        "equippedBulk": {
            "value": ""
        },
        "group": null,
        "hardness": 6,
        "hp": {
            "brokenThreshold": 12,
            "max": 24,
            "value": 24
        },
        "identification": {
            "misidentified": {},
            "status": "identified",
            "unidentified": {
                "data": {
                    "description": {
                        "value": ""
                    }
                },
                "img": "",
                "name": ""
            }
        },
        "level": {
            "value": 16
        },
        "negateBulk": {
            "value": "0"
        },
        "potencyRune": {
            "value": 0
        },
        "preciousMaterial": {
            "value": "mithral"
        },
        "preciousMaterialGrade": {
            "value": "high"
        },
        "price": {
            "value": "8,000 gp"
        },
        "propertyRune1": {
            "value": ""
        },
        "propertyRune2": {
            "value": ""
        },
        "propertyRune3": {
            "value": ""
        },
        "propertyRune4": {
            "value": ""
        },
        "quantity": 1,
        "resiliencyRune": {
            "value": ""
        },
        "rules": [],
        "size": "med",
        "source": {
            "value": "Pathfinder Core Rulebook"
        },
        "speed": {
            "value": 0
        },
        "stackGroup": null,
        "strength": {
            "value": 0
        },
        "traits": {
            "custom": "",
            "rarity": "uncommon",
            "value": []
        },
        "usage": {
            "value": "held-in-one-hand"
        },
        "weight": {
            "value": "L"
        }
    },
    "effects": [],
    "flags": {},
    "img": "systems/pf2e/icons/equipment/shields/precious-material-shields/mithral-buckler.webp",
    "name": "Mithral Buckler (High-Grade)",
    "type": "armor"
}
