{
    "_id": "qnpqMwAnRc55R7lv",
    "data": {
        "baseItem": null,
        "brokenThreshold": {
            "value": 0
        },
        "containerId": "null",
        "description": {
            "value": "<p>Light and strong, noqual also demonstrates a powerful resistance to magic. A side effect of this resistance is that making magical weapons out of noqual requires complex and expensive alchemical treatments. Kevoth-Kul, the Black Sovereign of Numeria, has developed an alloy of noqual and cold iron known as sovereign steel to help mitigate this property. The metal's crystalline appearance might suggest that it's fragile, but the pale-green material can be worked similarly to iron.</p>\n<p>Objects made of noqual have a +4 circumstance bonus on saves against magic that the item attempts and grant their bonus to saves the owner makes specifically to protect the item from magic (such as against the <em>@Compendium[pf2e.spells-srd.Rusting Grasp]{Rusting Grasp}</em> spell).</p>\n<h2>Noqual Items</h2>\n<table class=\"pf2-table\">\n<thead>\n<tr>\n<th>Noqual Items</th>\n<th>Hardness</th>\n<th>HP</th>\n<th>BT</th>\n</tr>\n</thead>\n<tbody>\n<tr>\n<td><strong>Thin Items</strong></td>\n<td> </td>\n<td> </td>\n<td> </td>\n</tr>\n<tr>\n<td>Standard-grade</td>\n<td>6</td>\n<td>24</td>\n<td>12</td>\n</tr>\n<tr>\n<td>High-grade</td>\n<td>10</td>\n<td>40</td>\n<td>20</td>\n</tr>\n<tr>\n<td><strong>Items</strong></td>\n<td> </td>\n<td> </td>\n<td> </td>\n</tr>\n<tr>\n<td>Standard-grade</td>\n<td>10</td>\n<td>40</td>\n<td>20</td>\n</tr>\n<tr>\n<td>High-grade</td>\n<td>13</td>\n<td>52</td>\n<td>26</td>\n</tr>\n<tr>\n<td><strong>Structures</strong></td>\n<td> </td>\n<td> </td>\n<td> </td>\n</tr>\n<tr>\n<td>Standard-grade</td>\n<td>20</td>\n<td>80</td>\n<td>40</td>\n</tr>\n<tr>\n<td>High-grade</td>\n<td>26</td>\n<td>104</td>\n<td>52</td>\n</tr>\n</tbody>\n</table>"
        },
        "equippedBulk": {
            "value": ""
        },
        "hardness": 0,
        "hp": {
            "brokenThreshold": 0,
            "max": 0,
            "value": 0
        },
        "identification": {
            "misidentified": {},
            "status": "identified",
            "unidentified": {
                "data": {
                    "description": {
                        "value": ""
                    }
                },
                "img": "",
                "name": ""
            }
        },
        "level": {
            "value": 0
        },
        "negateBulk": {
            "value": "0"
        },
        "preciousMaterial": {
            "value": null
        },
        "preciousMaterialGrade": {
            "value": null
        },
        "price": {
            "value": "6000 gp"
        },
        "quantity": 1,
        "rules": [],
        "size": "med",
        "source": {
            "value": "Pathfinder Lost Omens: The Grand Bazaar"
        },
        "stackGroup": null,
        "traits": {
            "custom": "",
            "rarity": "rare",
            "value": [
                "precious"
            ]
        },
        "usage": {
            "value": "held-in-one-hand"
        },
        "weight": {
            "value": "1"
        }
    },
    "effects": [],
    "flags": {},
    "img": "systems/pf2e/icons/default-icons/equipment.svg",
    "name": "Noqual Ingot",
    "type": "equipment"
}
