{
    "_id": "jLVS6JezrxJ8G94C",
    "data": {
        "baseItem": null,
        "brokenThreshold": {
            "value": 0
        },
        "containerId": "null",
        "description": {
            "value": "<p>This set of painting supplies includes paints, brushes, jars, a palette, a set of small canvases, and a miniature easel. You can refill your paint set with extra paints and canvas for 1 sp.</p>"
        },
        "equippedBulk": {
            "value": ""
        },
        "hardness": 0,
        "hp": {
            "brokenThreshold": 0,
            "max": 0,
            "value": 0
        },
        "identification": {
            "misidentified": {},
            "status": "identified",
            "unidentified": {
                "data": {
                    "description": {
                        "value": ""
                    }
                },
                "img": "",
                "name": ""
            }
        },
        "level": {
            "value": 0
        },
        "negateBulk": {
            "value": "0"
        },
        "preciousMaterial": {
            "value": null
        },
        "preciousMaterialGrade": {
            "value": null
        },
        "price": {
            "value": "1 gp"
        },
        "quantity": 1,
        "rules": [],
        "size": "med",
        "source": {
            "value": "Pathfinder Lost Omens: The Grand Bazaar"
        },
        "stackGroup": null,
        "traits": {
            "custom": "",
            "rarity": "common",
            "value": []
        },
        "usage": {
            "value": "held-in-two-hands"
        },
        "weight": {
            "value": "L"
        }
    },
    "effects": [],
    "flags": {},
    "img": "systems/pf2e/icons/default-icons/equipment.svg",
    "name": "Paint Set",
    "type": "equipment"
}
