{
    "_id": "MKupH1T018JubYJW",
    "data": {
        "baseItem": null,
        "brokenThreshold": {
            "value": 0
        },
        "containerId": null,
        "description": {
            "value": "<p>Despite covering the entire face, this alabaster mask does not hinder vision or other senses. Wearing the mask grants a +1 item bonus to Performance checks while acting, orating, performing comedy, or singing.</p>\n<p><strong>Activate</strong> <span class=\"pf2-icon\">A</span> envision</p>\n<p><strong>Effect</strong> You change the mask's appearance into an artistic rendition of a dramatic character of your choice.</p>\n<hr />\n<p>Automatically applied effects:</p>\n<ul>\n<li>+1 item bonus to Performance checks while acting, orating, performing comedy, or singing.</li>\n</ul>"
        },
        "equippedBulk": {
            "value": ""
        },
        "hardness": 0,
        "hp": {
            "brokenThreshold": 0,
            "max": 0,
            "value": 0
        },
        "identification": {
            "misidentified": {},
            "status": "identified",
            "unidentified": {
                "data": {
                    "description": {
                        "value": ""
                    }
                },
                "img": "",
                "name": ""
            }
        },
        "level": {
            "value": 3
        },
        "negateBulk": {
            "value": "0"
        },
        "preciousMaterial": {
            "value": ""
        },
        "preciousMaterialGrade": {
            "value": ""
        },
        "price": {
            "value": "50 gp"
        },
        "quantity": 1,
        "rules": [
            {
                "key": "FlatModifier",
                "label": "Persona Mask (acting, orating, comedy, singing)",
                "predicate": {
                    "any": [
                        "acting",
                        "orating",
                        "performing-comedy",
                        "singing"
                    ]
                },
                "selector": "performance",
                "type": "item",
                "value": 1
            }
        ],
        "size": "med",
        "source": {
            "value": "Pathfinder Core Rulebook"
        },
        "stackGroup": null,
        "traits": {
            "custom": "",
            "rarity": "common",
            "value": [
                "fortune",
                "illusion",
                "invested",
                "magical"
            ]
        },
        "usage": {
            "value": "wornmask"
        },
        "weight": {
            "value": "-"
        }
    },
    "effects": [],
    "flags": {},
    "img": "systems/pf2e/icons/equipment/worn-items/other-worn-items/persona-mask.webp",
    "name": "Persona Mask",
    "type": "equipment"
}
