{
    "_id": "y8DbetZzNdng2LSi",
    "data": {
        "baseItem": null,
        "brokenThreshold": {
            "value": 0
        },
        "containerId": "null",
        "description": {
            "value": "<p>This jagged glyph, one of the Thassilonian runes of sin, reacts to magic of a particular school (there's no rune for divination, as it was considered lesser within sin magic). When you Cast a Spell of the school matching the sin, you gain resistance 5 to damage from spells until the start of your next turn. This resistance is increased to 7 against spells of the matching school. This tattoo has the school trait matching the rune: abjuration for envy, necromancy for gluttony, transmutation for greed, enchantment for lust, illusion for pride, conjuration for sloth, and evocation for wrath.</p>"
        },
        "equippedBulk": {
            "value": ""
        },
        "hardness": 0,
        "hp": {
            "brokenThreshold": 0,
            "max": 0,
            "value": 0
        },
        "identification": {
            "misidentified": {},
            "status": "identified",
            "unidentified": {
                "data": {
                    "description": {
                        "value": ""
                    }
                },
                "img": "",
                "name": ""
            }
        },
        "level": {
            "value": 12
        },
        "negateBulk": {
            "value": "0"
        },
        "preciousMaterial": {
            "value": null
        },
        "preciousMaterialGrade": {
            "value": null
        },
        "price": {
            "value": "1700 gp"
        },
        "quantity": 1,
        "rules": [],
        "size": "med",
        "source": {
            "value": "Pathfinder Secrets of Magic"
        },
        "stackGroup": null,
        "traits": {
            "custom": "",
            "rarity": "uncommon",
            "value": [
                "arcane",
                "invested",
                "tattoo"
            ]
        },
        "usage": {
            "value": "held-in-one-hand"
        },
        "weight": {
            "value": "-"
        }
    },
    "effects": [],
    "flags": {},
    "img": "systems/pf2e/icons/default-icons/equipment.svg",
    "name": "Rune of Sin",
    "type": "equipment"
}
