{
    "_id": "1lZNaqqGOrza9BsG",
    "data": {
        "MAP": {
            "value": ""
        },
        "baseItem": "harmona-gun",
        "bonus": {
            "value": 0
        },
        "bonusDamage": {
            "value": 0
        },
        "brokenThreshold": {
            "value": 0
        },
        "category": "martial",
        "containerId": "null",
        "damage": {
            "damageType": "sonic",
            "dice": 1,
            "die": "d10",
            "value": ""
        },
        "description": {
            "value": "<p>Built from the larynx of an owlbear, terror shrike, or similar animal that possesses a frightening screech or similar special ability, a <em>greater screech shooter</em> is a special <em>+2 greater striking harmona gun</em> designed to fire terrifying blasts of sound. A <em>screech shooter</em> deals sonic damage but can otherwise be used like a normal harmona gun.</p>\n<hr />\n<p><strong>Activate</strong> <span class=\"pf2-icon\">1</span> Interact (emotion, enchantment, fear, magical, mental)</p>\n<p><strong>Frequency</strong> once per hour</p>\n<p><strong>Effect</strong> The <em>screech shooter</em> unleashes a frightening wail. All creatures in a @Template[type:emanation|distance:40] from you must attempt a @Check[type:will|dc:30|name:Screech Shooter|traits:emotion,enchantment,fear,mental|showDC:all] save.</p>\n<hr />\n<p><strong>Critical Success</strong> The creature is unaffected.</p>\n<p><strong>Success</strong> The creature is @Compendium[pf2e.conditionitems.Frightened]{Frightened 1}.</p>\n<p><strong>Failure</strong> The creature is @Compendium[pf2e.conditionitems.Frightened]{Frightened 2}.</p>\n<p><strong>Critical Failure</strong> The creature is @Compendium[pf2e.conditionitems.Frightened]{Frightened 3} and @Compendium[pf2e.conditionitems.Fleeing]{Fleeing} for 1 round.</p>\n<hr />\n<p><strong>Craft Requirements</strong> The initial raw materials must include the larynx of a creature with a frightening screech.</p>"
        },
        "equippedBulk": {
            "value": ""
        },
        "group": "firearm",
        "hardness": 0,
        "hp": {
            "brokenThreshold": 0,
            "max": 0,
            "value": 0
        },
        "identification": {
            "misidentified": {},
            "status": "identified",
            "unidentified": {
                "data": {
                    "description": {
                        "value": ""
                    }
                },
                "img": "",
                "name": ""
            }
        },
        "level": {
            "value": 13
        },
        "negateBulk": {
            "value": "0"
        },
        "potencyRune": {
            "value": 2
        },
        "preciousMaterial": {
            "value": null
        },
        "preciousMaterialGrade": {
            "value": null
        },
        "price": {
            "value": "3000 gp"
        },
        "property1": {
            "critDamage": "",
            "critDamageType": "",
            "critDice": 0,
            "critDie": "",
            "criticalConditionType": "",
            "criticalConditionValue": null,
            "damageType": "",
            "dice": 0,
            "die": "",
            "strikeConditionType": "",
            "strikeConditionValue": null,
            "value": ""
        },
        "propertyRune1": {
            "value": null
        },
        "propertyRune2": {
            "value": null
        },
        "propertyRune3": {
            "value": null
        },
        "propertyRune4": {
            "value": null
        },
        "quantity": 1,
        "range": 150,
        "reload": {
            "value": "1"
        },
        "rules": [],
        "size": "med",
        "source": {
            "value": "Pathfinder Guns & Gears"
        },
        "specific": {
            "material": null,
            "price": "700 gp",
            "runes": {
                "potency": 1,
                "striking": "striking"
            },
            "value": true
        },
        "splashDamage": {
            "value": 0
        },
        "stackGroup": null,
        "strikingRune": {
            "value": "greaterStriking"
        },
        "traits": {
            "custom": "",
            "rarity": "uncommon",
            "value": [
                "evocation",
                "kickback",
                "magical"
            ]
        },
        "usage": {
            "value": "held-in-two-hands"
        },
        "weight": {
            "value": "2"
        }
    },
    "effects": [],
    "flags": {},
    "img": "systems/pf2e/icons/default-icons/weapon.svg",
    "name": "Screech Shooter (Greater)",
    "type": "weapon"
}
