{
    "_id": "fnyjcHzySnUxxSeW",
    "data": {
        "baseItem": null,
        "brokenThreshold": {
            "value": 0
        },
        "containerId": "null",
        "description": {
            "value": "<p>There are numerous methods to modify shields-snarling rods to catch weapons, bladed edges, padding for nonlethal strikes, and so on-but all share basic functionality. A shield augmentation can be etched with weapon runes, much like a shield boss or shield spikes, but doesn't otherwise alter your shield's statistics. A shield bearing an augmentation can't be combined with an attached weapon, like shield spikes.</p>\n<p>A shield augmentation grants your shield one or more weapon traits, chosen when the augmentation is created. You can either choose to add the backswing or forceful trait, or you can choose two of the following weapon traits: disarm, nonlethal, shove, thrown 10 feet, trip, or versatile S.</p>"
        },
        "equippedBulk": {
            "value": ""
        },
        "hardness": 0,
        "hp": {
            "brokenThreshold": 0,
            "max": 0,
            "value": 0
        },
        "identification": {
            "misidentified": {},
            "status": "identified",
            "unidentified": {
                "data": {
                    "description": {
                        "value": ""
                    }
                },
                "img": "",
                "name": ""
            }
        },
        "level": {
            "value": 0
        },
        "negateBulk": {
            "value": "0"
        },
        "preciousMaterial": {
            "value": null
        },
        "preciousMaterialGrade": {
            "value": null
        },
        "price": {
            "value": "8 sp"
        },
        "quantity": 1,
        "rules": [],
        "size": "med",
        "source": {
            "value": "Pathfinder Lost Omens: The Grand Bazaar"
        },
        "stackGroup": null,
        "traits": {
            "custom": "",
            "rarity": "uncommon",
            "value": [
                "adjustment"
            ]
        },
        "usage": {
            "value": "applied-to-shield"
        },
        "weight": {
            "value": "-"
        }
    },
    "effects": [],
    "flags": {},
    "img": "systems/pf2e/icons/default-icons/equipment.svg",
    "name": "Shield Augmentation",
    "type": "equipment"
}
