{
    "_id": "KVj9RP2qvpsHHGqE",
    "data": {
        "armor": {
            "value": 2
        },
        "baseItem": null,
        "brokenThreshold": {
            "value": 10
        },
        "category": "shield",
        "check": {
            "value": 0
        },
        "containerId": null,
        "description": {
            "value": "<p>Silver shields don't typically have an additional effect, though when used for a shield bash, they are silver weapons.</p>\n<hr />\n<p>The shield has Hardness 5, HP 20, and BT 10.</p>\n<p><strong>Craft Requirements</strong> silver worth at least 425 sp</p>"
        },
        "dex": {
            "value": 0
        },
        "equippedBulk": {
            "value": ""
        },
        "group": null,
        "hardness": 5,
        "hp": {
            "brokenThreshold": 10,
            "max": 20,
            "value": 20
        },
        "identification": {
            "misidentified": {},
            "status": "identified",
            "unidentified": {
                "data": {
                    "description": {
                        "value": ""
                    }
                },
                "img": "",
                "name": ""
            }
        },
        "level": {
            "value": 7
        },
        "negateBulk": {
            "value": "0"
        },
        "potencyRune": {
            "value": 0
        },
        "preciousMaterial": {
            "value": "silver"
        },
        "preciousMaterialGrade": {
            "value": "standard"
        },
        "price": {
            "value": "340 gp"
        },
        "propertyRune1": {
            "value": ""
        },
        "propertyRune2": {
            "value": ""
        },
        "propertyRune3": {
            "value": ""
        },
        "propertyRune4": {
            "value": ""
        },
        "quantity": 1,
        "resiliencyRune": {
            "value": ""
        },
        "rules": [],
        "size": "med",
        "source": {
            "value": "Pathfinder Core Rulebook"
        },
        "speed": {
            "value": 0
        },
        "stackGroup": null,
        "strength": {
            "value": 0
        },
        "traits": {
            "custom": "",
            "rarity": "common",
            "value": []
        },
        "usage": {
            "value": "held-in-one-hand"
        },
        "weight": {
            "value": "1"
        }
    },
    "effects": [],
    "flags": {},
    "img": "systems/pf2e/icons/equipment/shields/precious-material-shields/silver-shield.webp",
    "name": "Silver Shield (Standard-Grade)",
    "type": "armor"
}
