{
    "_id": "dR6d7wAWP9KtpWLA",
    "data": {
        "baseItem": null,
        "brokenThreshold": {
            "value": 0
        },
        "containerId": "null",
        "description": {
            "value": "<p>This wand juts from an ornate hilt like a short, wooden dagger blade.</p>\n<hr />\n<p><strong>Activate</strong> Cast a Spell</p>\n<p><strong>Frequency</strong> once per day, plus overcharge</p>\n<p><strong>Effect</strong> You cast <em>@Compendium[pf2e.spells-srd.Spiritual Weapon]{Spiritual Weapon}</em> at 8th-level. When you critically hit, you apply the weapon's critical specialization effect. In addition, you can etch one of the following property runes onto the wand: <em>corrosive</em>, <em>flaming</em>, <em>frost</em>, <em>shock</em>, <em>thundering</em>, or their respective greater versions. The <em>spiritual weapon's</em> Strikes gain the effects of this rune.</p>\n<hr />\n<p><strong>Craft Requirements</strong> Supply a casting of spiritual weapon of 8th-level.</p>"
        },
        "equippedBulk": {
            "value": ""
        },
        "hardness": 0,
        "hp": {
            "brokenThreshold": 0,
            "max": 0,
            "value": 0
        },
        "identification": {
            "misidentified": {},
            "status": "identified",
            "unidentified": {
                "data": {
                    "description": {
                        "value": ""
                    }
                },
                "img": "",
                "name": ""
            }
        },
        "level": {
            "value": 19
        },
        "negateBulk": {
            "value": "0"
        },
        "preciousMaterial": {
            "value": null
        },
        "preciousMaterialGrade": {
            "value": null
        },
        "price": {
            "value": "40000 gp"
        },
        "quantity": 1,
        "rules": [],
        "size": "med",
        "source": {
            "value": "Pathfinder Lost Omens: The Grand Bazaar"
        },
        "stackGroup": null,
        "traits": {
            "custom": "",
            "rarity": "uncommon",
            "value": [
                "evocation",
                "force",
                "magical",
                "wand"
            ]
        },
        "usage": {
            "value": "held-in-one-hand"
        },
        "weight": {
            "value": "L"
        }
    },
    "effects": [],
    "flags": {},
    "img": "systems/pf2e/icons/default-icons/equipment.svg",
    "name": "Wand of Spiritual Warfare (8th-Level Spell)",
    "type": "equipment"
}
