{
    "_id": "ErhCUif0jmnDKogH",
    "data": {
        "attributes": {
            "ac": {
                "value": 12
            },
            "hardness": 5,
            "hasHealth": true,
            "hp": {
                "details": "",
                "max": 20,
                "temp": 0,
                "value": 20
            },
            "stealth": {
                "details": "<p>(trained)</p>",
                "value": 7
            }
        },
        "creatureType": "",
        "details": {
            "description": "<p>Fluids from leaking beakers have eaten nearly through the supports holding up this cabinet.</p>\n<p data-visibility=\"gm\">This Broken Threshold for this trap is 5, not 10.</p>",
            "disable": "<p>@Check[type:thievery|dc:15|name:Support Cabinet|traits:mechanical,trap] (trained) to gently place something under the cabinet to support its weight.</p>",
            "isComplex": false,
            "level": {
                "value": 1
            },
            "reset": "",
            "routine": ""
        },
        "saves": {
            "fortitude": {
                "saveDetail": "",
                "value": 10
            },
            "reflex": {
                "saveDetail": "",
                "value": 2
            },
            "will": {
                "saveDetail": "",
                "value": 0
            }
        },
        "source": {
            "value": "Pathfinder Society Scenario 2-03: Catastrophe's Spark"
        },
        "statusEffects": [],
        "traits": {
            "ci": [],
            "di": {
                "custom": "",
                "selected": {},
                "value": [
                    "object-immunities",
                    "precision"
                ]
            },
            "dr": [],
            "dv": [],
            "rarity": "common",
            "size": {
                "value": "med"
            },
            "traits": {
                "custom": "",
                "value": [
                    "mechanical",
                    "trap"
                ]
            }
        }
    },
    "effects": [],
    "flags": {},
    "img": "systems/pf2e/icons/default-icons/hazard.svg",
    "items": [
        {
            "_id": "8QIdNIStfCOvNmQv",
            "data": {
                "actionCategory": {
                    "value": "offensive"
                },
                "actionType": {
                    "value": "reaction"
                },
                "actions": {
                    "value": null
                },
                "description": {
                    "value": "<p data-visibility=\"gm\"><strong>Trigger</strong> Someone touches or otherwise interacts with the cabinet</p>\n<p><strong>Effect</strong> The cabinet falls, splintering on impact. If someone attempts to break the cabinet but its Broken Threshold is not reached in one hit, it falls as well. The cabinet deals [[/r {3d8}[bludgeoning]]]{3d8 bludgeoning damage} to anyone beneath (@Check[type:reflex|dc:20|basic:true|traits:mechanical,trap] save).</p>"
                },
                "requirements": {
                    "value": ""
                },
                "rules": [],
                "slug": null,
                "source": {
                    "value": ""
                },
                "traits": {
                    "custom": "",
                    "rarity": "common",
                    "value": []
                },
                "trigger": {
                    "value": ""
                },
                "weapon": {
                    "value": ""
                }
            },
            "effects": [],
            "flags": {},
            "img": "systems/pf2e/icons/actions/Reaction.webp",
            "name": "Slam Down",
            "sort": 0,
            "type": "action"
        }
    ],
    "name": "Collapsing Cabinet (1-2)",
    "token": {
        "disposition": 0,
        "height": 1,
        "img": "systems/pf2e/icons/default-icons/hazard.svg",
        "name": "Collapsing Cabinet",
        "width": 1
    },
    "type": "hazard"
}
