{
    "_id": "5lv9r2ubDCov4dFn",
    "data": {
        "actionCategory": {
            "value": "offensive"
        },
        "actionType": {
            "value": "action"
        },
        "actions": {
            "value": 3
        },
        "description": {
            "value": "<p>The ghost causes great gouts of flame to erupt without warning.</p>\n<p>The ghost picks three 5-foot squares within 30 feet. Creatures that start in or enter one of these squares take [[/r {1d6}[fire]]]{1d6 fire damage} per 2 levels the ghost has, subject to a @Check[type:reflex|dc:|basic:true] save.</p>\n<p>The flames last for 1 minute and don't set other things alight unless the ghost wishes. If the ghost uses this ability again, it dismisses any existing flames.</p>"
        },
        "requirements": {
            "value": ""
        },
        "rules": [],
        "source": {
            "value": "Pathfinder #165: Eyes of Empty Death"
        },
        "traits": {
            "custom": "",
            "rarity": "common",
            "value": [
                "divine",
                "evocation",
                "fire"
            ]
        },
        "trigger": {
            "value": ""
        }
    },
    "effects": [],
    "flags": {},
    "img": "systems/pf2e/icons/actions/ThreeActions.webp",
    "name": "(Ghost) Pyre's Memory",
    "type": "action"
}
