{
    "_id": "G4yIjHMzD0KVpaCm",
    "data": {
        "actionCategory": {
            "value": "offensive"
        },
        "actionType": {
            "value": "action"
        },
        "actions": {
            "value": 2
        },
        "description": {
            "value": "<p>The Melfesh Monster Burrows twice. At any point in this movement, it can shed a temporary fungal limb to grasp a creature within 10 feet. The creature must succeed at a @Check[type:reflex|dc:21|name:Burrowing Grasp] save or be @Compendium[pf2e.conditionitems.Immobilized]{Immobilized} for 1 round (on a critical failure, 2 rounds) or until it Escapes (DC 21). This ability grants the Melfesh Monster a burrow speed of 15 feet and replaces its fly speed and Envelop.</p>"
        },
        "requirements": {
            "value": ""
        },
        "rules": [],
        "source": {
            "value": "Pathfinder Lost Omens: Monsters of Myth"
        },
        "traits": {
            "custom": "",
            "rarity": "common",
            "value": []
        },
        "trigger": {
            "value": ""
        }
    },
    "effects": [],
    "flags": {},
    "img": "systems/pf2e/icons/actions/TwoActions.webp",
    "name": "(Melfesh Monster) Burrowing Grasp",
    "type": "action"
}
