{
    "_id": "d6eWuFd6pw6ffvPC",
    "data": {
        "actionCategory": {
            "value": "offensive"
        },
        "actionType": {
            "value": "action"
        },
        "actions": {
            "value": 2
        },
        "description": {
            "value": "<p data-visibility=\"gm\"><strong>Frequency</strong> once per hour</p>\n<p><strong>Effect</strong> The Melfesh Monster inflates with gas for 1 minute. It grows to Huge size, and its reach increases to 15 feet. It also gains 12 temporary Hit Points, resistance 5 to bludgeoning, and a +2 status bonus to damage rolls, but it's @Compendium[pf2e.conditionitems.Clumsy]{Clumsy 1}. When the Melfesh Monster takes damage while swollen, all creatures within 15 feet inhale spores that remain in their body for 1 minute. This ability replaces terrorspores and Spore Cloud.</p>\n<p>@Compendium[pf2e.bestiary-effects.Effect: Swell]{Effect: Swell}</p>"
        },
        "requirements": {
            "value": ""
        },
        "rules": [],
        "source": {
            "value": "Pathfinder Lost Omens: Monsters of Myth"
        },
        "traits": {
            "custom": "",
            "rarity": "common",
            "value": [
                "transmutation"
            ]
        },
        "trigger": {
            "value": ""
        }
    },
    "effects": [],
    "flags": {},
    "img": "systems/pf2e/icons/actions/TwoActions.webp",
    "name": "(Melfesh Monster) Swell",
    "type": "action"
}
