{
    "_id": "eSp48kG7v1GNuGgh",
    "data": {
        "actionCategory": {
            "value": "offensive"
        },
        "actionType": {
            "value": "passive"
        },
        "actions": {
            "value": null
        },
        "description": {
            "value": "<p>@Template[type:emanation|distance:20]{20 feet} @Compendium[pf2e.bestiary-ability-glossary-srd.Aura]{Aura}</p>\n<hr />\n<p>A creature that starts its turn within the visitant's aura must succeed at a @Check[type:will|dc:|name:Vengeful Presence] save or be overcome with a thirst for vengeance.</p>\n<p>For [[/r 1d4 #rounds]]{1d4 rounds} (1 minute on a critical failure), if the affected creature was attacked within the last round (whether or not the attack hit), the creature must use at least 1 action per round to Strike or use a hostile action toward its last attacker as long as the attacker is still alive. Failure to do so deals the affected creature [[/r {1d6}[mental]]]{1d6 mental damage}, plus 1d6 for every 5 levels the visitant has.</p>"
        },
        "requirements": {
            "value": ""
        },
        "rules": [],
        "source": {
            "value": "Pathfinder #152: Legacy of the Lost God"
        },
        "traits": {
            "custom": "",
            "rarity": "common",
            "value": [
                "aura",
                "emotion",
                "enchantment",
                "mental"
            ]
        },
        "trigger": {
            "value": ""
        }
    },
    "effects": [],
    "flags": {},
    "img": "systems/pf2e/icons/actions/Passive.webp",
    "name": "(Visitant) Vengeful Presence",
    "type": "action"
}
