{
    "_id": "642qVWBhXlYwOhED",
    "content": "<table class=\"pf2-table\">\n<thead>\n<tr>\n<th>\n<h3><strong>Name</strong></h3>\n</th>\n<th>\n<h3><strong>Crit Effect</strong></h3>\n</th>\n<th>\n<h3><strong>Type</strong></h3>\n</th>\n</tr>\n</thead>\n<tbody>\n<tr>\n<td>On the receiving End</td>\n<td>You deal damage to yourself instead of the target.</td>\n<td>\n<h3>Melee</h3>\n</td>\n</tr>\n<tr>\n<td>In the line of Fire</td>\n<td>You critically hit your nearest ally.</td>\n<td>\n<h3>Ranged</h3>\n</td>\n</tr>\n<tr>\n<td>Head, meet wall</td>\n<td>You are stunned 1.</td>\n<td>\n<h3>Unarmed</h3>\n</td>\n</tr>\n<tr>\n<td>Can you hear me Now?</td>\n<td>Until healed, you are deafened.</td>\n<td>\n<h3>Spell</h3>\n</td>\n</tr>\n</tbody>\n</table>\n<h3 style=\"text-align: left;\"> </h3>",
    "flags": {},
    "name": "Critical Fumble Deck #39",
    "permission": {
        "default": 0
    }
}
