{
    "_id": "Y4J49n6WFOEXwaf2",
    "content": "<table class=\"pf2-table\">\n<thead>\n<tr>\n<th>\n<h3><strong>Name</strong></h3>\n</th>\n<th>\n<h3><strong>Crit Effect</strong></h3>\n</th>\n<th>\n<h3><strong>Type</strong></h3>\n</th>\n</tr>\n</thead>\n<tbody>\n<tr>\n<td>\n<h3>Crumpling Blow</h3>\n</td>\n<td>\n<h3>The target is knocked prone.</h3>\n</td>\n<td>\n<h3>Bludgeoning</h3>\n</td>\n</tr>\n<tr>\n<td>\n<h3>Pierced</h3>\n</td>\n<td>\n<h3>The target is slowed 1 until the end of its next turn.</h3>\n</td>\n<td>\n<h3>Piercing</h3>\n</td>\n</tr>\n<tr>\n<td>\n<h3>Throat Slash</h3>\n</td>\n<td>\n<h3>Normal damage. The target takes 1d8 persistent bleed damage. The target can't talk, cast spells with a verbal component, or breathe while subject to this bleed damage.</h3>\n</td>\n<td>\n<h3>Slashing</h3>\n</td>\n</tr>\n<tr>\n<td>\n<h3>Life Leech</h3>\n</td>\n<td>\n<h3>If this is a spell, the target becomes doomed 1 and you regain 1d8 Hit Points.</h3>\n</td>\n<td>\n<h3>Bomb or Spell</h3>\n</td>\n</tr>\n</tbody>\n</table>\n<h3 style=\"text-align: left;\"> </h3>",
    "flags": {},
    "name": "Critical Hit Deck #13",
    "permission": {
        "default": 0
    }
}
