{
    "_id": "Z5zTWbeZ0N1XedgS",
    "data": {
        "attributes": {
            "ac": {
                "value": 10
            },
            "hardness": 0,
            "hasHealth": false,
            "hp": {
                "details": "",
                "max": 0,
                "temp": 0,
                "tempmax": 0,
                "value": 0
            },
            "stealth": {
                "details": "<p>(trained)</p>",
                "value": 13
            }
        },
        "creatureType": "",
        "details": {
            "description": "<p>An invisible rune imprinted on a door latch releases a powerful electric discharge.</p>",
            "disable": "<p>@Check[type:thievery|dc:23|name:Scratch Out the Rune|traits:electricity,evocation,magical,trap,hazard] (expert) to scratch out the rune without allowing electricity to flow, or <em>@Compendium[pf2e.spells-srd.Dispel Magic]{Dispel Magic}</em> (3rd level; counteract DC 21) to counteract the rune</p>",
            "isComplex": false,
            "level": {
                "value": 5
            },
            "reset": "",
            "routine": ""
        },
        "saves": {
            "fortitude": {
                "saveDetail": "",
                "value": 0
            },
            "reflex": {
                "saveDetail": "",
                "value": 0
            },
            "will": {
                "saveDetail": "",
                "value": 0
            }
        },
        "source": {
            "value": "Pathfinder Core Rulebook"
        },
        "statusEffects": [],
        "traits": {
            "ci": [],
            "di": {
                "custom": "",
                "selected": {},
                "value": []
            },
            "dr": [],
            "dv": [],
            "rarity": "uncommon",
            "size": {
                "value": "med"
            },
            "traits": {
                "custom": "",
                "value": [
                    "electricity",
                    "evocation",
                    "magical",
                    "trap"
                ]
            }
        }
    },
    "effects": [],
    "flags": {},
    "img": "systems/pf2e/icons/default-icons/hazard.svg",
    "items": [
        {
            "_id": "FzfgLXTt6R8bYmTP",
            "data": {
                "actionCategory": {
                    "value": "offensive"
                },
                "actionType": {
                    "value": "reaction"
                },
                "actions": {
                    "value": null
                },
                "description": {
                    "value": "<p data-visibility=\"gm\"><strong>Trigger</strong> A creature grasps the door latch directly or with a tool.</p>\n<p><strong>Effect</strong> The trap deals [[/r {3d12+8}[electricity]]]{3d12+8 electricity damage} to the triggering creature (@Check[type:reflex|dc:25|basic:true|traits:hazard,trap] save).</p>"
                },
                "requirements": {
                    "value": ""
                },
                "rules": [],
                "slug": null,
                "source": {
                    "value": ""
                },
                "traits": {
                    "custom": "",
                    "rarity": "common",
                    "value": [
                        "arcane",
                        "electricity",
                        "evocation"
                    ]
                },
                "trigger": {
                    "value": ""
                },
                "weapon": {
                    "value": ""
                }
            },
            "effects": [],
            "flags": {},
            "img": "systems/pf2e/icons/actions/Reaction.webp",
            "name": "Electrocution",
            "sort": 100000,
            "type": "action"
        }
    ],
    "name": "Strong Electric Latch Rune",
    "token": {
        "disposition": 0,
        "height": 1,
        "img": "systems/pf2e/icons/default-icons/hazard.svg",
        "name": "Strong Electric Latch Rune",
        "width": 1
    },
    "type": "hazard"
}
