{
    "_id": "MHLuKy4nQO2Z4Am1",
    "data": {
        "actionCategory": {
            "value": ""
        },
        "actionType": {
            "value": "action"
        },
        "actions": {
            "value": 2
        },
        "description": {
            "value": "<p><strong>Requirements</strong> You're wearing or holding @Compendium[pf2e.equipment-srd.Healer's Tools]{Healer's Tools}</p>\n<hr />\n<p>You perform first aid on an adjacent creature that is @Compendium[pf2e.conditionitems.Dying]{Dying} or @Compendium[pf2e.conditionitems.Persistent Damage]{Bleeding}. If a creature is both dying and bleeding, choose which ailment you're trying to treat before you roll. You can Administer First Aid again to attempt to remedy the other effect.</p>\n<ul>\n<li><strong>Stabilize</strong> Attempt a Medicine check on a creature that has 0 Hit Points and the dying condition. The DC is equal to 5 + that creature's recovery roll DC (typically 15 + its dying value).</li>\n<li><strong>Stop Bleeding</strong> Attempt a Medicine check on a creature that is taking persistent bleed damage, giving them a chance to make another flat check to remove the persistent damage. The DC is usually the DC of the effect that caused the bleed.</li>\n</ul>\n<hr />\n<p><strong>Success</strong> If you're trying to stabilize, the creature loses the dying condition (but remains @Compendium[pf2e.conditionitems.Unconscious]{Unconscious}). If you're trying to stop bleeding, the creature attempts a flat check to end the bleeding.</p>\n<p><strong>Critical Failure</strong> If you were trying to stabilize, the creature's dying value increases by 1. If you were trying to stop bleeding, it immediately takes an amount of damage equal to its persistent bleed damage.</p>"
        },
        "requirements": {
            "value": ""
        },
        "rules": [],
        "source": {
            "value": "Pathfinder Core Rulebook"
        },
        "traits": {
            "custom": "",
            "rarity": "common",
            "value": [
                "manipulate",
                "skill"
            ]
        },
        "trigger": {
            "value": ""
        },
        "weapon": {
            "value": ""
        }
    },
    "effects": [],
    "flags": {},
    "img": "systems/pf2e/icons/actions/TwoActions.webp",
    "name": "Administer First Aid",
    "type": "action"
}
