{
    "_id": "M8RCbthRhB4bxO9t",
    "data": {
        "actionCategory": {
            "value": ""
        },
        "actionType": {
            "value": "reaction"
        },
        "actions": {
            "value": null
        },
        "description": {
            "value": "<p><strong>Trigger</strong> An enemy within 15 feet damages you</p>\n<hr />\n<p><strong>Effect</strong> You put an impertinent foe who dared harm you in their proper place. You command your enemy to kneel before you in obedience. If they dare to refuse, they must pay the price in pain and anguish. The foe must choose one of the following options.</p>\n<ul>\n<li>The enemy kneels, dropping @Compendium[pf2e.conditionitems.Prone]{Prone} as a free action.</li>\n<li>The enemy refuses, and you deal [[/r {1d6}[mental]]]{1d6 mental damage} to it. This damage increases to [[/r {2d6}[mental]]]{2d6 mental damage} at 5th level, [[/r {3d6}[mental]]]{3d6 mental damage} at 9th level, [[/r {4d6}[mental]]]{4d6 mental damage} at 12th level, [[/r {5d6}[mental]]]{5d6 mental damage} at 16th level, and [[/r {6d6}[mental]]]{6d6 mental damage} at 19th level.</li>\n</ul>\n<p>In addition, your Strikes against the triggering creature deal [[/r {1}]]{1 extra damage} until the end of your next turn. You choose whether the damage type is evil or negative each time you use this reaction. This extra damage increases to [[/r {2}]]{2 extra damage} at 9th level and [[/r {3}]]{3 extra damage} at 16th level.</p>"
        },
        "requirements": {
            "value": ""
        },
        "rules": [],
        "source": {
            "value": "Pathfinder Advanced Player's Guide"
        },
        "traits": {
            "custom": "",
            "rarity": "common",
            "value": [
                "champion",
                "divine",
                "emotion",
                "enchantment",
                "mental"
            ]
        },
        "trigger": {
            "value": ""
        },
        "weapon": {
            "value": ""
        }
    },
    "effects": [],
    "flags": {},
    "img": "systems/pf2e/icons/actions/Reaction.webp",
    "name": "Iron Command",
    "type": "action"
}
