{
    "_id": "MY6z2b4GPhAD2Eoa",
    "data": {
        "actionCategory": {
            "value": "interaction"
        },
        "actionType": {
            "value": "reaction"
        },
        "actions": {
            "value": null
        },
        "description": {
            "value": "<p><strong>Trigger</strong> Your linked ally takes damage and is within 60 feet</p>\n<p><strong>Effect</strong> The ally takes half damage from the triggering effect (rounded down), and you lose a number of Hit Points equal to the remainder of the damage. You can't trigger this reaction to share damage caused by your ally using this reaction.</p>"
        },
        "requirements": {
            "value": ""
        },
        "rules": [],
        "source": {
            "value": ""
        },
        "traits": {
            "custom": "",
            "rarity": "common",
            "value": []
        },
        "trigger": {
            "value": ""
        }
    },
    "effects": [],
    "flags": {},
    "img": "systems/pf2e/icons/actions/Reaction.webp",
    "name": "Share Life",
    "type": "action"
}
