{
    "_id": "9BsFdrEc7hkPWgSd",
    "data": {
        "badge": null,
        "description": {
            "value": "<p>The weapon becomes imbued with the triggering energy type. It deals an additional 1d8 electricity damage until the end of your next turn.</p>"
        },
        "duration": {
            "expiry": "turn-end",
            "sustained": false,
            "unit": "rounds",
            "value": 1
        },
        "level": {
            "value": 1
        },
        "rules": [
            {
                "damageType": "electricity",
                "diceNumber": 1,
                "dieSize": "d8",
                "key": "DamageDice",
                "label": "Energizing Rune (Electricity)",
                "predicate": {},
                "selector": "strike-damage"
            }
        ],
        "source": {
            "value": ""
        },
        "start": {
            "initiative": null,
            "value": 0
        },
        "target": null,
        "tokenIcon": {
            "show": true
        },
        "traits": {
            "custom": "",
            "rarity": "common",
            "value": []
        }
    },
    "effects": [],
    "flags": {},
    "img": "systems/pf2e/icons/equipment/runes/weapon-property-runes/energizing-rune-electricity.webp",
    "name": "Effect: Energizing Rune (Electricity)",
    "type": "effect"
}
