{
    "_id": "wacGBDbbQ1HaNZbX",
    "data": {
        "badge": null,
        "description": {
            "value": "<p>You call upon Hyldarf's power to gain the magic of a linnorm for a brief time. For 1 minute, you gain the effects of <em>@Compendium[pf2e.spells-srd.Fly]{Fly}</em>, <em>@Compendium[pf2e.spells-srd.Freedom of Movement]{Freedom of Movement}</em>, and <em>@Compendium[pf2e.spells-srd.True Seeing]{True Seeing}</em> as well as fire resistance 20.</p>"
        },
        "duration": {
            "expiry": "turn-start",
            "sustained": false,
            "unit": "minutes",
            "value": 1
        },
        "level": {
            "value": 15
        },
        "rules": [
            {
                "key": "Resistance",
                "type": "fire",
                "value": 20
            }
        ],
        "source": {
            "value": "Pathfinder Guns & Gears"
        },
        "start": {
            "initiative": null,
            "value": 0
        },
        "target": null,
        "tokenIcon": {
            "show": true
        },
        "traits": {
            "custom": "",
            "rarity": "common",
            "value": []
        }
    },
    "effects": [],
    "flags": {},
    "img": "systems/pf2e/icons/equipment/weapons/specific-magic-weapons/hyldarfs-fang.webp",
    "name": "Effect: Hyldarf's Fang",
    "type": "effect"
}
