{
    "_id": "niTXgGvicNulEUEW",
    "data": {
        "ancestry": {
            "name": "Fetchling",
            "uuid": "Compendium.pf2e.ancestries.hIA3qiUsxvLZXrFP"
        },
        "description": {
            "value": "<p>Your predecessors dwelled in the Shadow Plane's deepest, most treacherous regions. You might cast a denser shadow, have a slower pulse, or find comfort in the embrace of darkness. You gain negative resistance equal to half your level (minimum 1).</p>"
        },
        "rules": [
            {
                "key": "Resistance",
                "type": "negative",
                "value": "max(1,floor(@actor.level/2))"
            }
        ],
        "source": {
            "value": "Pathfinder Lost Omens: Ancestry Guide"
        },
        "traits": {
            "custom": "",
            "rarity": "common",
            "value": []
        }
    },
    "effects": [],
    "flags": {},
    "img": "systems/pf2e/icons/default-icons/heritage.svg",
    "name": "Deep Fetchling (Negative)",
    "type": "heritage"
}
