{
    "_id": "Mmezbef0c1fbJaVV",
    "data": {
        "ancestry": {
            "name": "Android",
            "uuid": "Compendium.pf2e.ancestries.GfLwE884NoRC7cRi"
        },
        "description": {
            "value": "<p>Your body was augmented with processes and an appearance intended to blend in with humans more easily.</p>\n<p>You become trained in Deception (or another skill if you're already trained in Deception). You don't require a disguise kit when attempting Deception checks to @Compendium[pf2e.actionspf2e.Impersonate]{Impersonate} a human.</p>\n<p>In addition, you gain a +4 circumstance bonus to Impersonate checks to pretend that you're a human version of yourself, rather than an android. This bonus doesn't apply to other checks to Impersonate humans.</p>"
        },
        "rules": [
            {
                "key": "FlatModifier",
                "label": "Impersonator Android (to Impersonate a human version of yourself)",
                "predicate": {
                    "all": [
                        "action:impersonate",
                        "disguise:human-self"
                    ]
                },
                "selector": "deception",
                "type": "circumstance",
                "value": 4
            },
            {
                "key": "ActiveEffectLike",
                "mode": "upgrade",
                "path": "data.skills.dec.rank",
                "value": 1
            }
        ],
        "source": {
            "value": ""
        },
        "traits": {
            "custom": "",
            "rarity": "common",
            "value": []
        }
    },
    "effects": [],
    "flags": {},
    "img": "systems/pf2e/icons/default-icons/heritage.svg",
    "name": "Impersonator Android",
    "type": "heritage"
}
