{
    "_id": "KcozzlkFAqShDEzo",
    "data": {
        "ancestry": {
            "name": "Shisk",
            "uuid": "Compendium.pf2e.ancestries.x1YinOddgUxwOLqP"
        },
        "description": {
            "value": "<p>Your metabolism is slow, allowing you to go for days without food and process maladies at a slower rate. You can go for 1 week without food before you begin to starve Additionally, the onset times and lengths of stages for all diseases and poisons that affect you are increased by 50%. If the onset time or stage is instant or lasts only 1 round, this ability has no effect.</p>"
        },
        "rules": [],
        "source": {
            "value": ""
        },
        "traits": {
            "custom": "",
            "rarity": "common",
            "value": []
        }
    },
    "effects": [],
    "flags": {},
    "img": "systems/pf2e/icons/default-icons/heritage.svg",
    "name": "Stronggut Shisk",
    "type": "heritage"
}
