{
    "_id": "S1062No0sYH35AhN",
    "data": {
        "ancestry": {
            "name": "Azarketi",
            "uuid": "Compendium.pf2e.ancestries.yFoojz6q3ZjvceFw"
        },
        "description": {
            "value": "<p>Your skin can detect the slightest changes in ocean currents. You gain imprecise wavesense with a range of 30 feet, allowing you to sense motion in the water around you. You also gain a +1 circumstance bonus to Survival checks to Sense Direction in aquatic environments.</p>"
        },
        "rules": [
            {
                "key": "FlatModifier",
                "label": "Tactile Azarketi (Sense Direction in aquatic environements)",
                "predicate": {
                    "all": [
                        "action:sense-direction",
                        "terrain:aquatic"
                    ]
                },
                "selector": "survival",
                "type": "circumstance",
                "value": 1
            },
            {
                "acuity": "imprecise",
                "key": "Sense",
                "label": "PF2E.SensesWavesense",
                "range": 30,
                "selector": "wavesense"
            }
        ],
        "source": {
            "value": ""
        },
        "traits": {
            "custom": "",
            "rarity": "common",
            "value": []
        }
    },
    "effects": [],
    "flags": {},
    "img": "systems/pf2e/icons/default-icons/heritage.svg",
    "name": "Tactile Azarketi",
    "type": "heritage"
}
