{
    "_id": "RuQSx0QsirIKxwKY",
    "data": {
        "ancestry": {
            "name": "Android",
            "uuid": "Compendium.pf2e.ancestries.GfLwE884NoRC7cRi"
        },
        "description": {
            "value": "<p>Your body was originally created to function as a security officer or soldier. You're a naturally gifted warrior preprogrammed for combat. You're trained in all simple and martial weapons.</p>"
        },
        "rules": [
            {
                "key": "ActiveEffectLike",
                "mode": "upgrade",
                "path": "data.martial.simple.rank",
                "value": 1
            },
            {
                "key": "ActiveEffectLike",
                "mode": "upgrade",
                "path": "data.martial.martial.rank",
                "value": 1
            }
        ],
        "source": {
            "value": ""
        },
        "traits": {
            "custom": "",
            "rarity": "common",
            "value": []
        }
    },
    "effects": [],
    "flags": {},
    "img": "systems/pf2e/icons/default-icons/heritage.svg",
    "name": "Warrior Android",
    "type": "heritage"
}
