{
    "_id": "vjE1lUpklp4slNbd",
    "data": {
        "abilities": {
            "cha": {
                "mod": 4
            },
            "con": {
                "mod": 6
            },
            "dex": {
                "mod": 2
            },
            "int": {
                "mod": 2
            },
            "str": {
                "mod": 7
            },
            "wis": {
                "mod": 3
            }
        },
        "attributes": {
            "ac": {
                "details": "29 with shields raised",
                "value": 37
            },
            "allSaves": {
                "value": null
            },
            "hp": {
                "details": "troop defenses",
                "max": 300,
                "temp": 0,
                "value": 300
            },
            "initiative": {
                "ability": "perception"
            },
            "perception": {
                "value": 24
            },
            "speed": {
                "otherSpeeds": [],
                "value": "25"
            }
        },
        "details": {
            "alignment": {
                "value": "N"
            },
            "blurb": "",
            "creatureType": "",
            "level": {
                "value": 15
            },
            "privateNotes": "",
            "publicNotes": "<p>Terra-cotta warriors guard the tombs of ancient rulers, where they stand vigil, animating only when intruders break in to pilfer riches or defile the tomb itself. Each warrior is meticulously crafted from clay and given unique features.</p>\n<hr />\n<p>These constructed warriors can work together as a trained group to repel intruders.</p>",
            "source": {
                "value": "Pathfinder #166: Despair on Danger Island"
            }
        },
        "resources": {},
        "saves": {
            "fortitude": {
                "saveDetail": "",
                "value": 25
            },
            "reflex": {
                "saveDetail": "",
                "value": 19
            },
            "will": {
                "saveDetail": "",
                "value": 20
            }
        },
        "traits": {
            "attitude": {
                "value": "hostile"
            },
            "ci": [],
            "di": {
                "custom": "",
                "value": [
                    "death-effects",
                    "disease",
                    "doomed",
                    "drained",
                    "fatigued",
                    "healing",
                    "necromancy",
                    "nonlethal-attacks",
                    "paralyzed",
                    "poison",
                    "sickened",
                    "unconscious"
                ]
            },
            "dr": [],
            "dv": [
                {
                    "label": "Bludgeoning",
                    "type": "bludgeoning",
                    "value": "15"
                },
                {
                    "label": "Area Damage",
                    "type": "area-damage",
                    "value": "20"
                },
                {
                    "label": "Splash Damage",
                    "type": "splash-damage",
                    "value": "10"
                }
            ],
            "languages": {
                "custom": "(Can't Speak Any Language)",
                "selected": [],
                "value": [
                    "tien"
                ]
            },
            "rarity": "common",
            "senses": {
                "value": ""
            },
            "size": {
                "value": "grg"
            },
            "traits": {
                "custom": "",
                "value": [
                    "construct",
                    "troop"
                ]
            }
        }
    },
    "effects": [],
    "flags": {},
    "img": "systems/pf2e/icons/default-icons/npc.svg",
    "items": [
        {
            "_id": "w720eY29kH47k0LJ",
            "data": {
                "armor": {
                    "value": 2
                },
                "baseItem": null,
                "brokenThreshold": {
                    "value": 10
                },
                "category": "shield",
                "check": {
                    "value": 0
                },
                "containerId": null,
                "description": {
                    "value": "<p>Like wooden shields, steel shields come in a variety of shapes and sizes. Though more expensive than wooden shields, they are much more durable.</p>\n<table class=\"pf2-table\">\n<thead>\n<tr>\n<th>Hardness</th>\n<th>HP</th>\n<th>BT</th>\n</tr>\n</thead>\n<tbody>\n<tr>\n<td>5</td>\n<td>20</td>\n<td>10</td>\n</tr>\n</tbody>\n</table>"
                },
                "dex": {
                    "value": 0
                },
                "equipped": {
                    "carryType": "held",
                    "handsHeld": 1,
                    "invested": null
                },
                "equippedBulk": {
                    "value": ""
                },
                "group": null,
                "hardness": 5,
                "hp": {
                    "brokenThreshold": 10,
                    "max": 20,
                    "value": 20
                },
                "identification": {
                    "misidentified": {},
                    "status": "identified",
                    "unidentified": {
                        "data": {
                            "description": {
                                "value": ""
                            }
                        },
                        "img": "",
                        "name": ""
                    }
                },
                "level": {
                    "value": 0
                },
                "negateBulk": {
                    "value": "0"
                },
                "potency": {},
                "potencyRune": {
                    "value": 0
                },
                "preciousMaterial": {
                    "value": null
                },
                "preciousMaterialGrade": {
                    "value": null
                },
                "price": {
                    "value": "2 gp"
                },
                "propertyRune1": {
                    "value": ""
                },
                "propertyRune2": {
                    "value": ""
                },
                "propertyRune3": {
                    "value": ""
                },
                "propertyRune4": {
                    "value": ""
                },
                "quantity": 1,
                "resiliencyRune": {
                    "value": ""
                },
                "rules": [],
                "size": "med",
                "slug": "steel-shield",
                "source": {
                    "value": ""
                },
                "speed": {
                    "value": 0
                },
                "stackGroup": null,
                "strength": {
                    "value": 0
                },
                "traits": {
                    "custom": "",
                    "rarity": "common",
                    "value": []
                },
                "usage": {
                    "value": "held-in-one-hand"
                },
                "weight": {
                    "value": "1"
                }
            },
            "effects": [],
            "flags": {
                "core": {
                    "sourceId": "Compendium.pf2e.equipment-srd.Yr9yCuJiAlFh3QEB"
                }
            },
            "img": "systems/pf2e/icons/equipment/shields/steel-shield.webp",
            "name": "Steel Shield",
            "sort": 100000,
            "type": "armor"
        },
        {
            "_id": "SlKd6WmjF0C4lXGp",
            "data": {
                "actionCategory": {
                    "value": "interaction"
                },
                "actionType": {
                    "value": "action"
                },
                "actions": {
                    "value": 1
                },
                "description": {
                    "value": "<p>@Localize[PF2E.NPC.Abilities.Glossary.FormUp]</p>"
                },
                "requirements": {
                    "value": ""
                },
                "rules": [],
                "slug": "form-up",
                "source": {
                    "value": ""
                },
                "traits": {
                    "custom": "",
                    "rarity": "common",
                    "value": []
                },
                "trigger": {
                    "value": ""
                },
                "weapon": {
                    "value": ""
                }
            },
            "effects": [],
            "flags": {
                "core": {
                    "sourceId": "Compendium.pf2e.bestiary-ability-glossary-srd.OvqohW9YuahnFaiX"
                }
            },
            "img": "systems/pf2e/icons/actions/OneAction.webp",
            "name": "Form Up",
            "sort": 200000,
            "type": "action"
        },
        {
            "_id": "8VkXSkdo2QljL0s2",
            "data": {
                "actionCategory": {
                    "value": "interaction"
                },
                "actionType": {
                    "value": "action"
                },
                "actions": {
                    "value": 1
                },
                "description": {
                    "value": "<p>The planar terra-cotta squadron momentarily moves beneath the Material Plane, instantly transporting itself to a location within 90 feet. The squadron can't use Planar Step again for [[/br 1d4 #rounds]]{1d4 rounds}</p>"
                },
                "requirements": {
                    "value": ""
                },
                "rules": [],
                "slug": null,
                "source": {
                    "value": ""
                },
                "traits": {
                    "custom": "",
                    "rarity": "common",
                    "value": [
                        "conjuration",
                        "teleportation"
                    ]
                },
                "trigger": {
                    "value": ""
                },
                "weapon": {
                    "value": ""
                }
            },
            "effects": [],
            "flags": {},
            "img": "systems/pf2e/icons/actions/OneAction.webp",
            "name": "Planar Step",
            "sort": 300000,
            "type": "action"
        },
        {
            "_id": "YfW3hmqsouC0M5an",
            "data": {
                "actionCategory": {
                    "value": "defensive"
                },
                "actionType": {
                    "value": "reaction"
                },
                "actions": {
                    "value": null
                },
                "description": {
                    "value": "<p>@Localize[PF2E.NPC.Abilities.Glossary.AttackOfOpportunity]</p>"
                },
                "requirements": {
                    "value": ""
                },
                "rules": [],
                "slug": "attack-of-opportunity",
                "source": {
                    "value": ""
                },
                "traits": {
                    "custom": "",
                    "rarity": "common",
                    "value": []
                },
                "trigger": {
                    "value": ""
                },
                "weapon": {
                    "value": ""
                }
            },
            "effects": [],
            "flags": {
                "core": {
                    "sourceId": "Compendium.pf2e.bestiary-ability-glossary-srd.hFtNbo1LKYCoDy2O"
                }
            },
            "img": "systems/pf2e/icons/actions/Reaction.webp",
            "name": "Attack of Opportunity",
            "sort": 400000,
            "type": "action"
        },
        {
            "_id": "ncklibzh6Dfp2LTc",
            "data": {
                "actionCategory": {
                    "value": "defensive"
                },
                "actionType": {
                    "value": "reaction"
                },
                "actions": {
                    "value": null
                },
                "description": {
                    "value": "<p>@Localize[PF2E.NPC.Abilities.Glossary.ShieldBlock]</p>"
                },
                "requirements": {
                    "value": ""
                },
                "rules": [],
                "slug": "shield-block",
                "source": {
                    "value": ""
                },
                "traits": {
                    "custom": "",
                    "rarity": "common",
                    "value": []
                },
                "trigger": {
                    "value": ""
                },
                "weapon": {
                    "value": ""
                }
            },
            "effects": [],
            "flags": {
                "core": {
                    "sourceId": "Compendium.pf2e.bestiary-ability-glossary-srd.m4HQ2o5aPxjXf2kY"
                }
            },
            "img": "systems/pf2e/icons/actions/Reaction.webp",
            "name": "Shield Block",
            "sort": 500000,
            "type": "action"
        },
        {
            "_id": "BlH8W4GE6xpZoZM2",
            "data": {
                "actionCategory": {
                    "value": "defensive"
                },
                "actionType": {
                    "value": "passive"
                },
                "actions": {
                    "value": null
                },
                "description": {
                    "value": "<p><strong>Thresholds</strong> 200 (12 squares), 100 (8 squares)</p>\n<hr />\n<p>@Localize[PF2E.NPC.Abilities.Glossary.TroopDefenses]</p>"
                },
                "requirements": {
                    "value": ""
                },
                "rules": [],
                "slug": "troop-defenses",
                "source": {
                    "value": ""
                },
                "traits": {
                    "custom": "",
                    "rarity": "common",
                    "value": []
                },
                "trigger": {
                    "value": ""
                },
                "weapon": {
                    "value": ""
                }
            },
            "effects": [],
            "flags": {
                "core": {
                    "sourceId": "Compendium.pf2e.bestiary-ability-glossary-srd.RJbI07QSiYp0SF9A"
                }
            },
            "img": "systems/pf2e/icons/actions/Passive.webp",
            "name": "Troop Defenses",
            "sort": 600000,
            "type": "action"
        },
        {
            "_id": "OgFZ82Cgk6qKkD9l",
            "data": {
                "actionCategory": {
                    "value": "offensive"
                },
                "actionType": {
                    "value": "action"
                },
                "actions": {
                    "value": 2
                },
                "description": {
                    "value": "<p>The troop launches a ranged attack in the form of a @Template[type:burst|distance:10] within 100 feet that deals [[/r 3d8+13]] damage (@Check[type:reflex|dc:33|basic:true] save). When the garrison is reduced to 8 or fewer squares, this area decreases to a @Template[type:burst|distance:5].</p>"
                },
                "requirements": {
                    "value": ""
                },
                "rules": [],
                "slug": null,
                "source": {
                    "value": ""
                },
                "traits": {
                    "custom": "",
                    "rarity": "common",
                    "value": []
                },
                "trigger": {
                    "value": ""
                },
                "weapon": {
                    "value": ""
                }
            },
            "effects": [],
            "flags": {},
            "img": "systems/pf2e/icons/actions/TwoActions.webp",
            "name": "Aim as One",
            "sort": 700000,
            "type": "action"
        },
        {
            "_id": "moI2lATWRRsnrF0Z",
            "data": {
                "actionCategory": {
                    "value": "offensive"
                },
                "actionType": {
                    "value": "action"
                },
                "actions": {
                    "value": 1
                },
                "description": {
                    "value": "<p>The troop raises steel shields, with the effects of @Compendium[pf2e.actionspf2e.Raise a Shield]{Raise a Shield}.</p>"
                },
                "requirements": {
                    "value": ""
                },
                "rules": [],
                "slug": null,
                "source": {
                    "value": ""
                },
                "traits": {
                    "custom": "",
                    "rarity": "common",
                    "value": []
                },
                "trigger": {
                    "value": ""
                },
                "weapon": {
                    "value": ""
                }
            },
            "effects": [],
            "flags": {},
            "img": "systems/pf2e/icons/actions/OneAction.webp",
            "name": "Raise Shields",
            "sort": 800000,
            "type": "action"
        },
        {
            "_id": "Vx9iqVf4ismUN743",
            "data": {
                "actionCategory": {
                    "value": "offensive"
                },
                "actionType": {
                    "value": "action"
                },
                "actions": {
                    "value": 1
                },
                "description": {
                    "value": "<p><span class=\"pf2-icon\">A</span> to <span class=\"pf2-icon\">T</span></p>\n<p><strong>Frequency</strong> once per round</p>\n<p><strong>Effect</strong> The garrison makes a melee attack against each enemy within 5 feet (@Check[type:reflex|dc:30|basic:true] save). The damage depends on the number of actions.</p>\n<p><span class=\"pf2-icon\">A</span> [[/r {2d8}[slashing]]]{2d8 slashing damage}.</p>\n<p><span class=\"pf2-icon\">D</span> [[/r {3d8+13}[slashing]]]{3d8+13 slashing damage}.</p>\n<p><span class=\"pf2-icon\">T</span> [[/r {4d8+16}[slashing]]]{4d8+16 slashing damage}.</p>"
                },
                "requirements": {
                    "value": ""
                },
                "rules": [],
                "slug": null,
                "source": {
                    "value": ""
                },
                "traits": {
                    "custom": "",
                    "rarity": "common",
                    "value": []
                },
                "trigger": {
                    "value": ""
                },
                "weapon": {
                    "value": ""
                }
            },
            "effects": [],
            "flags": {},
            "img": "systems/pf2e/icons/actions/OneAction.webp",
            "name": "Strike as One",
            "sort": 900000,
            "type": "action"
        },
        {
            "_id": "4y0Im0eAbj4YFOII",
            "data": {
                "actionCategory": {
                    "value": "offensive"
                },
                "actionType": {
                    "value": "passive"
                },
                "actions": {
                    "value": null
                },
                "description": {
                    "value": "<p>Whenever a troop Strides, it first Forms Up as a free action to condense into a 20-foot-by-20-foot area (minus any missing squares), then moves up to its Speed. This works just like a Gargantuan creature moving; for instance, if any square enters difficult terrain, the extra movement cost applies to the whole troop.</p>"
                },
                "requirements": {
                    "value": ""
                },
                "rules": [],
                "slug": null,
                "source": {
                    "value": ""
                },
                "traits": {
                    "custom": "",
                    "rarity": "common",
                    "value": []
                },
                "trigger": {
                    "value": ""
                },
                "weapon": {
                    "value": ""
                }
            },
            "effects": [],
            "flags": {},
            "img": "systems/pf2e/icons/actions/Passive.webp",
            "name": "Troop Movement",
            "sort": 1000000,
            "type": "action"
        },
        {
            "_id": "uuvp6INqZBeLCBFF",
            "data": {
                "description": {
                    "value": ""
                },
                "mod": {
                    "value": 26
                },
                "proficient": {
                    "value": 0
                },
                "rules": [],
                "slug": null,
                "source": {
                    "value": ""
                },
                "traits": {
                    "custom": "",
                    "rarity": "common",
                    "value": []
                }
            },
            "effects": [],
            "flags": {},
            "img": "systems/pf2e/icons/default-icons/lore.svg",
            "name": "Athletics",
            "sort": 1100000,
            "type": "lore"
        },
        {
            "_id": "tGDDOf1mOypxK17s",
            "data": {
                "description": {
                    "value": ""
                },
                "mod": {
                    "value": 23
                },
                "proficient": {
                    "value": 0
                },
                "rules": [],
                "slug": null,
                "source": {
                    "value": ""
                },
                "traits": {
                    "custom": "",
                    "rarity": "common",
                    "value": []
                }
            },
            "effects": [],
            "flags": {},
            "img": "systems/pf2e/icons/default-icons/lore.svg",
            "name": "Intimidation",
            "sort": 1200000,
            "type": "lore"
        }
    ],
    "name": "Planar Terra-cotta Squadron",
    "token": {
        "disposition": -1,
        "height": 4,
        "img": "systems/pf2e/icons/default-icons/npc.svg",
        "name": "Planar Terra-cotta Squadron",
        "width": 4
    },
    "type": "npc"
}
