{
    "_id": "R106i7WCXvHLGMTu",
    "data": {
        "description": {
            "value": "<p>Granted by @Compendium[pf2e.equipment-srd.Antiplague (Greater)]{Antiplague (Greater)}</p>\n<p>Implemented effects:</p>\n<ul>\n<li>+4 item bonus to Fortitude saves against diseases</li>\n</ul>"
        },
        "duration": {
            "expiry": "turn-start",
            "sustained": false,
            "unit": "hours",
            "value": 24
        },
        "level": {
            "value": 10
        },
        "rules": [
            {
                "key": "FlatModifier",
                "label": "Antiplague Greater(vs. disease)",
                "predicate": {
                    "all": [
                        "disease"
                    ]
                },
                "selector": "fortitude",
                "type": "item",
                "value": 4
            }
        ],
        "source": {
            "value": ""
        },
        "start": {
            "initiative": null,
            "value": 0
        },
        "target": null,
        "tokenIcon": {
            "show": true
        },
        "traits": {
            "custom": "",
            "rarity": "common",
            "value": []
        }
    },
    "effects": [],
    "flags": {},
    "img": "systems/pf2e/icons/equipment/alchemical-items/alchemical-elixirs/antiplague.webp",
    "name": "Effect: Antiplague (Greater)",
    "type": "effect"
}
