{
    "_id": "q1EhQ716bPSgJVnC",
    "data": {
        "description": {
            "value": "<p>Granted by @Compendium[pf2e.equipment-srd.Bravo's Brew (Greater)]{Bravo's Brew (Greater)}</p>\n<p>Implemented effects:</p>\n<ul>\n<li>+3 item bonus to Will saves</li>\n<li>+4 item bonus to Will saves against fear</li>\n</ul>\n<p>Unimplemented effects:</p>\n<ul>\n<li>If you roll a success on a save against fear, you get a critical success instead.</li>\n</ul>"
        },
        "duration": {
            "expiry": "turn-start",
            "sustained": false,
            "unit": "hours",
            "value": 1
        },
        "level": {
            "value": 15
        },
        "rules": [
            {
                "key": "FlatModifier",
                "label": "Bravo's Brew (Greater)",
                "selector": "will",
                "type": "item",
                "value": 3
            },
            {
                "key": "FlatModifier",
                "label": "Bravo's Brew Greater (vs. fear)",
                "predicate": {
                    "all": [
                        "fear"
                    ]
                },
                "selector": "will",
                "type": "item",
                "value": 4
            }
        ],
        "source": {
            "value": ""
        },
        "start": {
            "initiative": null,
            "value": 0
        },
        "target": null,
        "tokenIcon": {
            "show": true
        },
        "traits": {
            "custom": "",
            "rarity": "common",
            "value": []
        }
    },
    "effects": [],
    "flags": {},
    "img": "systems/pf2e/icons/equipment/alchemical-items/alchemical-elixirs/bravos-brew.webp",
    "name": "Effect: Bravo's Brew (Greater)",
    "type": "effect"
}
