{
    "_id": "uXkMGx0OD896ZQlT",
    "data": {
        "ability": [
            "str",
            "wis"
        ],
        "alignment": {
            "follower": [
                "NG",
                "CG",
                "CN"
            ],
            "own": "CG"
        },
        "description": {
            "value": "<p><strong>Alglenweis</strong> is the daughter of Kostchtchie and one of the major deities formerly worshipped in Sarkoris. She teaches her followers to perfect their craft and protect works of art, and be ready to act if necessary.</p>\n<p><strong>Edicts</strong> Strive to perfect an art or graft, protect the monuments of your people, stir others into action</p>\n<p><strong>Anathema</strong> Destroy an artistic creation without providing something in its place, refuse to act if called upon</p>"
        },
        "domains": {
            "alternate": [],
            "primary": [
                "cold",
                "creation",
                "might",
                "soul"
            ]
        },
        "font": [
            "heal"
        ],
        "rules": [],
        "skill": "nat",
        "source": {
            "value": "Pathfinder Lost Omens: Gods & Magic"
        },
        "spells": {
            "1": "Compendium.pf2e.spells-srd.r8g7oSumKOHDqJsd",
            "4": "Compendium.pf2e.spells-srd.TUj8eugNqAvB1vVR",
            "5": "Compendium.pf2e.spells-srd.3puDanGfpEt6jK5k"
        },
        "weapons": [
            "war-flail"
        ]
    },
    "effects": [],
    "flags": {},
    "img": "systems/pf2e/icons/default-icons/deity.svg",
    "name": "Alglenweis",
    "type": "deity"
}
