{
    "_id": "dcbf3pBSNa2q1Kkq",
    "data": {
        "ability": [
            "str",
            "cha"
        ],
        "alignment": {
            "follower": [
                "LE",
                "NE"
            ],
            "own": "LE"
        },
        "description": {
            "value": "<p><strong>Edicts</strong> Infiltrate righteous organizations and governments, destroy trust, perform human sacrifices</p>\n<p><strong>Anathema</strong> Betray a fellow servant of Dhalavei, harm those under Dhalavei's protection</p>"
        },
        "domains": {
            "alternate": [],
            "primary": [
                "destruction",
                "knowledge",
                "secrecy",
                "trickery"
            ]
        },
        "font": [
            "harm",
            "heal"
        ],
        "rules": [],
        "skill": "dec",
        "source": {
            "value": "Pathfinder Lost Omens: Gods & Magic"
        },
        "spells": {
            "1": "Compendium.pf2e.spells-srd.4koZzrnMXhhosn0D",
            "4": "Compendium.pf2e.spells-srd.JyxTmqjYYn63V5LY",
            "6": "Compendium.pf2e.spells-srd.WPXzPl7YbMEIGWfi"
        },
        "weapons": [
            "temple-sword"
        ]
    },
    "effects": [],
    "flags": {},
    "img": "systems/pf2e/icons/default-icons/deity.svg",
    "name": "Dhalavei",
    "type": "deity"
}
