{
    "_id": "IXLzDSMGndFb5rGY",
    "data": {
        "ability": [
            "str",
            "cha"
        ],
        "alignment": {
            "follower": [
                "LG",
                "NG",
                "CG"
            ],
            "own": "LG"
        },
        "description": {
            "value": "<p>Femininity, martial training, and rings are the purview of the Warrior's Ring. In the eyes of Falayna, there is as much grace and beauty in the martial arts as exists in any culture's definition of femininity. The strength of womanhood is a hallmark of femininity, and strength in arms reflects this, with the flourish and personality of a fighting style a vibrant means for self-expression. Followers of Falayna learn to fight so they can both express their body and defend themselves if necessary, and strive to feel beautiful doing so, both in form and in dress. Falayna also enjoys rings, and as such she is associated with events in which rings are given or exchanged, such as weddings.</p>\n<p>When the Warrior's Ring appears to mortals, her form is most often that of a muscular woman with the hair and eye colors most commonly associated with feminine beauty in the mortal's mind. She wears a bright silver breastplate on top of flowing, silken robes, her longsword <em>Betrothal</em> sheathed across her back. On her fingers she wears rings of varying colors, styles, and stones; this jewelry seems to constantly shift, as if her fingers wear all the rings found in all the worlds. Followers of Falayna include warriors, soldiers, squires, jewelers, and those engaged to be married.</p>\n<p><strong>Edicts</strong> Wear and make beautiful things, train for combat, recover and return lost mementos</p>\n<p><strong>Anathema</strong> Disrupt or destroy romantic unions, enforce a dress code, cower from fights</p>\n<p><strong>Areas of Concern</strong> femininity, martial training, and rings</p>"
        },
        "domains": {
            "alternate": [],
            "primary": [
                "creation",
                "freedom",
                "might",
                "wealth"
            ]
        },
        "font": [
            "heal"
        ],
        "rules": [],
        "skill": "ath",
        "source": {
            "value": "Pathfinder Lost Omens: Gods & Magic"
        },
        "spells": {
            "1": "Compendium.pf2e.spells-srd.Gb7SeieEvd0pL2Eh",
            "3": "Compendium.pf2e.spells-srd.AMEu5zzLN7uCX645",
            "5": "Compendium.pf2e.spells-srd.TCk2MDwf5L5OYjFC"
        },
        "weapons": [
            "longsword"
        ]
    },
    "effects": [],
    "flags": {},
    "img": "systems/pf2e/icons/default-icons/deity.svg",
    "name": "Falayna",
    "type": "deity"
}
