{
    "_id": "tcvobm8O84qv0aO5",
    "data": {
        "ability": [
            "int",
            "wis"
        ],
        "alignment": {
            "follower": [
                "LG",
                "NG"
            ],
            "own": "LG"
        },
        "description": {
            "value": "<p>Gruhastha the Keeper is a deity of understanding, peace, and the collective pursuit of enlightenment. The once-mortal nephew of @Compendium[pf2e.deities.Irori]{Irori} is believed to have ascended to godhood himself after creating the holy book <em>Azvadeva Pujila</em>, fully embodying all divine wisdom within the text. Originating in Vudra, the Keeper's faith has slowly gained popularity in the Inner Sea region, particularly in Jalmeray, where Irori already has a wide following. Gruhastha manifests as a human man with an idealized form, augmented with wings of red and green plumage and a golden mandala as a halo.</p>\n<p><strong>Edicts</strong> work toward collective transcendence, expose and root out malicious lies, challenge oppression through education, protect knowledge, seek truth</p>\n<p><strong>Anathema</strong> deny a sincere student education, destroy knowledge, disrespect the traditions of those around you, willfully spread ignorance or wrong information</p>\n<p><strong>Areas of Concern</strong> enlightenment, the Vudrani holy book</p>"
        },
        "domains": {
            "alternate": [
                "nature",
                "travel"
            ],
            "primary": [
                "glyph",
                "knowledge",
                "perfection",
                "truth"
            ]
        },
        "font": [
            "heal"
        ],
        "rules": [],
        "skill": "soc",
        "source": {
            "value": "Pathfinder Lost Omens: Gods & Magic"
        },
        "spells": {
            "1": "Compendium.pf2e.spells-srd.nXmC2Xx9WmS5NsAo",
            "2": "Compendium.pf2e.spells-srd.vTQvfYu2llKQedmY",
            "3": "Compendium.pf2e.spells-srd.ZYoC630tNGutgbE0"
        },
        "weapons": [
            "shortbow"
        ]
    },
    "effects": [],
    "flags": {},
    "img": "systems/pf2e/icons/default-icons/deity.svg",
    "name": "Gruhastha",
    "type": "deity"
}
