{
    "_id": "qqqrbq4uCrelQvgH",
    "data": {
        "ability": [
            "int",
            "wis"
        ],
        "alignment": {
            "follower": [
                "LG",
                "LN",
                "LE"
            ],
            "own": "LN"
        },
        "description": {
            "value": "<p>Irori exemplifies the concepts of self-perfection. His dogma states that he was a mortal who gained godhood through achieving a physical and mental state that surpassed mortal limitations. His followers seek to emulate their god's divine state by perfecting themselves using the words of the <em>Unbinding of Fetters</em>, Irori's sacred text. The illuminated pages of the tome detail numerous physical, spiritual, and mental exercises, as well as methods of learning and remembering.</p>\n<p><strong>Edicts</strong> be humble; help others perfect themselves; hone your body, mind, and spirit to a more perfect state; practice discipline</p>\n<p><strong>Anathema</strong> become addicted to a substance, destroy an important historical text, repeatedly fail to maintain self-control</p>\n<p><strong>Areas of Concern</strong> history, knowledge, and self-perfection</p>"
        },
        "domains": {
            "alternate": [
                "change",
                "vigil"
            ],
            "primary": [
                "knowledge",
                "might",
                "perfection",
                "truth"
            ]
        },
        "font": [
            "harm",
            "heal"
        ],
        "rules": [],
        "skill": "ath",
        "source": {
            "value": "Pathfinder Core Rulebook"
        },
        "spells": {
            "1": "Compendium.pf2e.spells-srd.Q7QQ91vQtyi1Ux36",
            "3": "Compendium.pf2e.spells-srd.o6YCGx4lycsYpww4",
            "4": "Compendium.pf2e.spells-srd.2BV2yYPfVJ5zirZt"
        },
        "weapons": [
            "fist"
        ]
    },
    "effects": [],
    "flags": {},
    "img": "systems/pf2e/icons/deity/Irori.webp",
    "name": "Irori",
    "type": "deity"
}
