{
    "_id": "JcIf4uwKLxEWdplI",
    "data": {
        "ability": [
            "str",
            "con"
        ],
        "alignment": {
            "follower": [
                "NE",
                "CE"
            ],
            "own": "CE"
        },
        "description": {
            "value": "<p><strong>Edicts</strong> Avenge all slights three times over, kill all witches</p>\n<p><strong>Anathema</strong> Make a deal with Baba Yaga or her children, defer to or obey a woman</p>"
        },
        "domains": {
            "alternate": [],
            "primary": [
                "cold",
                "destruction",
                "might",
                "zeal"
            ]
        },
        "font": [
            "harm"
        ],
        "rules": [],
        "skill": "ath",
        "source": {
            "value": "Pathfinder Lost Omens: Gods & Magic"
        },
        "spells": {
            "1": "Compendium.pf2e.spells-srd.8TQiFzGf4feoHeH0",
            "2": "Compendium.pf2e.spells-srd.wzctak6BxOW8xvFV",
            "5": "Compendium.pf2e.spells-srd.3puDanGfpEt6jK5k"
        },
        "weapons": [
            "warhammer"
        ]
    },
    "effects": [],
    "flags": {},
    "img": "systems/pf2e/icons/default-icons/deity.svg",
    "name": "Kostchtchie",
    "type": "deity"
}
