{
    "_id": "ItYptsfjV8XvfhOV",
    "data": {
        "ability": [
            "dex",
            "int"
        ],
        "alignment": {
            "follower": [
                "CE"
            ],
            "own": "CE"
        },
        "description": {
            "value": "<p><strong>Edicts</strong> Steal luxuries for yourself, destroy property for fun, demand bribes to spare creatures from your torments</p>\n<p><strong>Anathema</strong> Work honestly for something you could steal instead, kill a monkey</p>"
        },
        "domains": {
            "alternate": [],
            "primary": [
                "indulgence",
                "nature",
                "swarm",
                "trickery"
            ]
        },
        "font": [
            "harm"
        ],
        "rules": [],
        "skill": "thi",
        "source": {
            "value": "Pathfinder Lost Omens: Gods & Magic"
        },
        "spells": {
            "1": "Compendium.pf2e.spells-srd.aEM2cttJ2eYcLssW",
            "3": "Compendium.pf2e.spells-srd.tFKJCPvOQZxKq6ON",
            "4": "Compendium.pf2e.spells-srd.LiGbewa9pO0yjbsY"
        },
        "weapons": [
            "jaws",
            "battle-axe"
        ]
    },
    "effects": [],
    "flags": {},
    "img": "systems/pf2e/icons/default-icons/deity.svg",
    "name": "Lahkgya",
    "type": "deity"
}
