{
    "_id": "QibpLccM5bLUMopj",
    "data": {
        "ability": [
            "wis",
            "cha"
        ],
        "alignment": {
            "follower": [
                "LG",
                "NG",
                "CG"
            ],
            "own": "LG"
        },
        "description": {
            "value": "<p><strong>Edicts</strong> Help others achieve their desires, aid and protect sex workers, help others through difficult transitions</p>\n<p><strong>Anathema</strong> Persecute sex workers, force or support unwanted marriages</p>"
        },
        "domains": {
            "alternate": [],
            "primary": [
                "change",
                "passion",
                "protection",
                "repose"
            ]
        },
        "font": [
            "heal"
        ],
        "rules": [],
        "skill": "soc",
        "source": {
            "value": "Pathfinder Lost Omens: Gods & Magic"
        },
        "spells": {
            "1": "Compendium.pf2e.spells-srd.aAbfKn8maGjJjk2W",
            "3": "Compendium.pf2e.spells-srd.MNiT0dHol5fEcKlz",
            "4": "Compendium.pf2e.spells-srd.qJQADktwD0x8kLAy"
        },
        "weapons": [
            "longsword"
        ]
    },
    "effects": [],
    "flags": {},
    "img": "systems/pf2e/icons/default-icons/deity.svg",
    "name": "Lymnieris",
    "type": "deity"
}
