{
    "_id": "WrmaTmOHojfhiENF",
    "content": "<p><strong>Deities</strong> @Compendium[pf2e.deities.Dammerich]{Dammerich}, @Compendium[pf2e.deities.Erecura]{Erecura}, @Compendium[pf2e.deities.Followers of Fate]{Followers of Fate}, @Compendium[pf2e.deities.Geryon]{Geryon}, @Compendium[pf2e.deities.Gruhastha]{Gruhastha}, @Compendium[pf2e.deities.Iomedae]{Iomedae}, @Compendium[pf2e.deities.Irori]{Irori}, @Compendium[pf2e.deities.Kols]{Kols}, @Compendium[pf2e.deities.Kurgess]{Kurgess}, @Compendium[pf2e.deities.Ma'at]{Ma'at}, @Compendium[pf2e.deities.Magdh]{Magdh}, @Compendium[pf2e.deities.Mahathallah]{Mahathallah}, @Compendium[pf2e.deities.Monad]{Monad}, @Compendium[pf2e.deities.Pillars of Knowledge]{Pillars of Knowledge}, @Compendium[pf2e.deities.Ravithra]{Ravithra}, @Compendium[pf2e.deities.Sarenrae]{Sarenrae}, @Compendium[pf2e.deities.Zohls]{Zohls}</p>\n<p><strong>Domain Spell</strong> <em>@Compendium[pf2e.spells-srd.Word of Truth]{Word of Truth}</em>; <strong>Advanced Domain Spell</strong> <em>@Compendium[pf2e.spells-srd.Glimpse the Truth]{Glimpse the Truth}</em></p>\n<p>You pierce lies and discover the truth.</p>",
    "flags": {},
    "name": "Truth Domain",
    "permission": {
        "default": 0
    }
}
