{
    "_id": "uR44wELN9OlU68cL",
    "data": {
        "actionCategory": {
            "value": ""
        },
        "actionType": {
            "value": "passive"
        },
        "actions": {
            "value": null
        },
        "description": {
            "value": "<p>Your studies or prayers have unlocked deeper secrets of your deity's domain. You gain an advanced domain spell from one of your domains. Increase the number of Focus Points in your focus pool by 1.</p>\n<hr />\n<p><strong>Special</strong> You can select this feat multiple times. Each time, you must select a different advanced domain spell from a domain for which you have an initial domain spell.</p>"
        },
        "featType": {
            "value": "class"
        },
        "level": {
            "value": 8
        },
        "location": "",
        "maxTakable": null,
        "prerequisites": {
            "value": [
                {
                    "value": "Domain Initiate"
                }
            ]
        },
        "rules": [
            {
                "key": "ActiveEffectLike",
                "mode": "add",
                "path": "data.resources.focus.max",
                "value": 1
            }
        ],
        "source": {
            "value": "Pathfinder Core Rulebook"
        },
        "traits": {
            "custom": "",
            "rarity": "common",
            "value": [
                "cleric"
            ]
        }
    },
    "effects": [],
    "flags": {},
    "img": "systems/pf2e/icons/features/feats/feats.webp",
    "name": "Advanced Domain",
    "type": "feat"
}
