{
    "_id": "1JnERVwnPtX620f2",
    "data": {
        "actionCategory": {
            "value": ""
        },
        "actionType": {
            "value": "passive"
        },
        "actions": {
            "value": null
        },
        "description": {
            "value": "<p>You gain the service of a young animal companion that travels with you on your adventure and obeys any simple commands you give it to the best of your abilities.</p>\n<p>When you @Compendium[pf2e.actionspf2e.Hunt Prey]{Hunt Prey}, your animal companion gains the action's benefits and your @Compendium[pf2e.classfeatures.Hunter's Edge]{Hunter's Edge} benefit if you have one.</p>\n<ul>\n<li>@Compendium[pf2e.feat-effects.Effect: Hunter's Edge, Flurry]{Effect: Hunter's Edge, Flurry}</li>\n<li>@Compendium[pf2e.feat-effects.Effect: Hunter's Edge, Outwit]{Effect: Hunter's Edge, Outwit}</li>\n<li>@Compendium[pf2e.feat-effects.Effect: Hunter's Edge, Precision]{Effect: Hunter's Edge, Precision}</li>\n</ul>"
        },
        "featType": {
            "value": "class"
        },
        "level": {
            "value": 1
        },
        "location": "",
        "prerequisites": {
            "value": []
        },
        "rules": [],
        "source": {
            "value": ""
        },
        "traits": {
            "custom": "",
            "rarity": "common",
            "value": [
                "ranger"
            ]
        }
    },
    "effects": [],
    "flags": {},
    "img": "systems/pf2e/icons/features/feats/feats.webp",
    "name": "Animal Companion (Ranger)",
    "type": "feat"
}
