{
    "_id": "r4ZVpDjX2X0yrmhw",
    "data": {
        "actionCategory": {
            "value": "offensive"
        },
        "actionType": {
            "value": "action"
        },
        "actions": {
            "value": 2
        },
        "description": {
            "value": "<p><strong>Requirements</strong> You're wielding a two-handed crossbow or a firearm that has the kickback or scatter trait.</p>\n<hr />\n<p>You throw yourself at an enemy, bracing your weapon against it and pulling it close before releasing a destructive shot. Attempt to @Compendium[pf2e.actionspf2e.Grapple]{Grapple}; if you're wielding your weapon in both hands, you Release one hand to do so. If your Grapple succeeds, you can immediately Strike the target of the Grapple with the required weapon, even if it's a two-handed weapon you're holding in one hand. This Strike deals an additional [[/r {3d6}[precision]]]{3d6 precision damage}. As long the creature remains @Compendium[pf2e.conditionitems.Grabbed]{Grabbed} or @Compendium[pf2e.conditionitems.Restrained]{Restrained}, you can use just one hand to reload the weapon and Strike that creature with it.</p>"
        },
        "featType": {
            "value": "class"
        },
        "level": {
            "value": 14
        },
        "location": "",
        "prerequisites": {
            "value": [
                {
                    "value": "way of the vanguard"
                }
            ]
        },
        "rules": [],
        "source": {
            "value": ""
        },
        "traits": {
            "custom": "",
            "rarity": "common",
            "value": [
                "gunslinger"
            ]
        }
    },
    "effects": [],
    "flags": {},
    "img": "systems/pf2e/icons/default-icons/feats.webp",
    "name": "Blast Tackle",
    "type": "feat"
}
