{
    "_id": "DkoxNw9tsFFXrfJY",
    "data": {
        "actionCategory": {
            "value": ""
        },
        "actionType": {
            "value": "reaction"
        },
        "actions": {
            "value": null
        },
        "description": {
            "value": "<p><strong>Trigger</strong> You attempt a saving throw, but you haven't rolled yet.</p>\n<hr />\n<p>When danger calls, you have a strange knack for coming out on top. You gain a +2 circumstance bonus to the triggering save.</p>"
        },
        "featType": {
            "value": "class"
        },
        "level": {
            "value": 2
        },
        "location": "",
        "prerequisites": {
            "value": [
                {
                    "value": "Charisma 14"
                }
            ]
        },
        "rules": [
            {
                "domain": "all",
                "key": "RollOption",
                "label": "Use Charmed Life",
                "option": "charmed-life",
                "toggleable": true
            },
            {
                "key": "FlatModifier",
                "predicate": {
                    "all": [
                        "charmed-life"
                    ]
                },
                "selector": "saving-throw",
                "type": "circumstance",
                "value": 2
            }
        ],
        "source": {
            "value": "Pathfinder Advanced Player's Guide"
        },
        "traits": {
            "custom": "",
            "rarity": "common",
            "value": [
                "swashbuckler"
            ]
        }
    },
    "effects": [],
    "flags": {},
    "img": "systems/pf2e/icons/features/feats/feats.webp",
    "name": "Charmed Life",
    "type": "feat"
}
