{
    "_id": "r7srDh7Iz94vfwwN",
    "data": {
        "actionCategory": {
            "value": "defensive"
        },
        "actionType": {
            "value": "reaction"
        },
        "actions": {
            "value": null
        },
        "description": {
            "value": "<p><strong>Trigger</strong> A creature Casts a Spell from the enchantment or illusion school.</p>\n<p><strong>Requirements</strong> You have an innate non-cantrip captivator spell of the same school.</p>\n<hr />\n<p>Your enchantments and illusions are so dominant that you can use them to counteract similar magic cast by others. When a foe casts an enchantment or illusion spell and you can see its manifestations, you can use your own innate magic to disrupt it. You lose an innate, non-cantrip spell of the same school as the triggering spell as if you had Cast the Spell. You then attempt to counteract the triggering spell with your spell.</p>"
        },
        "featType": {
            "value": "archetype"
        },
        "level": {
            "value": 8
        },
        "location": "",
        "prerequisites": {
            "value": [
                {
                    "value": "Captivator Dedication"
                }
            ]
        },
        "rules": [],
        "source": {
            "value": ""
        },
        "traits": {
            "custom": "",
            "rarity": "common",
            "value": [
                "archetype"
            ]
        }
    },
    "effects": [],
    "flags": {},
    "img": "systems/pf2e/icons/default-icons/feats.webp",
    "name": "Countercharm",
    "type": "feat"
}
