{
    "_id": "yEbXxbD317IZgtsN",
    "data": {
        "actionCategory": {
            "value": ""
        },
        "actionType": {
            "value": "passive"
        },
        "actions": {
            "value": null
        },
        "description": {
            "value": "<p>Your earth elemental ancestor's influence manifests in you as dust and dirt, like the soil of a field or the hot desert sands. You gain the trained proficiency rank in Survival. If you would automatically become trained in Survival (from your background or class, for example), you instead become trained in a skill of your choice. You can sustain yourself on dirt and ash instead of normal food and water.</p>"
        },
        "featType": {
            "value": "ancestry"
        },
        "level": {
            "value": 1
        },
        "location": "",
        "onlyLevel1": true,
        "prerequisites": {
            "value": []
        },
        "rules": [],
        "source": {
            "value": "Pathfinder Lost Omens: Ancestry Guide"
        },
        "traits": {
            "custom": "",
            "rarity": "common",
            "value": [
                "lineage",
                "oread"
            ]
        }
    },
    "effects": [],
    "flags": {},
    "img": "systems/pf2e/icons/features/feats/feats.webp",
    "name": "Dustsoul",
    "type": "feat"
}
