{
    "_id": "hENWnoZNljeJnZBR",
    "data": {
        "actionCategory": {
            "value": "offensive"
        },
        "actionType": {
            "value": "action"
        },
        "actions": {
            "value": 1
        },
        "description": {
            "value": "<p><strong>Requirements</strong> You have a creature @Compendium[pf2e.conditionitems.Grabbed]{Grabbed} or @Compendium[pf2e.conditionitems.Restrained]{Restrained}.</p>\n<hr />\n<p>You bend your opponent's body or limbs into agonizing positions that make it difficult for them to maintain their grip. Make an unarmed melee Strike against the creature you have grabbed or restrained. This Strike has the following effects in addition to its usual effects.</p>\n<hr />\n<p><strong>Critical Success</strong> You knock one held item out of the creature's grasp. It falls to the ground in the creature's space.</p>\n<p><strong>Success</strong> You weaken your opponent's grasp on one held item. Until the start of that creature's turn, attempts to Disarm the opponent of that item gain a +2 circumstance bonus, and the target takes a -2 circumstance penalty to attacks with the item or other checks requiring a firm grasp on the item.</p>"
        },
        "featType": {
            "value": "archetype"
        },
        "level": {
            "value": 4
        },
        "location": "",
        "prerequisites": {
            "value": [
                {
                    "value": "Wrestler Dedication"
                }
            ]
        },
        "rules": [],
        "source": {
            "value": ""
        },
        "traits": {
            "custom": "",
            "rarity": "common",
            "value": [
                "archetype"
            ]
        }
    },
    "effects": [],
    "flags": {},
    "img": "systems/pf2e/icons/default-icons/feats.webp",
    "name": "Elbow Breaker",
    "type": "feat"
}
