{
    "_id": "c2h9Z8exSFhraJ8j",
    "data": {
        "actionCategory": {
            "value": ""
        },
        "actionType": {
            "value": "passive"
        },
        "actions": {
            "value": null
        },
        "description": {
            "value": "<p>You've sworn an oath to slay the alien abominations that lurk in the remote corners of Golarion. Add the following tenet to your champion's code, after the other tenets. \"You must slay evil aberrations you encounter as long as you have a reasonable chance of success.\"</p>\n<p>Your @Compendium[pf2e.actionspf2e.Retributive Strike]{Retributive Strike} gains a +4 circumstance bonus to damage against an evil aberration, or +6 if you have master proficiency with the weapon you used.</p>\n<p>You don't consider evil aberrations to be legitimate authorities, even in nations they rule.</p>"
        },
        "featType": {
            "value": "class"
        },
        "level": {
            "value": 2
        },
        "location": "",
        "prerequisites": {
            "value": [
                {
                    "value": "tenets of good"
                },
                {
                    "value": "paladin cause"
                }
            ]
        },
        "rules": [
            {
                "domain": "damage-roll",
                "key": "RollOption",
                "label": "Retributive Strike against an evil aberration",
                "option": "esoteric-oath",
                "toggleable": true
            },
            {
                "key": "FlatModifier",
                "label": "Esoteric Oath",
                "predicate": {
                    "all": [
                        "esoteric-oath"
                    ],
                    "not": [
                        "proficiency:master",
                        "proficiency:legendary"
                    ]
                },
                "selector": "strike-damage",
                "slug": "esoteric-not-master",
                "value": 4
            },
            {
                "key": "FlatModifier",
                "label": "Esoteric Oath",
                "predicate": {
                    "all": [
                        "esoteric-oath"
                    ],
                    "any": [
                        "proficiency:master",
                        "proficiency:legendary"
                    ]
                },
                "selector": "strike-damage",
                "slug": "esoteric-master",
                "value": 6
            }
        ],
        "source": {
            "value": "Pathfinder Advanced Player's Guide"
        },
        "traits": {
            "custom": "",
            "rarity": "common",
            "value": [
                "champion",
                "oath"
            ]
        }
    },
    "effects": [],
    "flags": {},
    "img": "systems/pf2e/icons/features/feats/feats.webp",
    "name": "Esoteric Oath (Paladin)",
    "type": "feat"
}
