{
    "_id": "6GN1zh3RcnZhrzxP",
    "data": {
        "actionCategory": {
            "value": ""
        },
        "actionType": {
            "value": "action"
        },
        "actions": {
            "value": 1
        },
        "description": {
            "value": "<p><strong>Requirements</strong> You are wielding a shield.</p>\n<hr />\n<p>You brace your shield with both hands, enhancing its potential for both offense and defense. When in this stance, you wield the shield with both hands. When wielding a shield this way, increase the weapon damage die of the shield's boss or spikes by one step, and increase the shield's Hardness by 2 when using the @Compendium[pf2e.feats-srd.Shield Block]{Shield Block} reaction.</p>\n<p>@Compendium[pf2e.feat-effects.Stance: Everstand Stance]{Stance: Everstand Stance}</p>"
        },
        "featType": {
            "value": "class"
        },
        "level": {
            "value": 1
        },
        "location": "",
        "prerequisites": {
            "value": [
                {
                    "value": "You are wielding a shield"
                }
            ]
        },
        "rules": [
            {
                "domain": "all",
                "key": "RollOption",
                "label": "In Everstand Stance",
                "option": "stance:everstand",
                "toggleable": true
            },
            {
                "key": "ActiveEffectLike",
                "mode": "add",
                "path": "data.attributes.shield.hardness",
                "phase": "beforeDerived",
                "predicate": {
                    "all": [
                        "self:shield:equipped",
                        "stance:everstand"
                    ]
                },
                "value": 2
            }
        ],
        "source": {
            "value": "Pathfinder Lost Omens: Character Guide"
        },
        "traits": {
            "custom": "",
            "rarity": "uncommon",
            "value": [
                "champion",
                "fighter",
                "stance"
            ]
        }
    },
    "effects": [],
    "flags": {},
    "img": "systems/pf2e/icons/features/feats/feats.webp",
    "name": "Everstand Stance",
    "type": "feat"
}
