{
    "_id": "0xh9ISHFUFHqngK0",
    "data": {
        "actionCategory": {
            "value": "offensive"
        },
        "actionType": {
            "value": "action"
        },
        "actions": {
            "value": 2
        },
        "description": {
            "value": "<p><strong>Requirements</strong> You have condemned a foe with Harsh Judgment.</p>\n<hr />\n<p>You swing wide, attempting to behead your condemned foe. Make a melee Strike against your condemned foe. If you hit, your condemned foe takes [[/r {8d6}[precision]]]{8d6 extra precision damage} with a basic Fortitude save against your class DC or spell DC, whichever is higher. If the condemned foe is reduced to 0 Hit Points by the execution and requires a head to live, they die. For creatures with multiple heads, this usually kills the creature only if you sever its last head. The creature then becomes temporarily immune to your Execution for 1 day.</p>"
        },
        "featType": {
            "value": "archetype"
        },
        "level": {
            "value": 14
        },
        "location": "",
        "prerequisites": {
            "value": [
                {
                    "value": "Vigilante Dedication"
                },
                {
                    "value": "Member of the Grey Gardeners"
                },
                {
                    "value": "Harsh Judgement"
                }
            ]
        },
        "rules": [],
        "source": {
            "value": ""
        },
        "traits": {
            "custom": "",
            "rarity": "common",
            "value": [
                "archetype",
                "vigilante"
            ]
        }
    },
    "effects": [],
    "flags": {},
    "img": "systems/pf2e/icons/default-icons/feats.webp",
    "name": "Execution",
    "type": "feat"
}
