{
    "_id": "gipC9eWrBDFRpNkQ",
    "data": {
        "actionCategory": {
            "value": ""
        },
        "actionType": {
            "value": "passive"
        },
        "actions": {
            "value": null
        },
        "description": {
            "value": "<p>Thick tattoos, each one a rune fragment from the saumen kar's long-lost language spelling out their pact with their equally lost deity, cover your body and stretch across your limbs, torso, and face. You gain a +1 status bonus to saving throws against evil and necromancy spells and effects. You can sense the presence of evil undead as a pervasive taste of oily corruption in the air; this is a vague sense that allows you to know when such a creature is within 60 feet of you, though you can't precisely pinpoint their location with this sense. As normal for a vague sense, it can be fooled, but undead might not realize they need to take precautions against it. This sense also extends to living creatures who have the negative healing ability, like dhampir.</p>\n<p>You deal an additional 1 cold damage with all Strikes made with an ice-crafted weapon. If you have the Crown of the Saumen Kar feat, you deal an additional 1 cold damage with your unarmed horns Strikes.</p>"
        },
        "featType": {
            "value": "archetype"
        },
        "level": {
            "value": 12
        },
        "location": "",
        "prerequisites": {
            "value": [
                {
                    "value": "Pactbound Dedication"
                }
            ]
        },
        "rules": [
            {
                "key": "FlatModifier",
                "predicate": {
                    "any": [
                        "necromancy",
                        "evil"
                    ]
                },
                "selector": "saving-throw",
                "type": "status",
                "value": 1
            },
            {
                "damageType": "cold",
                "key": "FlatModifier",
                "selector": "horns-damage",
                "value": 1
            },
            {
                "damageType": "cold",
                "key": "FlatModifier",
                "predicate": {
                    "all": [
                        "ice-crafted"
                    ]
                },
                "selector": "strike-damage",
                "value": 1
            }
        ],
        "source": {
            "value": "Pathfinder Lost Omens: Monsters of Myth"
        },
        "traits": {
            "custom": "",
            "rarity": "common",
            "value": [
                "archetype",
                "evocation",
                "primal"
            ]
        }
    },
    "effects": [],
    "flags": {},
    "img": "systems/pf2e/icons/default-icons/feats.webp",
    "name": "Frostbite Runes",
    "type": "feat"
}
