{
    "_id": "7Lx8rsEbBJkg6C17",
    "data": {
        "actionCategory": {
            "value": ""
        },
        "actionType": {
            "value": "passive"
        },
        "actions": {
            "value": null
        },
        "description": {
            "value": "<p>You can share your power with others, but they can't escape the werecreature's curse as easily as you can. You can cast a 5th-level <em>@Compendium[pf2e.spells-srd.Moon Frenzy]{Moon Frenzy}</em> as a primal innate spell once per day. At 15th level, you cast a 6th-level <em>moon frenzy</em> instead. At 17th level, your 6th-level <em>moon frenzy</em> grants its standard effects, except the temporary Hit Points increase to 15 and the silver weakness increases to 15. At 20th level, you cast a 10th-level <em>moon frenzy</em> instead. The spell uses your class DC or spell DC, whichever is higher.</p>"
        },
        "featType": {
            "value": "ancestry"
        },
        "level": {
            "value": 13
        },
        "location": "",
        "prerequisites": {
            "value": []
        },
        "rules": [],
        "source": {
            "value": "Pathfinder Lost Omens: Ancestry Guide"
        },
        "traits": {
            "custom": "",
            "rarity": "common",
            "value": [
                "beastkin"
            ]
        }
    },
    "effects": [],
    "flags": {},
    "img": "systems/pf2e/icons/features/feats/feats.webp",
    "name": "Gift Of The Moon",
    "type": "feat"
}
