{
    "_id": "blOiU4LPlBjVHcgR",
    "data": {
        "actionCategory": {
            "value": "offensive"
        },
        "actionType": {
            "value": "action"
        },
        "actions": {
            "value": 1
        },
        "description": {
            "value": "<p><strong>Frequency</strong> once per day</p>\n<hr />\n<p>If your illusions or enchantments fail to ensnare the minds of others, you can cast them again. If your next action is to cast an innate enchantment or illusion spell and it fails to affect any targets, you do not lose the spell. You must use the same number of actions to recast the same spell on your following turn; if you can't, or choose not to, you waste that number of actions with no effect. After this second casting, you lose the spell whether it affected any targets or not. Look Again works only with spells that require targets and doesn't do anything if you cast a targeted spell but didn't select any targets.</p>"
        },
        "featType": {
            "value": "archetype"
        },
        "level": {
            "value": 18
        },
        "location": "",
        "prerequisites": {
            "value": [
                {
                    "value": "Captivator Dedication"
                }
            ]
        },
        "rules": [],
        "source": {
            "value": ""
        },
        "traits": {
            "custom": "",
            "rarity": "common",
            "value": [
                "archetype",
                "metamagic"
            ]
        }
    },
    "effects": [],
    "flags": {},
    "img": "systems/pf2e/icons/default-icons/feats.webp",
    "name": "Look Again",
    "type": "feat"
}
