{
    "_id": "ZFkCMl63ogK55Otq",
    "data": {
        "actionCategory": {
            "value": ""
        },
        "actionType": {
            "value": "passive"
        },
        "actions": {
            "value": null
        },
        "description": {
            "value": "<p>Your patron grants you even greater secrets. Choose a major, greater, or basic lesson from the list of witch lessons. You gain its associated hex, and your familiar learns the associated spell. Increase the number of Focus Points in your focus pool by 1.</p>\n<p><strong>Special</strong> You can select this feat a second time if you're 14th level or higher, and a third time if you're 18th level or higher. Choose a different lesson each time.</p>"
        },
        "featType": {
            "value": "class"
        },
        "level": {
            "value": 10
        },
        "location": "",
        "prerequisites": {
            "value": []
        },
        "rules": [
            {
                "key": "ActiveEffectLike",
                "mode": "add",
                "path": "data.resources.focus.max",
                "value": 1
            },
            {
                "adjustName": false,
                "allowedDrops": {
                    "all": [
                        "item:trait:witch",
                        "item:type:feature"
                    ],
                    "any": [
                        "item:level:10",
                        "item:level:6",
                        "item:level:2"
                    ]
                },
                "choices": [
                    {
                        "value": "Compendium.pf2e.classfeatures.Lesson of Death"
                    },
                    {
                        "value": "Compendium.pf2e.classfeatures.Lesson of Renewal"
                    },
                    {
                        "value": "Compendium.pf2e.classfeatures.Lesson of the Frozen Queen"
                    },
                    {
                        "value": "Compendium.pf2e.classfeatures.Lesson of Mischief"
                    },
                    {
                        "value": "Compendium.pf2e.classfeatures.Lesson of Shadow"
                    },
                    {
                        "value": "Compendium.pf2e.classfeatures.Lesson of Snow"
                    },
                    {
                        "value": "Compendium.pf2e.classfeatures.Lesson of Calamity"
                    },
                    {
                        "value": "Compendium.pf2e.classfeatures.Lesson of Dreams"
                    },
                    {
                        "value": "Compendium.pf2e.classfeatures.Lesson of Life"
                    },
                    {
                        "value": "Compendium.pf2e.classfeatures.Lesson of Protection"
                    },
                    {
                        "value": "Compendium.pf2e.classfeatures.Lesson of Elements"
                    },
                    {
                        "value": "Compendium.pf2e.classfeatures.Lesson of Vengeance"
                    }
                ],
                "flag": "lesson",
                "key": "ChoiceSet",
                "prompt": "PF2E.SpecificRule.Prompt.Lesson"
            },
            {
                "key": "GrantItem",
                "uuid": "{item|flags.pf2e.rulesSelections.lesson}"
            }
        ],
        "source": {
            "value": "Pathfinder Advanced Player's Guide"
        },
        "traits": {
            "custom": "",
            "rarity": "common",
            "value": [
                "witch"
            ]
        }
    },
    "effects": [],
    "flags": {},
    "img": "systems/pf2e/icons/features/feats/feats.webp",
    "name": "Major Lesson",
    "type": "feat"
}
