{
    "_id": "yozSCfdLFHVBbTxj",
    "data": {
        "actionCategory": {
            "value": ""
        },
        "actionType": {
            "value": "passive"
        },
        "actions": {
            "value": null
        },
        "description": {
            "value": "<p>Your animal companion grows up, becoming a mature animal companion, which grants it additional capabilities. Your animal companion is better trained than most. During an encounter, even if you don't use the Command an Animal action, your animal companion can still use 1 action on your turn that round to Stride or Strike.</p>"
        },
        "featType": {
            "value": "class"
        },
        "level": {
            "value": 4
        },
        "prerequisites": {
            "value": [
                {
                    "value": "Animal Companion"
                }
            ]
        },
        "rules": [],
        "source": {
            "value": "Pathfinder Core Rulebook"
        },
        "traits": {
            "custom": "",
            "rarity": "common",
            "value": [
                "druid"
            ]
        }
    },
    "effects": [],
    "flags": {},
    "img": "systems/pf2e/icons/features/feats/feats.webp",
    "name": "Mature Animal Companion (Druid)",
    "type": "feat"
}
