{
    "_id": "C9nb7H5u2ElBXvCR",
    "data": {
        "actionCategory": {
            "value": ""
        },
        "actionType": {
            "value": "passive"
        },
        "actions": {
            "value": null
        },
        "description": {
            "value": "<p>With the right mindset, consuming a serene mutagen grants you special mental protections.</p>\n<p>When you're affected by a @Compendium[pf2e.equipment-srd.Serene Mutagen (Lesser)]{Serene Mutagen}, detection, revelation, and scrying effects of 9th level or lower detect nothing from you or your possessions and auras.</p>\n<p>For instance, detect magic would still detect other magic in the area, but not any magic on you.</p>"
        },
        "featType": {
            "value": "class"
        },
        "level": {
            "value": 18
        },
        "location": "",
        "prerequisites": {
            "value": []
        },
        "rules": [],
        "source": {
            "value": "Pathfinder Core Rulebook"
        },
        "traits": {
            "custom": "",
            "rarity": "common",
            "value": [
                "alchemist"
            ]
        }
    },
    "effects": [],
    "flags": {},
    "img": "systems/pf2e/icons/features/feats/feats.webp",
    "name": "Mindblank Mutagen",
    "type": "feat"
}
