{
    "_id": "MjhCcwGKyI5dpNIY",
    "data": {
        "actionCategory": {
            "value": ""
        },
        "actionType": {
            "value": "action"
        },
        "actions": {
            "value": 1
        },
        "description": {
            "value": "<p>You use clever tactics to mislead your foes as you sneak away. You @Compendium[pf2e.actionspf2e.Sneak]{Sneak} while leaving a decoy behind.</p>\n<p>The decoy acts as the spell <em>@Compendium[pf2e.spells-srd.Mislead]{Mislead}</em>, though you aren't @Compendium[pf2e.conditionitems.Invisible]{Invisible}, just @Compendium[pf2e.conditionitems.Undetected]{Undetected}. You can continue to concentrate to move your decoy, as with the spell, whether or not you remain @Compendium[pf2e.conditionitems.Hidden]{Hidden} throughout the duration.</p>\n<p>Once you use Perfect Distraction, you need to spend 10 minutes to set up another decoy before you can use it again.</p>"
        },
        "featType": {
            "value": "class"
        },
        "level": {
            "value": 16
        },
        "location": "",
        "prerequisites": {
            "value": [
                {
                    "value": "legendary in Deception"
                }
            ]
        },
        "rules": [],
        "source": {
            "value": "Pathfinder Core Rulebook"
        },
        "traits": {
            "custom": "",
            "rarity": "common",
            "value": [
                "rogue"
            ]
        }
    },
    "effects": [],
    "flags": {},
    "img": "systems/pf2e/icons/features/feats/feats.webp",
    "name": "Perfect Distraction",
    "type": "feat"
}
