{
    "_id": "P04Hw8E6WAWARKHP",
    "data": {
        "actionCategory": {
            "value": ""
        },
        "actionType": {
            "value": "passive"
        },
        "actions": {
            "value": null
        },
        "description": {
            "value": "<p>When Climbing, you move 5 more feet on a success and 10 more feet on a critical success, to a maximum of your Speed. If you're legendary in Athletics, you gain a climb Speed equal to your Speed.</p>"
        },
        "featType": {
            "value": "skill"
        },
        "level": {
            "value": 7
        },
        "location": "",
        "prerequisites": {
            "value": [
                {
                    "value": "master in Athletics"
                }
            ]
        },
        "rules": [
            {
                "key": "BaseSpeed",
                "predicate": {
                    "all": [
                        "skill:ath:rank:4"
                    ]
                },
                "selector": "climb",
                "value": "@actor.attributes.speed.value"
            },
            {
                "key": "Note",
                "predicate": {
                    "all": [
                        "action:climb"
                    ]
                },
                "selector": "athletics",
                "text": "<p class=\"compact-text\"><strong>{item|name}</strong> You move 5 more feet on a success, and 10 more feet on a critical success.</p>"
            }
        ],
        "source": {
            "value": "Pathfinder Core Rulebook"
        },
        "traits": {
            "custom": "",
            "rarity": "common",
            "value": [
                "general",
                "skill"
            ]
        }
    },
    "effects": [],
    "flags": {},
    "img": "systems/pf2e/icons/features/feats/feats.webp",
    "name": "Quick Climb",
    "type": "feat"
}
