{
    "_id": "oVSlTmdmho8ZQo2k",
    "data": {
        "actionCategory": {
            "value": ""
        },
        "actionType": {
            "value": "passive"
        },
        "actions": {
            "value": null
        },
        "description": {
            "value": "<p>Spines, flame jets, and holy blasts are just some of the ways your eidolon might strike from a distance. It gains a ranged unarmed attack with a range increment of 30 feet that deals 1d4 damage and has the magical and propulsive traits.</p>\n<p>When you select this feat, choose a damage type: acid, bludgeoning, cold, electricity, fire, negative, piercing, positive, or slashing. If your eidolon is a celestial, fiend, or monitor with an alignment other than true neutral, you can choose a damage type in its alignment.</p>"
        },
        "featType": {
            "value": "class"
        },
        "level": {
            "value": 2
        },
        "location": "",
        "prerequisites": {
            "value": []
        },
        "rules": [],
        "source": {
            "value": ""
        },
        "traits": {
            "custom": "",
            "rarity": "common",
            "value": [
                "evolution",
                "summoner"
            ]
        }
    },
    "effects": [],
    "flags": {},
    "img": "systems/pf2e/icons/features/feats/feats.webp",
    "name": "Ranged Combatant",
    "type": "feat"
}
