{
    "_id": "DhqsKns2SaGcOKO9",
    "data": {
        "actionCategory": {
            "value": ""
        },
        "actionType": {
            "value": "passive"
        },
        "actions": {
            "value": null
        },
        "description": {
            "value": "<p>You're incredibly skilled in iruxi astrology, and you can gain useful (if cryptic) hints from the stars' alignment. Once per night, if you can clearly see the stars, you can spend 1 hour reading the heavens to see how they relate to a particular goal, event, or activity that will occur within 1 week. The GM rolls a secret check, either a DC 28 Astrology Lore check or a DC 32 Occultism check. On a success, you learn a cryptic clue or piece of advice that could help with the chosen event, and on a critical failure, you learn a misleading cryptic clue or piece of advice.</p>"
        },
        "featType": {
            "value": "ancestry"
        },
        "level": {
            "value": 9
        },
        "location": "",
        "prerequisites": {
            "value": [
                {
                    "value": "trained in Astrology Lore or Occultism"
                }
            ]
        },
        "rules": [],
        "source": {
            "value": "Pathfinder Lost Omens: Ancestry Guide"
        },
        "traits": {
            "custom": "",
            "rarity": "common",
            "value": [
                "lizardfolk"
            ]
        }
    },
    "effects": [],
    "flags": {},
    "img": "systems/pf2e/icons/features/feats/feats.webp",
    "name": "Read The Stars",
    "type": "feat"
}
