{
    "_id": "c7mCj6wUdb47rrnw",
    "data": {
        "actionCategory": {
            "value": "offensive"
        },
        "actionType": {
            "value": "action"
        },
        "actions": {
            "value": 1
        },
        "description": {
            "value": "<p>You bounce your shot off a nearby surface to strike your opponent from an unexpected angle. When determining whether a target has cover from your ranged attack with a firearm or crossbow, you can choose one solid surface within your weapon's first range increment to ricochet your shot off of. If you do, you determine the target's cover from the point where you ricochet your shot instead of from you.</p>"
        },
        "featType": {
            "value": "class"
        },
        "level": {
            "value": 12
        },
        "location": "",
        "prerequisites": {
            "value": []
        },
        "rules": [],
        "source": {
            "value": ""
        },
        "traits": {
            "custom": "",
            "rarity": "common",
            "value": [
                "concentrate",
                "gunslinger"
            ]
        }
    },
    "effects": [],
    "flags": {},
    "img": "systems/pf2e/icons/default-icons/feats.webp",
    "name": "Ricochet Shot",
    "type": "feat"
}
