{
    "_id": "bCWieNDC1CD35tin",
    "data": {
        "actionCategory": {
            "value": ""
        },
        "actionType": {
            "value": "passive"
        },
        "actions": {
            "value": null
        },
        "description": {
            "value": "<p>You gain a skill feat and the rogue's @Compendium[pf2e.classfeatures.Surprise Attack]{Surprise Attack} class feature. You become trained in light armor. In addition, you become trained in Stealth or Thievery plus one skill of your choice; if you are already trained in both Stealth and Thievery, you become trained in an additional skill of your choice. You become trained in rogue class DC.</p>\n<p><strong>Special</strong> You cannot gain another dedication feat until you have gained two other feats from the rogue archetype.</p>"
        },
        "featType": {
            "value": "archetype"
        },
        "level": {
            "value": 2
        },
        "location": "",
        "prerequisites": {
            "value": [
                {
                    "value": "Dexterity 14"
                }
            ]
        },
        "rules": [
            {
                "key": "ActiveEffectLike",
                "mode": "upgrade",
                "path": "data.martial.light.rank",
                "value": 1
            },
            {
                "adjustName": false,
                "choices": [
                    {
                        "label": "PF2E.SkillStealth",
                        "value": "data.skills.ste.rank"
                    },
                    {
                        "label": "PF2E.SkillThievery",
                        "value": "data.skills.thi.rank"
                    }
                ],
                "key": "ChoiceSet",
                "prompt": "Select a skill to become trained in"
            },
            {
                "key": "ActiveEffectLike",
                "mode": "upgrade",
                "path": "{item|flags.pf2e.rulesSelections.rogueDedication}",
                "value": 1
            },
            {
                "key": "GrantItem",
                "uuid": "Compendium.pf2e.classfeatures.Surprise Attack"
            }
        ],
        "source": {
            "value": "Pathfinder Core Rulebook"
        },
        "traits": {
            "custom": "",
            "rarity": "common",
            "value": [
                "archetype",
                "dedication",
                "multiclass"
            ]
        }
    },
    "effects": [],
    "flags": {},
    "img": "systems/pf2e/icons/features/feats/feats.webp",
    "name": "Rogue Dedication",
    "type": "feat"
}
