{
    "_id": "ZB2WMbhALgQTGY3c",
    "data": {
        "actionCategory": {
            "value": ""
        },
        "actionType": {
            "value": "passive"
        },
        "actions": {
            "value": null
        },
        "description": {
            "value": "<p>When you Counterspell a spell with a school matching your specialization, if you critically succeed at your counteract check, or if you succeed while using a spell of a higher level than the spell you countered, you can redirect the spell you countered. You choose the target, area, and other aspects of the spell and use your own spell DC, spell attack roll, or other statistics as appropriate to determine the effects.</p>"
        },
        "featType": {
            "value": "archetype"
        },
        "level": {
            "value": 18
        },
        "location": "",
        "prerequisites": {
            "value": [
                {
                    "value": "Counterspell"
                },
                {
                    "value": "Runelord Dedication"
                }
            ]
        },
        "rules": [],
        "source": {
            "value": ""
        },
        "traits": {
            "custom": "",
            "rarity": "common",
            "value": [
                "archetype"
            ]
        }
    },
    "effects": [],
    "flags": {},
    "img": "systems/pf2e/icons/features/feats/feats.webp",
    "name": "School Spell Redirection",
    "type": "feat"
}
