{
    "_id": "bki36RiEM5FR4aiT",
    "data": {
        "actionCategory": {
            "value": ""
        },
        "actionType": {
            "value": "passive"
        },
        "actions": {
            "value": null
        },
        "description": {
            "value": "<p>Your nimble and savage animal companions become cunning enough to become specialized. Each companion gains one specialization of your choice (<em>Core Rulebook</em> 217, choose separately).</p>\n<p><strong>Special</strong> You can select this feat more than once. Each time, add a different specialization to your nimble and savage companions. Your nimble and savage companions can have up to three specializations each.</p>"
        },
        "featType": {
            "value": "archetype"
        },
        "level": {
            "value": 14
        },
        "prerequisites": {
            "value": [
                {
                    "value": "Incredible Beastmaster Companion"
                }
            ]
        },
        "rules": [],
        "source": {
            "value": "Pathfinder Advanced Player's Guide"
        },
        "traits": {
            "custom": "",
            "rarity": "common",
            "value": [
                "archetype"
            ]
        }
    },
    "effects": [],
    "flags": {},
    "img": "systems/pf2e/icons/features/feats/feats.webp",
    "name": "Specialized Beastmaster Companion",
    "type": "feat"
}
