{
    "_id": "qg8TlLJRgvjzW9YK",
    "data": {
        "actionCategory": {
            "value": ""
        },
        "actionType": {
            "value": "action"
        },
        "actions": {
            "value": 1
        },
        "description": {
            "value": "<p><strong>Requirements</strong> You are completely unnoticed by the target</p>\n<p>creature.</p>\n<hr />\n<p>You can startle foes who are unaware of your presence. Make a Strike against your target. That creature is @Compendium[pf2e.conditionitems.Flat-Footed]{Flat-Footed} against this Strike, as normal. If your Strike hits, the target remains flat-footed for the rest of your turn and is @Compendium[pf2e.conditionitems.Frightened]{Frightened 1} (frightened 2 on a critical hit).</p>"
        },
        "featType": {
            "value": "archetype"
        },
        "level": {
            "value": 6
        },
        "prerequisites": {
            "value": [
                {
                    "value": "Vigilante Dedication"
                }
            ]
        },
        "rules": [],
        "source": {
            "value": "Pathfinder Advanced Player's Guide"
        },
        "traits": {
            "custom": "",
            "rarity": "common",
            "value": [
                "archetype",
                "emotion",
                "fear",
                "mental",
                "vigilante"
            ]
        }
    },
    "effects": [],
    "flags": {},
    "img": "systems/pf2e/icons/features/feats/feats.webp",
    "name": "Startling Appearance (Vigilante)",
    "type": "feat"
}
