{
    "_id": "Sc9clbAXe97vlzxM",
    "data": {
        "actionCategory": {
            "value": ""
        },
        "actionType": {
            "value": "reaction"
        },
        "actions": {
            "value": null
        },
        "description": {
            "value": "<p><strong>Frequency</strong> once per hour</p>\n<p><strong>Trigger</strong> A foe takes a hostile action against you in combat.</p>\n<hr />\n<p>Sometimes something intrudes upon your case unexpectedly, such as an ambush sent to bring your investigation to a close. You've learned how to compartmentalize your main lead and pursue a new one for your current predicament.</p>\n<p>You @Compendium[pf2e.actionspf2e.Pursue a Lead]{Pursue a Lead} against the triggering foe, setting aside but not ending one of your currently active leads, if you have two leads. At the end of the combat encounter, you stop Pursuing the Lead against the triggering foe and return to the original lead, if you have one.</p>"
        },
        "featType": {
            "value": "class"
        },
        "level": {
            "value": 10
        },
        "prerequisites": {
            "value": []
        },
        "rules": [],
        "source": {
            "value": "Pathfinder Advanced Player's Guide"
        },
        "traits": {
            "custom": "",
            "rarity": "common",
            "value": [
                "investigator"
            ]
        }
    },
    "effects": [],
    "flags": {},
    "img": "systems/pf2e/icons/features/feats/feats.webp",
    "name": "Suspect of Opportunity",
    "type": "feat"
}
