{
    "_id": "z3ycxqT1XvjfQ0Oq",
    "data": {
        "actionCategory": {
            "value": "interaction"
        },
        "actionType": {
            "value": "action"
        },
        "actions": {
            "value": 1
        },
        "description": {
            "value": "<p><strong>Requirements</strong> You are adjacent to a vehicle's point of entry.</p>\n<hr />\n<p>Diving into a moving vehicle and seizing the controls is nothing new for you. You @Compendium[pf2e.actionspf2e.Board]{Board} and @Compendium[pf2e.actionspf2e.Take Control]{Take Control} of the adjacent vehicle.</p>"
        },
        "featType": {
            "value": "archetype"
        },
        "level": {
            "value": 4
        },
        "location": "",
        "prerequisites": {
            "value": [
                {
                    "value": "Trick Driver Dedication"
                },
                {
                    "value": "expert in Driving Lore"
                }
            ]
        },
        "rules": [],
        "source": {
            "value": ""
        },
        "traits": {
            "custom": "",
            "rarity": "common",
            "value": [
                "archetype",
                "flourish"
            ]
        }
    },
    "effects": [],
    "flags": {},
    "img": "systems/pf2e/icons/default-icons/feats.webp",
    "name": "Take the Wheel",
    "type": "feat"
}
