{
    "_id": "AmP0qu7c5dlBSath",
    "data": {
        "actionCategory": {
            "value": ""
        },
        "actionType": {
            "value": "passive"
        },
        "actions": {
            "value": null
        },
        "description": {
            "value": "<p>You can withstand more punishment than most before succumbing. Increase your maximum Hit Points by your level. The DC of recovery checks is equal to 9 + your dying condition value.</p>"
        },
        "featType": {
            "value": "general"
        },
        "level": {
            "value": 1
        },
        "location": "",
        "prerequisites": {
            "value": []
        },
        "rules": [
            {
                "key": "FlatModifier",
                "selector": "hp",
                "value": "@actor.level"
            },
            {
                "key": "RecoveryCheckDC"
            }
        ],
        "source": {
            "value": "Pathfinder Core Rulebook"
        },
        "traits": {
            "custom": "",
            "rarity": "common",
            "value": [
                "general"
            ]
        }
    },
    "effects": [],
    "flags": {},
    "img": "systems/pf2e/icons/features/feats/feats.webp",
    "name": "Toughness",
    "type": "feat"
}
