{
    "_id": "xtRcWpprFBiXeCOB",
    "data": {
        "actionCategory": {
            "value": ""
        },
        "actionType": {
            "value": "passive"
        },
        "actions": {
            "value": null
        },
        "description": {
            "value": "<p>Your spotter's quick signals help you make even difficult shots seem simple. As long as both you and your spotter can see the target of your attacks, you don't take a penalty for attacking within your weapon's second range increment. The penalty you take for firing into further range increments is -3 for the third range increment, with an additional -2 penalty for each additional increment beyond the third (-5 for the fourth range increment, -7 for the fifth, and -9 for the sixth).</p>"
        },
        "featType": {
            "value": "archetype"
        },
        "level": {
            "value": 4
        },
        "location": "",
        "prerequisites": {
            "value": [
                {
                    "value": "Sniping Duo Dedication"
                }
            ]
        },
        "rules": [
            {
                "domain": "all",
                "key": "RollOption",
                "label": "PF2E.SpecificRule.ToggleProperty.Triangulate",
                "option": "triangulate",
                "toggleable": true,
                "value": true
            },
            {
                "domain": "ranged-attack-roll",
                "key": "RollOption",
                "option": "ignore-range-penalty:2",
                "predicate": {
                    "all": [
                        "triangulate"
                    ]
                }
            },
            {
                "key": "AdjustModifier",
                "mode": "add",
                "predicate": {
                    "all": [
                        "triangulate"
                    ]
                },
                "selectors": [
                    "ranged-attack-roll"
                ],
                "slug": "range-penalty",
                "value": 1
            }
        ],
        "source": {
            "value": ""
        },
        "traits": {
            "custom": "",
            "rarity": "common",
            "value": [
                "archetype",
                "auditory",
                "visual"
            ]
        }
    },
    "effects": [],
    "flags": {},
    "img": "systems/pf2e/icons/default-icons/feats.webp",
    "name": "Triangulate",
    "type": "feat"
}
