{
    "_id": "PGyzFBwuTgypU8cD",
    "data": {
        "actionCategory": {
            "value": ""
        },
        "actionType": {
            "value": "passive"
        },
        "actions": {
            "value": null
        },
        "description": {
            "value": "<p>Undead harmed by your positive energy might flee, compelled by an innate aversion to the force opposite undeath. When you use a <em>@Compendium[pf2e.spells-srd.Heal]{Heal}</em> spell to damage undead, each undead of your level or lower that critically fails its save gains the @Compendium[pf2e.conditionitems.Fleeing]{Fleeing} condition for 1 round.</p>"
        },
        "featType": {
            "value": "class"
        },
        "level": {
            "value": 2
        },
        "location": "",
        "prerequisites": {
            "value": []
        },
        "rules": [],
        "source": {
            "value": "Pathfinder Core Rulebook"
        },
        "traits": {
            "custom": "",
            "rarity": "common",
            "value": [
                "cleric"
            ]
        }
    },
    "effects": [],
    "flags": {},
    "img": "systems/pf2e/icons/features/feats/feats.webp",
    "name": "Turn Undead",
    "type": "feat"
}
