{
    "_id": "wAeI18wyWVwfUrIP",
    "data": {
        "actionCategory": {
            "value": ""
        },
        "actionType": {
            "value": "passive"
        },
        "actions": {
            "value": null
        },
        "description": {
            "value": "<p>Most half-orcs have visible tusks, but yours are particularly large and sharp, capable of gouging deep wounds. You gain a jaws unarmed attack that deals [[/r {1d6}[piercing]]]{1d6 piercing damage}.</p>\n<p><strong>Special</strong> You can take this feat only at 1st level, and you can't retrain out of this feat or into this feat.</p>"
        },
        "featType": {
            "value": "ancestry"
        },
        "level": {
            "value": 1
        },
        "location": "",
        "prerequisites": {
            "value": []
        },
        "rules": [
            {
                "category": "unarmed",
                "damage": {
                    "base": {
                        "damageType": "piercing",
                        "dice": 1,
                        "die": "d6"
                    }
                },
                "group": "brawling",
                "key": "Strike",
                "label": "PF2E.Weapon.Base.jaws",
                "range": null,
                "traits": [
                    "unarmed"
                ]
            }
        ],
        "source": {
            "value": "Pathfinder Lost Omens: Character Guide"
        },
        "traits": {
            "custom": "",
            "rarity": "common",
            "value": [
                "half-orc"
            ]
        }
    },
    "effects": [],
    "flags": {},
    "img": "systems/pf2e/icons/features/feats/feats.webp",
    "name": "Tusks (Half-Orc)",
    "type": "feat"
}
