{
    "_id": "hYW6MsPk1UcFROFD",
    "data": {
        "actionCategory": {
            "value": ""
        },
        "actionType": {
            "value": "passive"
        },
        "actions": {
            "value": null
        },
        "description": {
            "value": "<p>You can transform to match your eidolon. When you Manifest your Eidolon, you can call upon its powers to transform yourself into a duplicate until it unmanifests. You can't use this if you Manifest your Eidolon in an unusual way, such as Meld into Eidolon.</p>\n<p>While using Twin Eidolon, you use your eidolon's statistics other than your mental ability modifiers, including its evolutions. You can't cast spells (except spells your eidolon could cast), Activate or otherwise benefit from magic items that normally benefit you and not your eidolon, or use other actions it can't perform.</p>\n<p>Any of its spells you cast with limited uses count against your eidolon's uses. You can Manifest your Eidolon again to end this effect.</p>\n<hr />\n<p><strong>Special</strong> This feat has the trait matching your eidolon's tradition (arcane, divine, occult, or primal).</p>"
        },
        "featType": {
            "value": "class"
        },
        "level": {
            "value": 20
        },
        "location": "",
        "prerequisites": {
            "value": []
        },
        "rules": [],
        "source": {
            "value": ""
        },
        "traits": {
            "custom": "",
            "rarity": "common",
            "value": [
                "polymorph",
                "summoner",
                "transmutation"
            ]
        }
    },
    "effects": [],
    "flags": {},
    "img": "systems/pf2e/icons/features/feats/feats.webp",
    "name": "Twin Eidolon",
    "type": "feat"
}
