{
    "_id": "txgCXcNMDe9kO7N8",
    "data": {
        "actionCategory": {
            "value": ""
        },
        "actionType": {
            "value": "passive"
        },
        "actions": {
            "value": null
        },
        "description": {
            "value": "<p><strong>Frequency</strong> once every 10 minutes</p>\n<hr />\n<p>Whereas most gnomes' coloration is static or changes slowly, you can cause your hair, eye, and skin color to scintillate in brief and disorienting bursts. Once every 10 minutes, when you use the @Compendium[pf2e.actionspf2e.Feint]{Feint} action, you can compare your Deception check result to the Perception DCs of all adjacent creatures rather than just one creature within melee reach. It's possible to get a different degree of success for each target.</p>\n<p>These changes are imprecise and usually short-lived, so while they allow you to periodically change your appearance in unpredictable ways, they are of little use in providing camouflage or aiding a disguise.</p>"
        },
        "featType": {
            "value": "ancestry"
        },
        "level": {
            "value": 1
        },
        "prerequisites": {
            "value": [
                {
                    "value": "chameleon gnome heritage"
                }
            ]
        },
        "rules": [],
        "source": {
            "value": "Pathfinder Lost Omens: Character Guide"
        },
        "traits": {
            "custom": "",
            "rarity": "common",
            "value": [
                "gnome"
            ]
        }
    },
    "effects": [],
    "flags": {},
    "img": "systems/pf2e/icons/features/feats/feats.webp",
    "name": "Vibrant Display",
    "type": "feat"
}
