{
    "_id": "BRGdj5leyVFRHEUM",
    "data": {
        "actionCategory": {
            "value": ""
        },
        "actionType": {
            "value": "passive"
        },
        "actions": {
            "value": null
        },
        "description": {
            "value": "<p>Your feathers are coated in a waxy substance that repels water. You gain a +1 circumstance bonus to saving throws against effects that have the water trait. So long as you're in a dry place, you can spend one action to shake off any water that clings to your clothing and feathers to instantly become dry.</p>"
        },
        "featType": {
            "value": "ancestry"
        },
        "level": {
            "value": 1
        },
        "location": "",
        "prerequisites": {
            "value": [
                {
                    "value": "wavediver tengu heritage"
                }
            ]
        },
        "rules": [],
        "source": {
            "value": "Pathfinder Lost Omens: Ancestry Guide"
        },
        "traits": {
            "custom": "",
            "rarity": "common",
            "value": [
                "tengu"
            ]
        }
    },
    "effects": [],
    "flags": {},
    "img": "systems/pf2e/icons/features/feats/feats.webp",
    "name": "Waxed Feathers",
    "type": "feat"
}
