{
    "_id": "OaUt41v2OrQkHpM4",
    "data": {
        "actionCategory": {
            "value": ""
        },
        "actionType": {
            "value": "passive"
        },
        "actions": {
            "value": null
        },
        "description": {
            "value": "<p><strong>Major Curse</strong> You become honest to a fault. You constantly suffer the critical failure effect of <em>@Compendium[pf2e.spells-srd.Zone of Truth]{Zone of Truth}</em>. Additionally, you are always offered the worst possible option in a bargain.</p>"
        },
        "featType": {
            "value": "curse"
        },
        "level": {
            "value": 0
        },
        "prerequisites": {
            "value": []
        },
        "rules": [],
        "source": {
            "value": ""
        },
        "traits": {
            "custom": "",
            "rarity": "common",
            "value": []
        }
    },
    "effects": [],
    "flags": {},
    "img": "systems/pf2e/icons/deity/Abadar.webp",
    "name": "Abadar - Major Curse",
    "type": "feat"
}
