{
    "_id": "1nALC8yWtjBDEaOC",
    "data": {
        "actionCategory": {
            "value": ""
        },
        "actionType": {
            "value": "passive"
        },
        "actions": {
            "value": null
        },
        "description": {
            "value": "<p><strong>Minor Curse</strong> Whenever you are imprisoned, you thrash and shake as your mind fills with desperation.</p>\n<p>Any time you are restrained or otherwise imprisoned (such as being sent to jail), you are also @Compendium[pf2e.conditionitems.Clumsy]{Clumsy 2} and @Compendium[pf2e.conditionitems.Stupefied]{Stupefied 2}.</p>"
        },
        "featType": {
            "value": "curse"
        },
        "level": {
            "value": 0
        },
        "prerequisites": {
            "value": []
        },
        "rules": [],
        "source": {
            "value": ""
        },
        "traits": {
            "custom": "",
            "rarity": "common",
            "value": []
        }
    },
    "effects": [],
    "flags": {},
    "img": "systems/pf2e/icons/deity/Rovagug.webp",
    "name": "Rovagug - Minor Curse",
    "type": "feat"
}
