{
    "_id": "Uj9VFXoVMH0mTTdt",
    "data": {
        "description": {
            "value": "<p>You see the target as though it's dissected and arrayed before you. For the duration, you gain a +2 circumstance bonus on Medicine checks against the target that depend on its organs, but a -2 circumstance penalty on Medicine checks depending on seeing its skin.</p>\n<p>When you Cast the Spell, attempt a special Recall Knowledge check using Medicine to spot and discern a vital organ. If you have a Lore skill appropriate to the creature, you can use that skill instead of Medicine. If you succeed, the next time you deal piercing or slashing damage to the target with a Strike or spell, you deal 4d6 additional precision damage. Once on each of your subsequent turns, you can use a single action to attempt the special Recall Knowledge check again. The extra damage isn't cumulative, so making the check more than once before a Strike or spell has no extra benefit.</p>\n<hr />\n<p><strong>Heightened (+1)</strong> The precision damage increases by [[/r 1d6]]{1d6}.</p>"
        },
        "duration": {
            "expiry": "turn-start",
            "sustained": false,
            "unit": "minutes",
            "value": 1
        },
        "level": {
            "value": 3
        },
        "rules": [
            {
                "key": "FlatModifier",
                "label": "Organsight (Organs)",
                "predicate": {
                    "all": [
                        "organ-dependent"
                    ]
                },
                "selector": "medicine",
                "slug": "organsight-med-bonus",
                "type": "circumstance",
                "value": 2
            },
            {
                "key": "FlatModifier",
                "label": "Organsight (Skin)",
                "predicate": {
                    "all": [
                        "skin-dependent"
                    ]
                },
                "selector": "medicine",
                "slug": "organsight-med-penalty",
                "type": "circumstance",
                "value": -2
            },
            {
                "dieSize": "d6",
                "key": "DamageDice",
                "label": "Organsight",
                "predicate": {
                    "all": [
                        "organsightMedCheck"
                    ]
                },
                "selector": "strike-damage",
                "value": {
                    "brackets": [
                        {
                            "end": 3,
                            "start": 3,
                            "value": {
                                "diceNumber": 4
                            }
                        },
                        {
                            "end": 4,
                            "start": 4,
                            "value": {
                                "diceNumber": 5
                            }
                        },
                        {
                            "end": 5,
                            "start": 5,
                            "value": {
                                "diceNumber": 6
                            }
                        },
                        {
                            "end": 6,
                            "start": 6,
                            "value": {
                                "diceNumber": 7
                            }
                        },
                        {
                            "end": 7,
                            "start": 7,
                            "value": {
                                "diceNumber": 8
                            }
                        },
                        {
                            "end": 8,
                            "start": 8,
                            "value": {
                                "diceNumber": 9
                            }
                        },
                        {
                            "end": 9,
                            "start": 9,
                            "value": {
                                "diceNumber": 10
                            }
                        },
                        {
                            "start": 10,
                            "value": {
                                "diceNumber": 11
                            }
                        }
                    ],
                    "field": "item|data.level.value"
                }
            },
            {
                "domain": "damage-roll",
                "key": "RollOption",
                "label": "Successful Medicine Check (Organsight)",
                "option": "organsightMedCheck",
                "toggleable": true
            }
        ],
        "source": {
            "value": ""
        },
        "start": {
            "initiative": null,
            "value": 0
        },
        "target": null,
        "tokenIcon": {
            "show": true
        },
        "traits": {
            "custom": "",
            "rarity": "common",
            "value": []
        }
    },
    "effects": [],
    "flags": {},
    "img": "systems/pf2e/icons/spells/organsight.webp",
    "name": "Spell Effect: Organsight",
    "type": "effect"
}
