{
    "_id": "byXkHIKFwuKrZ55M",
    "data": {
        "description": {
            "value": "<p>Granted by casting <em>@Compendium[pf2e.spells-srd.Shifting Form]{Shifting Form}</em> and choosing to gain scent 60 feet (imprecise).</p>"
        },
        "duration": {
            "expiry": "turn-start",
            "sustained": false,
            "unit": "minutes",
            "value": 1
        },
        "level": {
            "value": 4
        },
        "rules": [
            {
                "acuity": "imprecise",
                "key": "Sense",
                "label": "PF2E.SensesScent",
                "range": 60,
                "selector": "scent"
            }
        ],
        "source": {
            "value": "Pathfinder Core Rulebook"
        },
        "start": {
            "initiative": null,
            "value": 0
        },
        "target": null,
        "tokenIcon": {
            "show": true
        },
        "traits": {
            "custom": "",
            "rarity": "common",
            "value": []
        }
    },
    "effects": [],
    "flags": {},
    "img": "systems/pf2e/icons/spells/shifting-form.webp",
    "name": "Spell Effect: Shifting Form (Scent)",
    "type": "effect"
}
