{
    "_id": "bbOdbGiRXGEQ2aY0",
    "data": {
        "description": {
            "value": "<p>Granted by <em>@Compendium[pf2e.spells-srd.Ki Form]{Ki Form}</em></p>\n<p>Drawing from deep wells of spiritual power, you take on a special ki form. In your ki form, your hair, feathers, skin, or scales change color and begin to glow.</p>\n<p>In this form you gain a Fly Speed equal to your land Speed.</p>\n<p>All your Strikes deal [[/r {1d6}[positive]]]{1d6 additional positive damage}.</p>\n<p>Your entire body is also surrounded by a glowing corona of the same color as your inner ki; this is a light effect. Your corona is a 5-foot emanation that deals [[/r {2d6}[positive]]]{2d6 positive damage} to creatures who start their turn within the emanation. If the emanation overlaps with a darkness effect, the corona's glow attempts to counteract the darkness effect. Regardless of the outcome, the corona can't attempt to counteract that effect again for 1 day. As a single action, which has the concentrate trait, you can flare your corona out to become a 30-foot emanation.</p>\n<p>In your ki form, your emotions surge to the forefront and it's difficult to moderate your attacks. Your weapons and unarmed attacks lose the nonlethal trait. You take a -2 status penalty to saves against emotion effects but gain a +2 status bonus to saves against all other mental effects.</p>"
        },
        "duration": {
            "expiry": "turn-start",
            "sustained": false,
            "unit": "minutes",
            "value": 1
        },
        "level": {
            "value": 9
        },
        "rules": [
            {
                "key": "BaseSpeed",
                "selector": "fly",
                "value": "@actor.attributes.speed.value"
            },
            {
                "damageType": "positive",
                "diceNumber": 1,
                "dieSize": "d6",
                "key": "DamageDice",
                "label": "Ki Form",
                "selector": "strike-damage"
            },
            {
                "key": "FlatModifier",
                "predicate": {
                    "all": [
                        "emotion"
                    ]
                },
                "selector": "saving-throw",
                "type": "status",
                "value": -2
            },
            {
                "key": "FlatModifier",
                "predicate": {
                    "all": [
                        "mental"
                    ],
                    "not": [
                        "emotion"
                    ]
                },
                "selector": "saving-throw",
                "type": "status",
                "value": -2
            }
        ],
        "source": {
            "value": ""
        },
        "start": {
            "initiative": null,
            "value": 0
        },
        "target": null,
        "tokenIcon": {
            "show": true
        },
        "traits": {
            "custom": "",
            "rarity": "common",
            "value": []
        }
    },
    "effects": [],
    "flags": {},
    "img": "systems/pf2e/icons/spells/ki-form.webp",
    "name": "Spell Effect: Ki Form (Positive)",
    "type": "effect"
}
