{
    "_id": "GDzn5DToE62ZOTrP",
    "data": {
        "description": {
            "value": "<p>Granted by <em>@Compendium[pf2e.spells-srd.Divine Vessel]{Divine Vessel}</em></p>\n<p>You accept otherworldly energies into your body; while you are still recognizably yourself, you gain the features of one of your deity's servitors. Choose an alignment your deity has (chaotic, evil, good, or lawful). You can't cast this spell if you don't have a deity or your deity is true neutral. This spell gains the trait of the alignment you chose.</p>\n<p>If you were Medium or smaller, you become Large, as the effects of <em>@Compendium[pf2e.spells-srd.Enlarge]{Enlarge}</em>. You must have space to expand into, or the spell is lost. You also gain the following benefits.</p>\n<ul>\n<li>40 temporary Hit Points.</li>\n<li>A fly Speed equal to your Speed.</li>\n<li>Weakness 10 to lawful.</li>\n<li>A +1 status bonus to saves against spells.</li>\n<li>Darkvision.</li>\n<li>Your unarmed attacks and weapons deal 1 additional chaotic damage.</li>\n<li>You gain a bite unarmed attack that deals 2d10 piercing damage.</li>\n</ul>"
        },
        "duration": {
            "expiry": "turn-start",
            "sustained": false,
            "unit": "minutes",
            "value": 1
        },
        "level": {
            "value": 7
        },
        "rules": [
            {
                "category": "unarmed",
                "damage": {
                    "base": {
                        "damageType": "piercing",
                        "dice": 2,
                        "die": "d10"
                    }
                },
                "key": "Strike",
                "label": "Bite",
                "range": null,
                "traits": [
                    "unarmed"
                ]
            },
            {
                "key": "TempHP",
                "value": 40
            },
            {
                "key": "FlatModifier",
                "label": "Divine Vessel",
                "predicate": {
                    "all": [
                        "spell"
                    ]
                },
                "selector": "saving-throw",
                "type": "status",
                "value": 1
            },
            {
                "key": "Sense",
                "label": "PF2E.SensesDarkvision",
                "selector": "darkvision"
            },
            {
                "damageType": "chaotic",
                "key": "FlatModifier",
                "label": "Divine Vessel",
                "selector": "strike-damage",
                "value": 1
            },
            {
                "key": "BaseSpeed",
                "selector": "fly",
                "value": "@actor.attributes.speed.value"
            },
            {
                "key": "Weakness",
                "type": "lawful",
                "value": 10
            }
        ],
        "source": {
            "value": "Pathfinder Core Rulebook"
        },
        "start": {
            "initiative": null,
            "value": 0
        },
        "target": null,
        "tokenIcon": {
            "show": true
        },
        "traits": {
            "custom": "",
            "rarity": "common",
            "value": []
        }
    },
    "effects": [],
    "flags": {},
    "img": "systems/pf2e/icons/spells/divine-vessel.webp",
    "name": "Spell Effect: Divine Vessel (Chaotic)",
    "type": "effect"
}
