{
    "_id": "1UIJ4oknQ7btkUCb",
    "data": {
        "attributes": {
            "ac": {
                "value": 22
            },
            "hardness": 10,
            "hasHealth": true,
            "hp": {
                "details": "",
                "max": 40,
                "temp": 0,
                "tempmax": 0,
                "value": 40
            },
            "stealth": {
                "details": "<p>(expert)</p>",
                "value": 12
            }
        },
        "creatureType": "",
        "details": {
            "description": "<p>A trapdoor in the floor conceals a hidden chute, and a moving section of wall shoves victims into it.</p>",
            "disable": "<p>DC 23 Thievery (expert) to jam the trapdoor shut or activate a hidden bypass switch by twisting a fitting on the gas lamp</p>",
            "isComplex": false,
            "level": {
                "value": 3
            },
            "reset": "",
            "routine": ""
        },
        "saves": {
            "fortitude": {
                "saveDetail": "",
                "value": 14
            },
            "reflex": {
                "saveDetail": "",
                "value": 8
            },
            "will": {
                "saveDetail": "",
                "value": 0
            }
        },
        "source": {
            "value": "Pathfinder #157: Devil at the Dreaming Palace"
        },
        "statusEffects": [],
        "traits": {
            "ci": [],
            "di": {
                "custom": "",
                "selected": {},
                "value": [
                    "precision",
                    "critical-hits",
                    "object-immunities"
                ]
            },
            "dr": [],
            "dv": [],
            "rarity": "common",
            "size": {
                "value": "med"
            },
            "traits": {
                "custom": "",
                "value": [
                    "mechanical",
                    "trap"
                ]
            }
        }
    },
    "effects": [],
    "flags": {},
    "img": "systems/pf2e/icons/default-icons/hazard.svg",
    "items": [
        {
            "_id": "nXrzkclnA7IMvnFu",
            "data": {
                "actionCategory": {
                    "value": ""
                },
                "actionType": {
                    "value": "reaction"
                },
                "actions": {
                    "value": null
                },
                "description": {
                    "value": "<p data-visibility=\"gm\"><strong>Trigger</strong> A creature walks onto the trapdoor</p>\n<p><strong>Effect</strong> Anyone within 10 feet of the room's northern wall falls 40 feet down the shaft to area <strong>E33</strong>, taking [[/r {20}[bludgeoning]]]{20 bludgeoning damage} and landing prone in the ochre jelly's pit.</p>\n<p>The victims can @Compendium[pf2e.actionspf2e.Grab an Edge]{Grab an Edge} to avoid falling.</p>\n<p>The DC to Grab an Edge is 20; the DC to @Compendium[pf2e.actionspf2e.Climb]{Climb} the walls is 22.</p>"
                },
                "requirements": {
                    "value": ""
                },
                "rules": [],
                "slug": null,
                "source": {
                    "value": ""
                },
                "traits": {
                    "custom": "",
                    "rarity": "common",
                    "value": []
                },
                "trigger": {
                    "value": ""
                },
                "weapon": {
                    "value": ""
                }
            },
            "effects": [],
            "flags": {},
            "img": "systems/pf2e/icons/actions/Reaction.webp",
            "name": "Pitfall and Plunger",
            "sort": 100000,
            "type": "action"
        }
    ],
    "name": "Plunger Chute",
    "token": {
        "disposition": 0,
        "height": 1,
        "img": "systems/pf2e/icons/default-icons/hazard.svg",
        "name": "Plunger Chute",
        "width": 1
    },
    "type": "hazard"
}
