{
    "_id": "6v4Rj7wWfOH1882r",
    "data": {
        "actionCategory": {
            "value": ""
        },
        "actionType": {
            "value": "passive"
        },
        "actions": {
            "value": null
        },
        "description": {
            "value": "<p>You have trained to unleash a devastating flurry of attacks upon your prey.</p>\n<p>Your multiple attack penalty for attacks against your hunted prey is -3 (-2 with an agile weapon) on your second attack of the turn instead of -5, and -6 (-4 with an agile weapon) on your third or subsequent attack of the turn, instead of -10.</p>"
        },
        "featType": {
            "value": "classfeature"
        },
        "level": {
            "value": 1
        },
        "location": "",
        "prerequisites": {
            "value": []
        },
        "rules": [
            {
                "key": "MultipleAttackPenalty",
                "predicate": {
                    "all": [
                        "agile",
                        "hunted-prey"
                    ]
                },
                "selector": "attack",
                "value": -2
            },
            {
                "key": "MultipleAttackPenalty",
                "predicate": {
                    "all": [
                        "hunted-prey"
                    ],
                    "not": [
                        "agile"
                    ]
                },
                "selector": "attack",
                "value": -3
            }
        ],
        "source": {
            "value": "Pathfinder Core Rulebook"
        },
        "traits": {
            "custom": "",
            "rarity": "common",
            "value": [
                "ranger"
            ]
        }
    },
    "effects": [],
    "flags": {},
    "img": "systems/pf2e/icons/features/classes/flurry.webp",
    "name": "Flurry",
    "type": "feat"
}
