{
    "_id": "L5D0NwFXdLiVSnk5",
    "data": {
        "actionCategory": {
            "value": ""
        },
        "actionType": {
            "value": "passive"
        },
        "actions": {
            "value": null
        },
        "description": {
            "value": "<p>Your ability to elude danger is matchless. Your proficiency rank for Reflex saves increases to legendary. When you roll a critical failure on a Reflex save, you get a failure instead. When you roll a failure on a Reflex save against a damaging effect, you take half damage.</p>"
        },
        "featType": {
            "value": "classfeature"
        },
        "level": {
            "value": 13
        },
        "location": "",
        "prerequisites": {
            "value": []
        },
        "rules": [
            {
                "key": "Note",
                "selector": "reflex",
                "text": "<p class='compact-text'><strong>{item|name}</strong> When you roll a critical failure on a Reflex save, you get a failure instead. When you fail a Reflex save against a damaging effect, you take half damage.</p>"
            },
            {
                "adjustment": {
                    "criticalFailure": "one-degree-better"
                },
                "key": "AdjustDegreeOfSuccess",
                "selector": "reflex",
                "type": "save"
            },
            {
                "key": "ActiveEffectLike",
                "mode": "upgrade",
                "path": "data.saves.reflex.rank",
                "value": 4
            }
        ],
        "source": {
            "value": ""
        },
        "traits": {
            "custom": "",
            "rarity": "common",
            "value": []
        }
    },
    "effects": [],
    "flags": {},
    "img": "systems/pf2e/icons/features/classes/improved-evasion.webp",
    "name": "Improved Evasion",
    "type": "feat"
}
