{
    "_id": "JiY2ZB4FkK8RJm4T",
    "data": {
        "actionCategory": {
            "value": ""
        },
        "actionType": {
            "value": "passive"
        },
        "actions": {
            "value": null
        },
        "description": {
            "value": "<p>All champions of evil alignment follow these tenets.</p>\n<ul>\n<li>You must never perform acts anathema to your deity or willingly commit a purely good act, such as giving something solely out of charity, casting a good spell, or using a good item.</li>\n<li>You must never put another person's needs before your own, and you must never put your own needs before those of your deity. Though you can perform acts others might consider helpful, it must be done with the expectation that it ultimately furthers your own goals or those of your master.</li>\n</ul>"
        },
        "featType": {
            "value": "classfeature"
        },
        "level": {
            "value": 1
        },
        "location": "",
        "prerequisites": {
            "value": []
        },
        "rules": [],
        "source": {
            "value": "Pathfinder Advanced Player's Guide"
        },
        "traits": {
            "custom": "",
            "rarity": "uncommon",
            "value": [
                "champion"
            ]
        }
    },
    "effects": [],
    "flags": {},
    "img": "systems/pf2e/icons/features/classes/the-tenants-of-evil.webp",
    "name": "The Tenets of Evil",
    "type": "feat"
}
