{
    "_id": "q1Y12Pg2gQg2FJPR",
    "data": {
        "actionCategory": {
            "value": ""
        },
        "actionType": {
            "value": "passive"
        },
        "actions": {
            "value": null
        },
        "description": {
            "value": "<p>You and your eidolon fight off physical hardship together with your shared life force. Your proficiency rank for Fortitude saves and your eidolon's proficiency rank for Fortitude saves increase to master. When you roll a success on a Fortitude save, you get a critical success instead. When your eidolon rolls a success on a Fortitude save, it gets a critical success instead.</p>"
        },
        "featType": {
            "value": "classfeature"
        },
        "level": {
            "value": 11
        },
        "location": "",
        "prerequisites": {
            "value": []
        },
        "rules": [
            {
                "key": "Note",
                "selector": "fortitude",
                "text": "<p class='compact-text'><strong>{item|name}</strong> When you roll a success on a Fortitude save, you get a critical success instead.</p>"
            },
            {
                "adjustment": {
                    "success": "one-degree-better"
                },
                "key": "AdjustDegreeOfSuccess",
                "selector": "fortitude",
                "type": "save"
            },
            {
                "key": "ActiveEffectLike",
                "mode": "upgrade",
                "path": "data.saves.fortitude.rank",
                "value": 3
            }
        ],
        "source": {
            "value": ""
        },
        "traits": {
            "custom": "",
            "rarity": "common",
            "value": [
                "summoner"
            ]
        }
    },
    "effects": [],
    "flags": {},
    "img": "systems/pf2e/icons/features/classes/juggerenaut.webp",
    "name": "Twin Juggernauts",
    "type": "feat"
}
