{
    "_id": "RX62MAyEUtuHMNBm",
    "data": {
        "actionCategory": {
            "value": "interaction"
        },
        "actionType": {
            "value": "passive"
        },
        "actions": {
            "value": null
        },
        "description": {
            "value": "<p>A PC spends a day and attempts a DC 30 Skill check to pursue their investigation into the guild.</p>\n<hr />\n<p><strong>Critical Success</strong> The PCs' investigation results in compelling evidence that Brigven is the culprit behind the shoddy weapons, and reveals the location of his shop to the PCs. This evidence forces Brigven to give up as soon as the PCs confront him in his shop without forcing them to talk him into a confession.</p>\n<p><strong>Success</strong> The investigation implies that Brigven is behind the shoddy weapons, and reveals the location of his shop to the PCs.</p>\n<p><strong>Failure</strong> The investigation yields no results, but does not alert Brigven of the threat.</p>\n<p><strong>Critical Failure</strong> The investigation yields no results, and Brigven learns that the PCs are on to him. He abandons his shop and flees to the Hidden Forge to seek shelter with the other Droskar cultists. In this case, the PCs can encounter Brigven in area D2-you can represent him with the statistics for Thea in that encounter.</p>"
        },
        "requirements": {
            "value": ""
        },
        "rules": [],
        "source": {
            "value": "Pathfinder #148: Fires of the Haunted City"
        },
        "traits": {
            "custom": "",
            "rarity": "common",
            "value": [
                "concentrate",
                "exploration",
                "secret"
            ]
        },
        "trigger": {
            "value": ""
        }
    },
    "effects": [],
    "flags": {},
    "img": "systems/pf2e/icons/actions/Passive.webp",
    "name": "Guild Investigation",
    "type": "action"
}
