{
    "_id": "FLz8SEF0Y4UEavvD",
    "data": {
        "actionCategory": {
            "value": "interaction"
        },
        "actionType": {
            "value": "passive"
        },
        "actions": {
            "value": null
        },
        "description": {
            "value": "<p>When the hunt begins, the Ekujae elves and the PCs work together to bring down the game.</p>\n<ul>\n<li>Against an impressive find, each PC actively participating (and not just Aiding) attempts a: @Check[type:survival|dc:25] check</li>\n<li>Against standard game, @Check[type:survival|dc:20] check</li>\n<li>No check is needed to hunt river turtles or bats—hunting such game is automatically successful (but can never be a critical success).</li>\n</ul>\n<hr />\n<p><strong>Critical Success</strong> You help take down the animals quickly and relatively painlessly, showing them mercy.</p>\n<p><strong>Success</strong> Your participation in the hunt helps the hunting party take down the animals quickly.</p>\n<p><strong>Failure</strong> Your involvement complicates the hunt-one or two animals even escape uninjured. Each PC takes [[/r {2d6}]]{2d6 damage} from animal attacks (or [[/r {4d6}]]{4d6 damage} if the animals were an impressive find).</p>\n<p><strong>Critical Failure</strong> Several of the animals die poorly, and many escape with mortal wounds. Barely enough animals are caught for the feast, but the fact that they died in pain or escaped with injuries shames the Ekujae-the party loses 2 IP. Each PC takes [[/r {2d6+6}]]{2d6+6 damage} damage from animal attacks (or [[/r {4d6+12}]]{4d6+12 damage} if the animals were an impressive find).</p>"
        },
        "requirements": {
            "value": ""
        },
        "rules": [],
        "source": {
            "value": "Pathfinder #146: Cult of Cinders"
        },
        "traits": {
            "custom": "",
            "rarity": "common",
            "value": [
                "exploration"
            ]
        },
        "trigger": {
            "value": ""
        }
    },
    "effects": [],
    "flags": {},
    "img": "systems/pf2e/icons/actions/Passive.webp",
    "name": "Hunt the Animals",
    "type": "action"
}
