{
    "_id": "236E6kEEayy8h2CF",
    "data": {
        "actionCategory": {
            "value": "interaction"
        },
        "actionType": {
            "value": "passive"
        },
        "actions": {
            "value": null
        },
        "description": {
            "value": "<p>With the target game animals located, you must move to an advantageous position without startling the prey. Attempt a Stealth check.</p>\n<ul>\n<li>Against an impressive and dangerous find: @Check[type:stealth|dc:25]</li>\n<li>Against standard game: @Check[type:stealth|dc:20]</li>\n<li>Against river turtles, bats, and lesser game: @Check[type:stealth|dc:15]</li>\n</ul>\n<hr />\n<p><strong>Critical Success</strong> The animals have no indication that they are in danger, and you gain a +2 circumstance bonus to rolls made during the hunting phase.</p>\n<p><strong>Success</strong> You position yourself well and take no penalty when Hunting.</p>\n<p><strong>Failure</strong> Your loud and clumsy movements alert the animals to your presence, and you take a -2 circumstance penalty to rolls made during the hunting phase.</p>\n<p><strong>Critical Failure</strong> You stumble loudly and startle the majority of the animals, which escape and leave the party with very few animals to catch. The party loses 2 IP.</p>"
        },
        "requirements": {
            "value": ""
        },
        "rules": [],
        "source": {
            "value": "Pathfinder #146: Cult of Cinders"
        },
        "traits": {
            "custom": "",
            "rarity": "common",
            "value": [
                "exploration"
            ]
        },
        "trigger": {
            "value": ""
        }
    },
    "effects": [],
    "flags": {},
    "img": "systems/pf2e/icons/actions/Passive.webp",
    "name": "Position the Hunters",
    "type": "action"
}
