{
    "_id": "XTDd73QzhETeXY3g",
    "data": {
        "actionCategory": {
            "value": "interaction"
        },
        "actionType": {
            "value": "passive"
        },
        "actions": {
            "value": null
        },
        "description": {
            "value": "<p><strong>Overcome</strong> @Check[type:crafting|dc:35], @Check[type:deception|dc:33], @Check[type:performance|dc:35], @Check[type:society|dc:37]</p>\n<hr />\n<p>The PC tries to find disguises of a certain type (guards, for example, or socialites).</p>\n<hr />\n<p><strong>Success</strong> The PC finds or creates useful disguises that grant 1 Edge Point that the PCs can use for maintaining a cover identity.</p>\n<p><strong>Failure</strong> The PC finds no disguises.</p>"
        },
        "requirements": {
            "value": ""
        },
        "rules": [],
        "source": {
            "value": "Pathfinder #149: Against the Scarlet Triad"
        },
        "traits": {
            "custom": "",
            "rarity": "common",
            "value": [
                "downtime"
            ]
        },
        "trigger": {
            "value": ""
        }
    },
    "effects": [],
    "flags": {},
    "img": "systems/pf2e/icons/actions/Passive.webp",
    "name": "Secure Disguises",
    "type": "action"
}
