{
    "_id": "m842SrbNueOnkFZk",
    "data": {
        "abilities": {
            "cha": {
                "mod": 6
            },
            "con": {
                "mod": 4
            },
            "dex": {
                "mod": 5
            },
            "int": {
                "mod": 1
            },
            "str": {
                "mod": 6
            },
            "wis": {
                "mod": 4
            }
        },
        "attributes": {
            "ac": {
                "details": "",
                "value": 38
            },
            "allSaves": {
                "value": ""
            },
            "hp": {
                "details": "negative healing",
                "max": 230,
                "temp": 0,
                "value": 230
            },
            "initiative": {
                "ability": "perception"
            },
            "perception": {
                "value": 25
            },
            "speed": {
                "otherSpeeds": [
                    {
                        "type": "climb",
                        "value": "25"
                    }
                ],
                "value": "50"
            }
        },
        "details": {
            "alignment": {
                "value": "CE"
            },
            "blurb": "Male variant mohrg",
            "creatureType": "",
            "level": {
                "value": 15
            },
            "privateNotes": "",
            "publicNotes": "<p>The weight of murder wears heavy on the soul. With souls marked by a lifetime of dealing death, these killers, whether mass murderers, bloodthirsty soldiers, or sadistic executioners, sometimes do not let judgment and lawful execution stanch their slaying sprees. When such individuals are brought to justice, they may rise after death as mohrgs to continue their ruinous work.</p>\n<p>Drawn to others of their kind, mohrgs prefer to hunt in small groups, occasionally in partnership with weaker free-willed undead such as shadows and wights. They seek out weak prey and revel in causing drawn-out suffering. Some mohrgs haunt locations they favored in life, reenacting old crimes on new victims. They may even skulk about in public, wearing rags, cloaks, or freshly harvested skins to hide their nature. The most dangerous mohrgs are those who grow powerful enough to no longer fear being struck down again and openly assault settlements in an attempt to turn living towns into mass graves.</p>\n<p>Since those slain by a mohrg rise soon thereafter as mohrg spawn, the murders of a mohrg rarely go unnoticed for long, even when they take extra care to prey only on a society's dregs. Since mohrg spawn remain under a mohrg's control, a canny mohrg might order its spawn to remain in hiding to keep its presence secret until a point where it feels confident unleashing its undead army upon a doomed settlement.</p>\n<p>Mohrgs retain a twisted sentimentality for the crimes of their mortal life, seeking out trinkets that remind them of favorite murders. When not out hunting, mohrgs arrange their mementos into disturbing shrines. Often, these trinkets are valuable objects, and might even provide important clues to ongoing mysteries.</p>",
            "source": {
                "value": "Pathfinder #173: Doorway to the Red Star"
            }
        },
        "resources": {},
        "saves": {
            "fortitude": {
                "saveDetail": "",
                "value": 22
            },
            "reflex": {
                "saveDetail": "",
                "value": 22
            },
            "will": {
                "saveDetail": "",
                "value": 19
            }
        },
        "traits": {
            "attitude": {
                "value": "hostile"
            },
            "ci": [],
            "di": {
                "custom": "",
                "value": [
                    "death-effects",
                    "disease",
                    "paralyzed",
                    "poison"
                ]
            },
            "dr": [
                {
                    "exceptions": "",
                    "type": "piercing",
                    "value": 15
                },
                {
                    "exceptions": "",
                    "type": "slashing",
                    "value": 10
                }
            ],
            "dv": [],
            "languages": {
                "custom": "",
                "selected": [],
                "value": [
                    "common",
                    "necril"
                ]
            },
            "rarity": "unique",
            "senses": {
                "value": "darkvision"
            },
            "size": {
                "value": "med"
            },
            "traits": {
                "custom": "",
                "value": [
                    "undead"
                ]
            }
        }
    },
    "effects": [],
    "flags": {},
    "img": "systems/pf2e/icons/default-icons/npc.svg",
    "items": [
        {
            "_id": "AC6bEX8vPlS93zdE",
            "data": {
                "MAP": {
                    "value": ""
                },
                "baseItem": null,
                "bonus": {
                    "value": 0
                },
                "bonusDamage": {
                    "value": 0
                },
                "brokenThreshold": {
                    "value": 0
                },
                "category": "simple",
                "containerId": "null",
                "damage": {
                    "damageType": "slashing",
                    "dice": 1,
                    "die": "d6",
                    "value": ""
                },
                "description": {
                    "value": "<p>The blade of this <em>+2 greater striking adamantine longsword</em> seems to absorb light from the air around it, giving the impression the wielder is standing in the shadow of a much larger creature.</p>\n<p>While <em>Spellcutter</em> is a potent weapon for battling undead and constructs, an ancient restriction on the blade prevents it from harming living creatures; attacks against living beings deal no damage. This restriction doesn't apply to dhampirs or creatures with the @Compendium[pf2e.bestiary-ability-glossary-srd.Negative Healing]{Negative Healing} ability who are otherwise living; the magic of the blade can't distinguish between such beings and undead.</p>\n<hr />\n<p><strong>Activate</strong> <span class=\"pf2-icon\">R</span> envision</p>\n<p><strong>Trigger</strong> You're targeted by a spell while wielding <em>Spellcutter</em></p>\n<p><strong>Effect</strong> <em>Spellcutter</em> attempts to absorb the magic of the triggering spell, giving you a +4 status bonus to your AC and saves against the effect.</p>\n<hr />\n<p><strong>Activate</strong> <span class=\"pf2-icon\">1</span> Interact</p>\n<p><strong>Effect</strong> Touching <em>Spellcutter</em> to any light source of 12th level or lower (including 6th-level spells with the light trait) instantly extinguishes the effect. If the source of the light is a large flame, such as a forest fire or bonfire, it only extinguishes the light source in a 5-foot radius burst from the point of contact.</p>"
                },
                "equipped": {
                    "carryType": "held",
                    "handsHeld": 1,
                    "invested": null
                },
                "equippedBulk": {
                    "value": ""
                },
                "group": null,
                "hardness": 0,
                "hp": {
                    "brokenThreshold": 0,
                    "max": 0,
                    "value": 0
                },
                "identification": {
                    "misidentified": {},
                    "status": "identified",
                    "unidentified": {
                        "data": {
                            "description": {
                                "value": ""
                            }
                        },
                        "img": "",
                        "name": ""
                    }
                },
                "level": {
                    "value": 17
                },
                "negateBulk": {
                    "value": "0"
                },
                "potencyRune": {
                    "value": 0
                },
                "preciousMaterial": {
                    "value": null
                },
                "preciousMaterialGrade": {
                    "value": null
                },
                "price": {
                    "value": "15000 gp"
                },
                "property1": {
                    "critDamage": "",
                    "critDamageType": "",
                    "critDice": 0,
                    "critDie": "",
                    "criticalConditionType": "",
                    "criticalConditionValue": null,
                    "damageType": "",
                    "dice": 0,
                    "die": "",
                    "strikeConditionType": "",
                    "strikeConditionValue": null,
                    "value": ""
                },
                "propertyRune1": {
                    "value": null
                },
                "propertyRune2": {
                    "value": null
                },
                "propertyRune3": {
                    "value": null
                },
                "propertyRune4": {
                    "value": null
                },
                "quantity": 1,
                "range": null,
                "reload": {
                    "value": ""
                },
                "rules": [
                    {
                        "domain": "all",
                        "key": "RollOption",
                        "label": "Targeted by a Spell",
                        "option": "spellcutter",
                        "toggleable": true
                    },
                    {
                        "key": "FlatModifier",
                        "predicate": {
                            "all": [
                                "spellcutter"
                            ]
                        },
                        "selector": "ac",
                        "type": "status",
                        "value": 4
                    },
                    {
                        "key": "FlatModifier",
                        "predicate": {
                            "all": [
                                "spellcutter"
                            ]
                        },
                        "selector": "saving-throw",
                        "type": "status",
                        "value": 4
                    }
                ],
                "size": "med",
                "slug": "spellcutter",
                "source": {
                    "value": "Pathfinder #173: Doorway to the Red Star"
                },
                "specific": {
                    "value": false
                },
                "splashDamage": {
                    "value": 0
                },
                "stackGroup": null,
                "strikingRune": {
                    "value": ""
                },
                "traits": {
                    "custom": "",
                    "rarity": "unique",
                    "value": []
                },
                "usage": {
                    "value": "held-in-one-hand"
                },
                "weight": {
                    "value": "1"
                }
            },
            "effects": [],
            "flags": {
                "core": {
                    "sourceId": "Compendium.pf2e.equipment-srd.LKIs3LJqrKNP2yrx"
                }
            },
            "img": "systems/pf2e/icons/default-icons/weapon.svg",
            "name": "Spellcutter",
            "sort": 100000,
            "type": "weapon"
        },
        {
            "_id": "NshCFgqhon7NfWbq",
            "data": {
                "attack": {
                    "value": ""
                },
                "attackEffects": {
                    "value": [
                        "grab"
                    ]
                },
                "bonus": {
                    "value": 29
                },
                "damageRolls": {
                    "0": {
                        "damage": "3d12+14",
                        "damageType": "slashing"
                    }
                },
                "description": {
                    "value": ""
                },
                "rules": [],
                "slug": null,
                "source": {
                    "value": ""
                },
                "traits": {
                    "custom": "",
                    "rarity": "common",
                    "value": []
                },
                "weaponType": {
                    "value": "melee"
                }
            },
            "effects": [],
            "flags": {},
            "img": "systems/pf2e/icons/default-icons/melee.svg",
            "name": "Claw",
            "sort": 200000,
            "type": "melee"
        },
        {
            "_id": "LUKxBKPHrzVKWWNz",
            "data": {
                "attack": {
                    "value": ""
                },
                "attackEffects": {
                    "custom": "",
                    "value": [
                        "paralysis"
                    ]
                },
                "bonus": {
                    "value": 29
                },
                "damageRolls": {},
                "description": {
                    "value": ""
                },
                "rules": [],
                "slug": null,
                "source": {
                    "value": ""
                },
                "traits": {
                    "custom": "",
                    "rarity": "common",
                    "value": [
                        "agile",
                        "reach-10"
                    ]
                },
                "weaponType": {
                    "value": "melee"
                }
            },
            "effects": [],
            "flags": {},
            "img": "systems/pf2e/icons/default-icons/melee.svg",
            "name": "Tongue",
            "sort": 300000,
            "type": "melee"
        },
        {
            "_id": "IjbpVgjCTWGxRnef",
            "data": {
                "attack": {
                    "value": ""
                },
                "attackEffects": {
                    "value": []
                },
                "bonus": {
                    "value": 31
                },
                "damageRolls": {
                    "a2dg005g0j0r2lft0bqv": {
                        "damage": "3d8+14",
                        "damageType": "slashing"
                    }
                },
                "description": {
                    "value": "<p><em>@Compendium[pf2e.equipment-srd.Spellcutter]{Spellcutter}</em> cannot damage living creatures</p>"
                },
                "rules": [],
                "slug": null,
                "source": {
                    "value": ""
                },
                "traits": {
                    "custom": "",
                    "rarity": "common",
                    "value": [
                        "magical",
                        "versatile-p"
                    ]
                },
                "weaponType": {
                    "value": "melee"
                }
            },
            "effects": [],
            "flags": {},
            "img": "systems/pf2e/icons/default-icons/melee.svg",
            "name": "Spellcutter",
            "sort": 400000,
            "type": "melee"
        },
        {
            "_id": "tDKcsjBYJk7PLY70",
            "data": {
                "actionCategory": {
                    "value": "interaction"
                },
                "actionType": {
                    "value": "passive"
                },
                "actions": {
                    "value": null
                },
                "description": {
                    "value": "<p>@Localize[PF2E.NPC.Abilities.Glossary.Darkvision]</p>"
                },
                "requirements": {
                    "value": ""
                },
                "rules": [],
                "slug": "darkvision",
                "source": {
                    "value": ""
                },
                "traits": {
                    "custom": "",
                    "rarity": "common",
                    "value": []
                },
                "trigger": {
                    "value": ""
                },
                "weapon": {
                    "value": ""
                }
            },
            "effects": [],
            "flags": {
                "core": {
                    "sourceId": "Compendium.pf2e.bestiary-ability-glossary-srd.qCCLZhnp2HhP3Ex6"
                }
            },
            "img": "systems/pf2e/icons/actions/Passive.webp",
            "name": "Darkvision",
            "sort": 500000,
            "type": "action"
        },
        {
            "_id": "3bLAue15BUJHr6aM",
            "data": {
                "actionCategory": {
                    "value": "defensive"
                },
                "actionType": {
                    "value": "passive"
                },
                "actions": {
                    "value": null
                },
                "description": {
                    "value": "<p>@Localize[PF2E.NPC.Abilities.Glossary.NegativeHealing]</p>"
                },
                "requirements": {
                    "value": ""
                },
                "rules": [
                    {
                        "key": "ActiveEffectLike",
                        "mode": "override",
                        "path": "data.attributes.hp.negativeHealing",
                        "value": true
                    }
                ],
                "slug": "negative-healing",
                "source": {
                    "value": ""
                },
                "traits": {
                    "custom": "",
                    "rarity": "common",
                    "value": []
                },
                "trigger": {
                    "value": ""
                },
                "weapon": {
                    "value": ""
                }
            },
            "effects": [],
            "flags": {
                "core": {
                    "sourceId": "Compendium.pf2e.bestiary-ability-glossary-srd.TTCw5NusiSSkJU1x"
                }
            },
            "img": "systems/pf2e/icons/actions/Passive.webp",
            "name": "Negative Healing",
            "sort": 600000,
            "type": "action"
        },
        {
            "_id": "BMgWntdwcCCXldMW",
            "data": {
                "actionCategory": {
                    "value": "defensive"
                },
                "actionType": {
                    "value": "reaction"
                },
                "actions": {
                    "value": null
                },
                "description": {
                    "value": "<p>@Localize[PF2E.NPC.Abilities.Glossary.AttackOfOpportunity]</p>"
                },
                "requirements": {
                    "value": ""
                },
                "rules": [],
                "slug": "attack-of-opportunity",
                "source": {
                    "value": ""
                },
                "traits": {
                    "custom": "",
                    "rarity": "common",
                    "value": []
                },
                "trigger": {
                    "value": ""
                },
                "weapon": {
                    "value": ""
                }
            },
            "effects": [],
            "flags": {
                "core": {
                    "sourceId": "Compendium.pf2e.bestiary-ability-glossary-srd.hFtNbo1LKYCoDy2O"
                }
            },
            "img": "systems/pf2e/icons/actions/Reaction.webp",
            "name": "Attack of Opportunity",
            "sort": 700000,
            "type": "action"
        },
        {
            "_id": "JxUugYE35wuDrL4P",
            "data": {
                "actionCategory": {
                    "value": "defensive"
                },
                "actionType": {
                    "value": "passive"
                },
                "actions": {
                    "value": null
                },
                "description": {
                    "value": "<p>A living creature slain by a mohrg that had a lower level than the mohrg rises as a mohrg spawn after [[/br 1d4 #rounds]]{1d4 rounds}, on its turn. This mohrg spawn is under the command of the mohrg that created it.</p>\n<p>If the creator of the mohrg spawn is destroyed, the mohrg spawn is destroyed as well, immediately collapsing into a pile of decayed flesh and bones.</p>"
                },
                "requirements": {
                    "value": ""
                },
                "rules": [],
                "slug": null,
                "source": {
                    "value": ""
                },
                "traits": {
                    "custom": "",
                    "rarity": "common",
                    "value": [
                        "occult",
                        "necromancy"
                    ]
                },
                "trigger": {
                    "value": ""
                },
                "weapon": {
                    "value": ""
                }
            },
            "effects": [],
            "flags": {},
            "img": "systems/pf2e/icons/actions/Passive.webp",
            "name": "Mohrg Spawn",
            "sort": 800000,
            "type": "action"
        },
        {
            "_id": "lpA0GL54p2HVAWCw",
            "data": {
                "actionCategory": {
                    "value": "offensive"
                },
                "actionType": {
                    "value": "passive"
                },
                "actions": {
                    "value": null
                },
                "description": {
                    "value": "<p>Taon gains an extra reaction each round that can be used only to make an Attack of Opportunity.</p>"
                },
                "requirements": {
                    "value": ""
                },
                "rules": [],
                "slug": null,
                "source": {
                    "value": ""
                },
                "traits": {
                    "custom": "",
                    "rarity": "common",
                    "value": []
                },
                "trigger": {
                    "value": ""
                }
            },
            "effects": [],
            "flags": {},
            "img": "systems/pf2e/icons/actions/Passive.webp",
            "name": "Cruel Reactions",
            "sort": 900000,
            "type": "action"
        },
        {
            "_id": "zJ48k7LkzzGzYZXF",
            "data": {
                "actionCategory": {
                    "value": "offensive"
                },
                "actionType": {
                    "value": "passive"
                },
                "actions": {
                    "value": null
                },
                "description": {
                    "value": "<p>A living creature hit by a mohrg's tongue Strike must succeed at a @Check[type:fortitude|dc:30] save or become @Compendium[pf2e.conditionitems.Paralyzed]{Paralyzed}. The creature can attempt a new save at the end of each of its turns, and the DC cumulatively decreases by 1 on each attempt.</p>"
                },
                "requirements": {
                    "value": ""
                },
                "rules": [],
                "slug": null,
                "source": {
                    "value": ""
                },
                "traits": {
                    "custom": "",
                    "rarity": "common",
                    "value": [
                        "occult",
                        "incapacitation",
                        "necromancy"
                    ]
                },
                "trigger": {
                    "value": ""
                },
                "weapon": {
                    "value": ""
                }
            },
            "effects": [],
            "flags": {},
            "img": "systems/pf2e/icons/actions/Passive.webp",
            "name": "Paralysis",
            "sort": 1000000,
            "type": "action"
        },
        {
            "_id": "LcIOslV3cTWNeAuV",
            "data": {
                "actionCategory": {
                    "value": "offensive"
                },
                "actionType": {
                    "value": "action"
                },
                "actions": {
                    "value": 1
                },
                "description": {
                    "value": "<p>@Localize[PF2E.NPC.Abilities.Glossary.Grab]</p>"
                },
                "requirements": {
                    "value": ""
                },
                "rules": [],
                "slug": "grab",
                "source": {
                    "value": ""
                },
                "traits": {
                    "custom": "",
                    "rarity": "common",
                    "value": []
                },
                "trigger": {
                    "value": ""
                },
                "weapon": {
                    "value": ""
                }
            },
            "effects": [],
            "flags": {
                "core": {
                    "sourceId": "Compendium.pf2e.bestiary-ability-glossary-srd.Tkd8sH4pwFIPzqTr"
                }
            },
            "img": "systems/pf2e/icons/actions/OneAction.webp",
            "name": "Grab",
            "sort": 1100000,
            "type": "action"
        },
        {
            "_id": "TJX2IhSoL0wAayF8",
            "data": {
                "description": {
                    "value": ""
                },
                "mod": {
                    "value": 26
                },
                "proficient": {
                    "value": 0
                },
                "rules": [],
                "slug": null,
                "source": {
                    "value": ""
                },
                "traits": {
                    "custom": "",
                    "rarity": "common",
                    "value": []
                }
            },
            "effects": [],
            "flags": {},
            "img": "systems/pf2e/icons/default-icons/lore.svg",
            "name": "Acrobatics",
            "sort": 1200000,
            "type": "lore"
        },
        {
            "_id": "2rCpz2wxBCdpA77B",
            "data": {
                "description": {
                    "value": ""
                },
                "mod": {
                    "value": 29
                },
                "proficient": {
                    "value": 0
                },
                "rules": [],
                "slug": null,
                "source": {
                    "value": ""
                },
                "traits": {
                    "custom": "",
                    "rarity": "common",
                    "value": []
                }
            },
            "effects": [],
            "flags": {},
            "img": "systems/pf2e/icons/default-icons/lore.svg",
            "name": "Athletics",
            "sort": 1300000,
            "type": "lore"
        },
        {
            "_id": "E9xsKxeos9X4P7Bw",
            "data": {
                "description": {
                    "value": ""
                },
                "mod": {
                    "value": 29
                },
                "proficient": {
                    "value": 0
                },
                "rules": [],
                "slug": null,
                "source": {
                    "value": ""
                },
                "traits": {
                    "custom": "",
                    "rarity": "common",
                    "value": []
                }
            },
            "effects": [],
            "flags": {},
            "img": "systems/pf2e/icons/default-icons/lore.svg",
            "name": "Intimidation",
            "sort": 1400000,
            "type": "lore"
        },
        {
            "_id": "KpgpzvbKgHJdJqZD",
            "data": {
                "description": {
                    "value": ""
                },
                "mod": {
                    "value": 22
                },
                "proficient": {
                    "value": 0
                },
                "rules": [],
                "slug": null,
                "source": {
                    "value": ""
                },
                "traits": {
                    "custom": "",
                    "rarity": "common",
                    "value": []
                }
            },
            "effects": [],
            "flags": {},
            "img": "systems/pf2e/icons/default-icons/lore.svg",
            "name": "Society",
            "sort": 1500000,
            "type": "lore"
        },
        {
            "_id": "rmXO4Tk66Rcr4GOp",
            "data": {
                "description": {
                    "value": ""
                },
                "mod": {
                    "value": 28
                },
                "proficient": {
                    "value": 0
                },
                "rules": [],
                "slug": null,
                "source": {
                    "value": ""
                },
                "traits": {
                    "custom": "",
                    "rarity": "common",
                    "value": []
                }
            },
            "effects": [],
            "flags": {},
            "img": "systems/pf2e/icons/default-icons/lore.svg",
            "name": "Stealth",
            "sort": 1600000,
            "type": "lore"
        }
    ],
    "name": "Taon",
    "token": {
        "disposition": -1,
        "height": 1,
        "img": "systems/pf2e/icons/default-icons/npc.svg",
        "name": "Taon",
        "width": 1
    },
    "type": "npc"
}
