{
    "_id": "GRX2p4ddGnoqihYC",
    "data": {
        "description": {
            "value": "<p>The flames surrounding you are no longer simply visions.</p>\n<p>You are @Compendium[pf2e.conditionitems.Concealed]{Concealed} from other creatures, though as the other creatures aren't cursed themselves, they can benefit from effects that would allow them to ignore or mitigate the concealed condition, as normal. All other creatures and objects are concealed from you regardless of distance; however, when casting a fire spell, you automatically succeed at the flat check for this concealed condition for targets within 30 feet.</p>\n<p>All your senses become imprecise beyond 30 feet, meaning everything past 30 feet that you'd normally be able to see is @Compendium[pf2e.conditionitems.Hidden]{Hidden} from you.</p>\n<p>An aura of fire surrounds you in a @Template[type:emanation|distance:10], dealing [[/r {4d6}[fire]]] fire damage (basic Reflex save) to all other creatures in the aura at the end of each of your turns. You lose [[/r {1d6}[healing]]] Hit Points at the end of your turn each round, with no save; if you have a weakness to fire, increase the number of HP you lose by that weakness.</p>\n<p>You can suppress your aura until the start of your next turn by spending a single action, which has the concentrate trait, to diminish the flames, causing neither you nor anyone in the aura to take damage. While Refocusing to reduce your curse, you are continually diminishing the flames, so you don't lose HP. The flames subside if you fall @Compendium[pf2e.conditionitems.Unconscious]{Unconscious}, but they resume when you wake up unless you rested for long enough to reset your curse. As usual for oracular curses, you can't mitigate or reduce the lost Hit Points in any way, though you can still heal the lost HP normally after the fact.</p>\n<hr />\n<p><em>Note: You need to apply the effects of this curse manually.</em></p>"
        },
        "duration": {
            "expiry": "turn-start",
            "sustained": false,
            "unit": "unlimited",
            "value": -1
        },
        "level": {
            "value": 1
        },
        "rules": [],
        "source": {
            "value": ""
        },
        "start": {
            "initiative": null,
            "value": 0
        },
        "target": null,
        "tokenIcon": {
            "show": true
        },
        "traits": {
            "custom": "",
            "rarity": "common",
            "value": []
        }
    },
    "effects": [],
    "flags": {},
    "img": "systems/pf2e/icons/features/classes/flames-mystery.webp",
    "name": "Effect: Major Flames Curse",
    "type": "effect"
}
