{
    "_id": "zYKkObDPVRQOtwPh",
    "data": {
        "description": {
            "value": "<p>You take a -4 penalty to initiative, as trying to process a surge of information about what's happening around you slows your ability to respond to it.</p>\n<hr />\n<p><em>Note: The effects of this curse are applied automatically.</em></p>"
        },
        "duration": {
            "expiry": "turn-start",
            "sustained": false,
            "unit": "unlimited",
            "value": -1
        },
        "level": {
            "value": 1
        },
        "rules": [
            {
                "key": "FlatModifier",
                "selector": "initiative",
                "value": -4
            }
        ],
        "source": {
            "value": ""
        },
        "start": {
            "initiative": null,
            "value": 0
        },
        "target": null,
        "tokenIcon": {
            "show": true
        },
        "traits": {
            "custom": "",
            "rarity": "common",
            "value": []
        }
    },
    "effects": [],
    "flags": {},
    "img": "systems/pf2e/icons/features/classes/lore-mystery.webp",
    "name": "Effect: Minor Lore Curse",
    "type": "effect"
}
