{
    "_id": "dFejDNEmVj3CwYLL",
    "data": {
        "ability": {
            "value": ""
        },
        "area": {
            "areaType": "",
            "value": ""
        },
        "areasize": {
            "value": ""
        },
        "category": {
            "value": "focus"
        },
        "components": {
            "focus": false,
            "material": false,
            "somatic": true,
            "verbal": false
        },
        "cost": {
            "value": ""
        },
        "damage": {
            "value": {}
        },
        "description": {
            "value": "<p>You consolidate warding energies with a gesture, guarding a creature against attacks from a certain type of foe.</p>\n<p>Designate one of the following creature traits: aberration, animal, beast, celestial, construct, dragon, elemental, fey, fiend, fungus, monitor, ooze, plant, or undead.</p>\n<p>The target gains a +1 status bonus to its saving throws and AC against creatures with that trait. The target is temporarily immune for 10 minutes.</p>\n<hr />\n<p><strong>Heightened (5th)</strong> The status bonus increases to +2.</p>\n<p>@Compendium[pf2e.spell-effects.Spell Effect: Blood Ward]{Spell Effect: Blood Ward}</p>"
        },
        "duration": {
            "value": "sustained up to 1 minute"
        },
        "hasCounteractCheck": {
            "value": false
        },
        "level": {
            "value": 1
        },
        "location": {
            "value": ""
        },
        "materials": {
            "value": ""
        },
        "prepared": {
            "value": ""
        },
        "primarycheck": {
            "value": ""
        },
        "range": {
            "value": "30 feet"
        },
        "rules": [],
        "save": {
            "basic": "",
            "value": ""
        },
        "school": {
            "value": "abjuration"
        },
        "secondarycasters": {
            "value": ""
        },
        "secondarycheck": {
            "value": ""
        },
        "source": {
            "value": "Pathfinder Advanced Player's Guide"
        },
        "spellType": {
            "value": "utility"
        },
        "sustained": {
            "value": false
        },
        "target": {
            "value": "1 creature"
        },
        "time": {
            "value": "1"
        },
        "traditions": {
            "value": []
        },
        "traits": {
            "custom": "",
            "rarity": "uncommon",
            "value": [
                "hex",
                "witch"
            ]
        }
    },
    "effects": [],
    "flags": {},
    "img": "systems/pf2e/icons/spells/blood-ward.webp",
    "name": "Blood Ward",
    "type": "spell"
}
