{
    "_id": "S708JF3E0kuhuRzG",
    "data": {
        "ability": {
            "value": ""
        },
        "area": {
            "areaType": "cone",
            "value": "15"
        },
        "category": {
            "value": "spell"
        },
        "components": {
            "focus": false,
            "material": false,
            "somatic": true,
            "verbal": true
        },
        "cost": {
            "value": ""
        },
        "damage": {
            "value": {
                "rsq3d4jyo9ftxzvs": {
                    "applyMod": false,
                    "type": {
                        "categories": [],
                        "subtype": "",
                        "value": "piercing"
                    },
                    "value": "2d10"
                }
            }
        },
        "description": {
            "value": "<p>You fire a torrent of jagged bone shards from your hands, dealing 2d10 piercing damage and [[/r {1}[persistent,bleed]]] @Compendium[pf2e.conditionitems.Persistent Damage]{Persistent Bleed Damage} to all creatures in the area.</p>\n<hr />\n<p><strong>Heightened (+1)</strong> The piercing damage increases by 1d10 and the persistent bleed damage increases by 1 ([[/r (@spell.level-1)[persistent,bleed]]] @Compendium[pf2e.conditionitems.Persistent Damage]).</p>"
        },
        "duration": {
            "value": ""
        },
        "hasCounteractCheck": {
            "value": false
        },
        "level": {
            "value": 2
        },
        "location": {
            "value": ""
        },
        "materials": {
            "value": ""
        },
        "range": {
            "value": ""
        },
        "rules": [],
        "save": {
            "basic": "basic",
            "value": "reflex"
        },
        "scaling": {
            "damage": {
                "rsq3d4jyo9ftxzvs": "1d10"
            },
            "interval": 1
        },
        "school": {
            "value": "necromancy"
        },
        "source": {
            "value": "Pathfinder #176: Lost Mammoth Valley"
        },
        "spellType": {
            "value": "save"
        },
        "sustained": {
            "value": false
        },
        "target": {
            "value": ""
        },
        "time": {
            "value": "2"
        },
        "traditions": {
            "custom": "",
            "value": [
                "arcane",
                "divine",
                "primal"
            ]
        },
        "traits": {
            "custom": "",
            "rarity": "uncommon",
            "value": []
        }
    },
    "effects": [],
    "flags": {},
    "img": "systems/pf2e/icons/default-icons/spell.svg",
    "name": "Bone Spray",
    "type": "spell"
}
