{
    "_id": "it4wx2mDIJDlZGqS",
    "data": {
        "ability": {
            "value": ""
        },
        "area": {
            "areaType": "burst",
            "value": "60"
        },
        "category": {
            "value": "spell"
        },
        "components": {
            "focus": false,
            "material": false,
            "somatic": true,
            "verbal": true
        },
        "cost": {
            "value": ""
        },
        "damage": {
            "value": {
                "0": {
                    "applyMod": false,
                    "type": {
                        "categories": [],
                        "subtype": "",
                        "value": "negative"
                    },
                    "value": "10d6"
                }
            }
        },
        "description": {
            "value": "<p>You call forth a divine cataclysm from your deity, destroying living and undead creatures in the area alike. Creatures in the area take 10d6 Negative Damage and [[/r 10d6]] alignment damage (good, evil, lawful, or chaotic), chosen from among the alignments your deity has. If your deity is true neutral, increase the negative damage by [[/r {4d6}[negative]]]{4d6 Negative Damage} instead of dealing alignment damage. A creature harmed by positive damage, such as one with negative healing, takes positive damage instead of negative damage from this spell.</p>\n<p>You can't cast this spell if you don't have a deity. This spell gains the trait corresponding to the alignment damage dealt.</p>\n<hr />\n<p><strong>Heightened (+1)</strong> The damage increases by 1d6 negative damage, [[/r 1d6]] alignment damage, and 1d6 additional negative and positive damage for a true neutral deity.</p>"
        },
        "duration": {
            "value": ""
        },
        "hasCounteractCheck": {
            "value": false
        },
        "level": {
            "value": 8
        },
        "location": {
            "value": ""
        },
        "materials": {
            "value": ""
        },
        "prepared": {
            "value": ""
        },
        "range": {
            "value": "120 feet"
        },
        "rules": [],
        "save": {
            "basic": "basic",
            "value": "fortitude"
        },
        "scaling": {
            "damage": {
                "0": "1d6"
            },
            "interval": 1
        },
        "school": {
            "value": "necromancy"
        },
        "source": {
            "value": "Pathfinder Secrets of Magic"
        },
        "spellType": {
            "value": "save"
        },
        "sustained": {
            "value": false
        },
        "target": {
            "value": ""
        },
        "time": {
            "value": "2"
        },
        "traditions": {
            "custom": "",
            "value": [
                "divine"
            ]
        },
        "traits": {
            "custom": "",
            "rarity": "common",
            "value": [
                "negative",
                "positive"
            ]
        }
    },
    "effects": [],
    "flags": {},
    "img": "systems/pf2e/icons/spells/divine-armageddon.webp",
    "name": "Divine Armageddon",
    "type": "spell"
}
