{
    "_id": "dNpIc5k1aCI3bHIg",
    "data": {
        "ability": {
            "value": ""
        },
        "area": {
            "areaType": "",
            "value": ""
        },
        "category": {
            "value": "ritual"
        },
        "components": {
            "focus": false,
            "material": false,
            "somatic": false,
            "verbal": false
        },
        "cost": {
            "value": "amber and rare incense worth 750 gp"
        },
        "damage": {
            "value": {}
        },
        "description": {
            "value": "<p>You infest the area with tenacious, biting insects that disease and drain life from creatures in the area. Arthropods (insects, spiders, and similar invertebrates) are unaffected and instead gain a +1 status bonus to attack rolls, skill checks, saving throws, and Perception checks while within the area. All other creatures are harassed by insects and exposed to the disease witch's hunger when they enter the area and once per day thereafter that they remain in the area. As part of casting this ritual, you create a Tiny ritual insect hive (Hardness 5, 10 HP) that must remain in the ritual's area. If the hive is removed or destroyed, the ritual's effect ends 1 hour later.</p>\n<hr />\n<p><strong>Witch's Hunger</strong> (disease)</p>\n<p><strong>Saving Throw</strong> Fortitude</p>\n<p><strong>Onset</strong> [[/r 1d6 #hours]]{1d6 hours}</p>\n<p><strong>Stage 1</strong> @Compendium[pf2e.conditionitems.Enfeebled]{Enfeebled 1} (1 day)</p>\n<p><strong>Stage 2</strong> @Compendium[pf2e.conditionitems.Enfeebled]{Enfeebled 2} (1 day)</p>\n<p><strong>Stage 3</strong> enfeebled 2 and @Compendium[pf2e.conditionitems.Slowed]{Slowed 1} (1 day)</p>\n<p><strong>Stage 4</strong> @Compendium[pf2e.conditionitems.Unconscious]{Unconscious}</p>\n<p><strong>Stage 5</strong> death</p>\n<hr />\n<p><strong>Critical Success</strong> As success, and the disease is especially deadly, with Stage 3 instead causing unconsciousness and Stage 4 instead causing death.</p>\n<p><strong>Success</strong> You create the ritual hive and cast the ritual.</p>\n<p><strong>Failure</strong> You fail to cast the ritual.</p>\n<p><strong>Critical Failure</strong> You fail to cast the ritual and instead cause ravenous insects to torment you, immediately exposing you to the witch's hunger disease.</p>"
        },
        "duration": {
            "value": "5 days"
        },
        "hasCounteractCheck": {
            "value": false
        },
        "level": {
            "value": 5
        },
        "location": {
            "value": ""
        },
        "materials": {
            "value": ""
        },
        "primarycheck": {
            "value": "Nature (expert; you must be the Mosquito Witch)"
        },
        "range": {
            "value": "1-mile-radius circle centered on you"
        },
        "rules": [],
        "save": {
            "basic": "",
            "value": "fortitude"
        },
        "school": {
            "value": "conjuration"
        },
        "secondarycasters": {
            "value": ""
        },
        "secondarycheck": {
            "value": ""
        },
        "source": {
            "value": "Pathfinder Lost Omens: Monsters of Myth"
        },
        "spellType": {
            "value": "save"
        },
        "sustained": {
            "value": false
        },
        "target": {
            "value": ""
        },
        "time": {
            "value": "1 day"
        },
        "traditions": {
            "value": []
        },
        "traits": {
            "custom": "Necromancy",
            "rarity": "rare",
            "value": [
                "disease"
            ]
        }
    },
    "effects": [],
    "flags": {},
    "img": "systems/pf2e/icons/spells/swarming-wasp-stings.webp",
    "name": "Mosquito Blight",
    "type": "spell"
}
