{
    "_id": "eCniO6INHNfc9Svr",
    "data": {
        "ability": {
            "value": ""
        },
        "area": {
            "areaType": "emanation",
            "value": 15
        },
        "areasize": {
            "value": "15-foot emanation, centered on you"
        },
        "category": {
            "value": "focus"
        },
        "components": {
            "material": false,
            "somatic": true,
            "verbal": true
        },
        "cost": {
            "value": ""
        },
        "damage": {
            "value": {}
        },
        "description": {
            "value": "<p>Sadness flows out of you into nearby creatures, blotting out any other thoughts they had. The first time a creature begins its turn in the area or enters the area, it must attempt a Will save. If it later leaves and reenters the area, it uses the same effect as before.</p>\n<hr />\n<p><strong>Critical Success</strong> The creature is unaffected.</p>\n<p><strong>Success</strong> The creature takes a -1 status penalty to skill checks and Perception checks as long as it remains in the area.</p>\n<p><strong>Failure</strong> While the creature is in the area, any emotion effects of lower counteract level than <em>overflowing sorrow</em> are suppressed, and whenever the creature attempts to use an emotion action or cast an emotion spell, it must succeed at a DC 11 flat check or the action or spell is disrupted.</p>\n<p><strong>Critical Failure</strong> As failure, but the creature cannot use emotion actions or spells.</p>\n<hr />\n<p><strong>Heightened (+2)</strong> When you Cast the Spell, you can choose to increase the area by 5 feet.</p>"
        },
        "duration": {
            "value": "sustained up to 1 minute"
        },
        "hasCounteractCheck": {
            "value": false
        },
        "level": {
            "value": 4
        },
        "location": {
            "value": ""
        },
        "materials": {
            "value": ""
        },
        "prepared": {
            "value": ""
        },
        "primarycheck": {
            "value": ""
        },
        "range": {
            "value": ""
        },
        "rules": [],
        "save": {
            "basic": "",
            "value": "will"
        },
        "school": {
            "value": "enchantment"
        },
        "secondarycasters": {
            "value": ""
        },
        "secondarycheck": {
            "value": ""
        },
        "source": {
            "value": "Pathfinder Lost Omens: Gods & Magic"
        },
        "spellType": {
            "value": "save"
        },
        "sustained": {
            "value": false
        },
        "target": {
            "value": ""
        },
        "time": {
            "value": "2"
        },
        "traditions": {
            "custom": "",
            "value": []
        },
        "traits": {
            "custom": "",
            "rarity": "common",
            "value": [
                "cleric",
                "emotion",
                "incapacitation",
                "mental"
            ]
        }
    },
    "effects": [],
    "flags": {},
    "img": "systems/pf2e/icons/spells/overflowing-sorrow.webp",
    "name": "Overflowing Sorrow",
    "type": "spell"
}
