{
    "_id": "nuE9qsY2HfPFEgAo",
    "data": {
        "ability": {
            "value": ""
        },
        "area": {
            "areaType": "",
            "value": ""
        },
        "category": {
            "value": "ritual"
        },
        "components": {
            "focus": false,
            "material": false,
            "somatic": false,
            "verbal": false
        },
        "cost": {
            "value": "ceramics, incense, and pigments worth 100,000 gp"
        },
        "damage": {
            "value": {}
        },
        "description": {
            "value": "<p>You scribe occult symbols on unblighted Vudran ground, laying the ceramics within them to create a ritual space. To perform the ritual, light incense in the ceramics and sit at the center of the ritual space. You then play the disharmonic instrument, drawing on musical skill, occult harmonics, or religious tradition. This establishes an underlying drone atop which the secondary casters layer their own performances. The song calls to the millions who died defending Vudra from Kothogaz, investing their power in Vanitapati, the legendary psychic.</p>\n<hr />\n<p><strong>Critical Success</strong> A towering, ethereal avatar of Vanitapati manifests around you, surrounded by swirling spirits. The avatar weakens Kothogaz's spirit. While Kothogaz is within 1 mile of you, it is @Compendium[pf2e.conditionitems.Frightened]{Frightened 2} and is permanently destroyed if reduced to 0 Hit Points.</p>\n<p><strong>Success</strong> As critical success, but Kothogaz is @Compendium[pf2e.conditionitems.Frightened]{Frightened 1}.</p>\n<p><strong>Failure</strong> The dead come to your aid, but their presence is unnerving. As success, but Kothogaz isn't frightened, and the primary and secondary casters take a -1 status penalty to saving throws against emotion effects.</p>\n<p><strong>Critical Failure</strong> Rather than the dead, Kothogaz hears the ritual's call and immediately teleports to the primary caster with its Disharmonic Door ability. Primary and secondary casters are afflicted with many-eyed blight.</p>"
        },
        "duration": {
            "value": "7 hours"
        },
        "hasCounteractCheck": {
            "value": false
        },
        "level": {
            "value": 10
        },
        "location": {
            "value": ""
        },
        "materials": {
            "value": ""
        },
        "primarycheck": {
            "value": "Occultism or Religion (legendary)"
        },
        "range": {
            "value": ""
        },
        "rules": [],
        "save": {
            "basic": "",
            "value": ""
        },
        "school": {
            "value": "necromancy"
        },
        "secondarycasters": {
            "value": "3"
        },
        "secondarycheck": {
            "value": "Diplomacy or Performance; Nature; Religion or Society"
        },
        "source": {
            "value": "Pathfinder Lost Omens: Monsters of Myth"
        },
        "spellType": {
            "value": "utility"
        },
        "sustained": {
            "value": false
        },
        "target": {
            "value": "the primary caster"
        },
        "time": {
            "value": "1 hour"
        },
        "traditions": {
            "value": []
        },
        "traits": {
            "custom": "",
            "rarity": "unique",
            "value": []
        }
    },
    "effects": [],
    "flags": {},
    "img": "systems/pf2e/icons/default-icons/spell.svg",
    "name": "Raga of Remembrance",
    "type": "spell"
}
