{
    "_id": "lXxP1ziyf4ozkpmv",
    "data": {
        "ability": {
            "value": ""
        },
        "area": {
            "areaType": "",
            "value": ""
        },
        "category": {
            "value": "focus"
        },
        "components": {
            "material": false,
            "somatic": true,
            "verbal": false
        },
        "cost": {
            "value": ""
        },
        "damage": {
            "value": {
                "0": {
                    "type": {
                        "categories": [],
                        "value": "slashing"
                    },
                    "value": "1d8"
                }
            }
        },
        "description": {
            "value": "<p>The deceiving creature's tongue splits like a serpent's tongue. The creature takes 1d8 slashing damage and must attempt a Fortitude save.</p>\n<hr />\n<p><strong>Critical Success</strong> The creature is unaffected.</p>\n<p><strong>Success</strong> The creature takes half damage.</p>\n<p><strong>Failure</strong> The creature takes full damage and is @Compendium[pf2e.conditionitems.Stupefied]{Stupefied 1} for [[/r 1d4]]{1d4 rounds}.</p>\n<p><strong>Critical Failure</strong> As failure, but the creature takes double damage and is @Compendium[pf2e.conditionitems.Stupefied]{Stupefied 2} for [[/r 1d4]]{1d4 rounds}.</p>\n<hr />\n<p><strong>Heightened (+1)</strong> The damage increases by 1d8.</p>"
        },
        "duration": {
            "value": ""
        },
        "hasCounteractCheck": {
            "value": false
        },
        "level": {
            "value": 1
        },
        "location": {
            "value": ""
        },
        "materials": {
            "value": ""
        },
        "prepared": {
            "value": ""
        },
        "range": {
            "value": "30 feet"
        },
        "rules": [],
        "save": {
            "basic": "basic",
            "value": "fortitude"
        },
        "scaling": {
            "damage": {
                "0": "1d8"
            },
            "interval": 1
        },
        "school": {
            "value": "transmutation"
        },
        "source": {
            "value": "Pathfinder #161: Belly of the Black Whale"
        },
        "spellType": {
            "value": "save"
        },
        "sustained": {
            "value": false
        },
        "target": {
            "value": "A creature within 30 feet fails a Deception or Diplomacy check."
        },
        "time": {
            "value": "reaction"
        },
        "traditions": {
            "custom": "",
            "value": []
        },
        "traits": {
            "custom": "",
            "rarity": "uncommon",
            "value": []
        }
    },
    "effects": [],
    "flags": {},
    "img": "systems/pf2e/icons/spells/split-the-tongue.webp",
    "name": "Split the Tongue",
    "type": "spell"
}
