{
    "_id": "cOwSsSXRsBaXUvlr",
    "data": {
        "ability": {
            "value": ""
        },
        "area": {
            "areaType": "",
            "value": ""
        },
        "areasize": {
            "value": ""
        },
        "category": {
            "value": "focus"
        },
        "components": {
            "material": false,
            "somatic": true,
            "verbal": true
        },
        "cost": {
            "value": ""
        },
        "damage": {
            "value": {}
        },
        "description": {
            "value": "<p>The flow of time congeals around an object or creature, holding it in place. The target must attempt a Will save (an unattended object automatically critically fails its save).</p>\n<hr />\n<p><strong>Critical Success</strong> The target is unaffected.</p>\n<p><strong>Success</strong> The target is @Compendium[pf2e.conditionitems.Stunned]{Stunned 1} as time thickens around it.</p>\n<p><strong>Failure</strong> Time ceases to pass for the target for 1 round. It is invulnerable to all damage, it cannot be targeted or affected by anything, and no rounds elapse for any timed durations, conditions, afflictions, and other effects it has. While in <em>stasis</em>, the target can't be moved, and it remains fixed in place, defying gravity if need be.</p>\n<p><strong>Critical Failure</strong> As failure, but the target is held in stasis for 3 rounds. At the end of each of its turns, it can attempt a Will save to reduce the remaining duration by 1 round or end it entirely on a critical success.</p>"
        },
        "duration": {
            "value": "varies"
        },
        "hasCounteractCheck": {
            "value": false
        },
        "level": {
            "value": 4
        },
        "location": {
            "value": ""
        },
        "materials": {
            "value": ""
        },
        "prepared": {
            "value": ""
        },
        "primarycheck": {
            "value": ""
        },
        "range": {
            "value": "30 feet"
        },
        "rules": [],
        "save": {
            "basic": "",
            "value": "will"
        },
        "school": {
            "value": "transmutation"
        },
        "secondarycasters": {
            "value": ""
        },
        "secondarycheck": {
            "value": ""
        },
        "source": {
            "value": "Pathfinder Lost Omens: Gods & Magic"
        },
        "spellType": {
            "value": "save"
        },
        "sustained": {
            "value": false
        },
        "target": {
            "value": "1 creature or up to 1 Bulk of objects"
        },
        "time": {
            "value": "2"
        },
        "traditions": {
            "custom": "",
            "value": []
        },
        "traits": {
            "custom": "",
            "rarity": "common",
            "value": [
                "cleric",
                "incapacitation"
            ]
        }
    },
    "effects": [],
    "flags": {},
    "img": "systems/pf2e/icons/spells/stasis.webp",
    "name": "Stasis",
    "type": "spell"
}
