{
    "_id": "OhgfPzB5gymZ0IZM",
    "data": {
        "ability": {
            "value": ""
        },
        "area": {
            "areaType": "",
            "value": ""
        },
        "category": {
            "value": "spell"
        },
        "components": {
            "focus": false,
            "material": false,
            "somatic": true,
            "verbal": false
        },
        "cost": {
            "value": ""
        },
        "damage": {
            "value": {}
        },
        "description": {
            "value": "<p>You serve as an astral connection between your eidolon or familiar and the Akashic Record-a demiplane consisting of a comprehensive psychic library-then turn to the creature for advice. If you cast this spell on your familiar, your familiar adds your spellcasting ability modifier on checks to Recall Knowledge with the Lore skill of your choice, much like it does for Acrobatics and Stealth. Your familiar must have the speech familiar ability in order to share any information it learns with you. If you cast this spell on your eidolon, it instead becomes trained in the Lore skill.</p>\n<p>If you lose physical contact with the target, its connection to the Akashic Record is severed and timely tutor immediately ends.</p>"
        },
        "duration": {
            "value": "sustained up to 1 minute"
        },
        "hasCounteractCheck": {
            "value": false
        },
        "level": {
            "value": 2
        },
        "location": {
            "value": ""
        },
        "materials": {
            "value": ""
        },
        "range": {
            "value": "touch"
        },
        "rules": [],
        "save": {
            "basic": "",
            "value": ""
        },
        "school": {
            "value": "divination"
        },
        "source": {
            "value": "Pathfinder Secrets of Magic"
        },
        "spellType": {
            "value": "utility"
        },
        "sustained": {
            "value": false
        },
        "target": {
            "value": "your eidolon or familiar"
        },
        "time": {
            "value": "1"
        },
        "traditions": {
            "custom": "",
            "value": [
                "arcane",
                "occult"
            ]
        },
        "traits": {
            "custom": "",
            "rarity": "common",
            "value": [
                "mental"
            ]
        }
    },
    "effects": [],
    "flags": {},
    "img": "systems/pf2e/icons/spells/timely-tutor.webp",
    "name": "Timely Tutor",
    "type": "spell"
}
