{
    "_id": "YVOyEfO8tTx4jj2q",
    "data": {
        "actionCategory": {
            "value": ""
        },
        "actionType": {
            "value": "action"
        },
        "actions": {
            "value": 2
        },
        "description": {
            "value": "<p><strong>[Generic][Limited Use]</strong></p>\n<p>You vanquished the spirits of Warlock's Barrow, and now through some quirk of fate, you can call upon them to help you lay other undead to rest.</p>\n<p><strong>Action</strong> Two Actions</p>\n<p><strong>Effect</strong> The purified waters of Warlock's Barrow surround your weapons, now harming the undead instead of the living. You cast disrupting weapons as a 1st-level innate spell, except the spell also has the water trait.</p>"
        },
        "featType": {
            "value": "pfsboon"
        },
        "level": {
            "value": 0
        },
        "prerequisites": {
            "value": []
        },
        "rules": [],
        "source": {
            "value": ""
        },
        "traits": {
            "custom": "",
            "rarity": "common",
            "value": []
        }
    },
    "effects": [],
    "flags": {},
    "img": "systems/pf2e/icons/default-icons/mystery-man.webp",
    "name": "S1-20 - Waters of Warlock's Barrow",
    "type": "feat"
}
