{
    "_id": "CNnIS8jWVj00nPwF",
    "data": {
        "badge": null,
        "description": {
            "value": "<p>Granted by @Compendium[pf2e.feats-srd.Lost in the Crowd]{Lost in the Crowd}</p>\n<p>You've learned how to move as one with crowds and hide among them, vanishing into a busy street in the blink of an eye. You move at full Speed in crowds and can use cover from crowds to Hide and Sneak, gaining a +4 circumstance bonus on your Stealth checks when in a crowd of at least 100 creatures.</p>"
        },
        "duration": {
            "expiry": "turn-start",
            "sustained": false,
            "unit": "unlimited",
            "value": -1
        },
        "level": {
            "value": 1
        },
        "rules": [
            {
                "key": "FlatModifier",
                "selector": "stealth",
                "type": "circumstance",
                "value": 4
            }
        ],
        "source": {
            "value": "Pathfinder Lost Omens World Guide"
        },
        "start": {
            "initiative": null,
            "value": 0
        },
        "target": null,
        "tokenIcon": {
            "show": true
        },
        "traits": {
            "custom": "",
            "rarity": "common",
            "value": []
        }
    },
    "effects": [],
    "flags": {},
    "img": "systems/pf2e/icons/features/feats/lost-in-the-crowd.webp",
    "name": "Effect: Lost in the Crowd (100 Creatures)",
    "type": "effect"
}
