{
    "_id": "QDQwHxNowRwzUx9R",
    "data": {
        "badge": null,
        "description": {
            "value": "<p>You can make flowing wave attacks that deal 1d6 bludgeoning damage. They are in the brawling group and have the agile, disarm, finesse, nonlethal, trip, unarmed, and water traits.</p>\n<p>While in Reflective Ripple Stance, you gain a +1 circumstance bonus to Athletics checks to @Compendium[pf2e.actionspf2e.Disarm]{Disarm}, @Compendium[pf2e.actionspf2e.Swim]{Swim}, or @Compendium[pf2e.actionspf2e.Trip]{Trip}, and you gain a +2 circumstance bonus to your Reflex DC to avoid being Disarmed and Tripped.</p>"
        },
        "duration": {
            "expiry": "turn-start",
            "sustained": true,
            "unit": "unlimited",
            "value": -1
        },
        "level": {
            "value": 1
        },
        "rules": [
            {
                "category": "unarmed",
                "damage": {
                    "base": {
                        "damageType": "bludgeoning",
                        "dice": 1,
                        "die": "d6"
                    }
                },
                "group": "brawling",
                "key": "Strike",
                "label": "Flowing Wave",
                "range": null,
                "traits": [
                    "agile",
                    "disarm",
                    "finesse",
                    "nonlethal",
                    "trip",
                    "unarmed",
                    "water"
                ]
            },
            {
                "key": "FlatModifier",
                "label": "Reflective Ripple: Disarm, Swim, Trip",
                "predicate": {
                    "any": [
                        "action:disarm",
                        "action:swim",
                        "action:trip"
                    ]
                },
                "selector": "athletics",
                "type": "circumstance",
                "value": 1
            },
            {
                "key": "FlatModifier",
                "predicate": {
                    "any": [
                        "action:trip",
                        "action:disarm"
                    ]
                },
                "selector": "reflex",
                "type": "circumstance",
                "value": 2
            }
        ],
        "source": {
            "value": ""
        },
        "start": {
            "initiative": null,
            "value": 0
        },
        "target": null,
        "tokenIcon": {
            "show": false
        },
        "traits": {
            "custom": "",
            "rarity": "common",
            "value": []
        }
    },
    "effects": [],
    "flags": {},
    "img": "systems/pf2e/icons/features/feats/reflective-ripple-stance.webp",
    "name": "Effect: Reflective Ripple Stance",
    "type": "effect"
}
