{
    "_id": "7wDH2q0UcFdu2w58",
    "data": {
        "badge": null,
        "description": {
            "value": "<p>The creature deals additional damage based on the amount of longswords it wields.</p>"
        },
        "duration": {
            "expiry": "turn-start",
            "sustained": false,
            "unit": "rounds",
            "value": 1
        },
        "level": {
            "value": 17
        },
        "rules": [
            {
                "choices": [
                    {
                        "label": "1",
                        "value": 0
                    },
                    {
                        "label": "2",
                        "value": 1
                    },
                    {
                        "label": "3",
                        "value": 2
                    },
                    {
                        "label": "4",
                        "value": 3
                    },
                    {
                        "label": "5",
                        "value": 4
                    },
                    {
                        "label": "6",
                        "value": 5
                    }
                ],
                "flag": "focusedAssaultChoice",
                "key": "ChoiceSet",
                "prompt": "PF2E.NPCAbility.MarilithFocusedAssault"
            },
            {
                "diceNumber": "{item|flags.pf2e.rulesSelections.focusedAssaultChoice}",
                "dieSize": "d8",
                "key": "DamageDice",
                "predicate": {
                    "all": [
                        "focusedAssault"
                    ]
                },
                "selector": "cold-iron-silver-longsword-damage"
            }
        ],
        "source": {
            "value": ""
        },
        "start": {
            "initiative": null,
            "value": 0
        },
        "target": null,
        "tokenIcon": {
            "show": true
        },
        "traits": {
            "custom": "",
            "rarity": "common",
            "value": []
        }
    },
    "effects": [],
    "flags": {},
    "img": "systems/pf2e/icons/spells/echoing-weapon.webp",
    "name": "Effect: Focused Assault",
    "type": "effect"
}
