{
    "_id": "YIXeQFdrt0vPvmsW",
    "data": {
        "badge": null,
        "description": {
            "value": "<p>The bunyip's tail Strike gains reach 10 and @Compendium[pf2e.bestiary-ability-glossary-srd.Grab]{Grab}, but it's Jaws Strike looses the persistent bleed damage.</p>"
        },
        "duration": {
            "expiry": "turn-start",
            "sustained": false,
            "unit": "unlimited",
            "value": -1
        },
        "level": {
            "value": 3
        },
        "rules": [
            {
                "key": "Note",
                "selector": "tail-attack",
                "text": "<div data-visibility='gm'><p>@Localize[PF2E.AttackEffects.IncreasedReach5]</p><hr /><p><strong><span class='pf2-icon'>1</span> @Localize[PF2E.AttackEffectGrab]</strong> ({item|name})</p>@Localize[PF2E.NPC.Abilities.Glossary.Grab]</div>"
            },
            {
                "key": "GrantItem",
                "uuid": "Compendium.pf2e.bestiary-ability-glossary-srd.Grab"
            }
        ],
        "source": {
            "value": "Pathfinder Bestiary"
        },
        "start": {
            "initiative": null,
            "value": 0
        },
        "target": null,
        "tokenIcon": {
            "show": true
        },
        "traits": {
            "custom": "",
            "rarity": "common",
            "value": []
        }
    },
    "effects": [],
    "flags": {},
    "img": "systems/pf2e/icons/unarmed-attacks/tail.webp",
    "name": "Effect: Snake Form",
    "type": "effect"
}
