{
    "_id": "rB2othihPTaTf57h",
    "content": "<p>Play at the start of your turn.</p>\n<hr />\n<p>Make a Strike against each foe within reach. The multiple attack penalty applies as normal. At the end of these attacks, your turn ends and you are @Compendium[pf2e.conditionitems.Fatigued]{Fatigued}.</p>",
    "flags": {},
    "name": "Rampage",
    "permission": {
        "default": 0
    }
}
